<svg width="285mm" xmlns="http://www.w3.org/2000/svg" viewBox="0 0 285 375" version="1.1" height="375mm">
	<g stroke="#000" stroke-width="0.25px" fill-opacity="0.01">
		<path d="m89.98,100.2c0.1097-0.2883,0.3349-0.5307,0.6142-0.6615,0.3438-0.1609,0.7521-0.1493,1.11-0.02363,0.3339,0.1171,0.6284,0.3258,0.8962,0.557,0.2678,0.2313,0.5134,0.4872,0.7811,0.7187,0.785,0.6786,1.738,1.129,2.693,1.536,3.08,1.312,6.302,2.258,9.449,3.402,1.305,0.4743,2.606,0.9851,3.969,1.252,0.8635,0.1691,1.743,0.2385,2.622,0.2835,2.798,0.1432,5.61,0.0416,8.386-0.3307,2.37-0.3178,4.714-0.8328,6.993-1.559,3.264-1.041,6.384-2.514,9.308-4.299,1.486-0.9076,2.924-1.898,4.252-3.024,0.912-0.773,1.777-1.616,2.457-2.599,0.5742-0.8297,1.009-1.747,1.417-2.669,0.6728-1.518,1.284-3.066,1.772-4.654,0.3815-1.242,0.6982-2.532,1.417-3.614,0.3994-0.6008,0.9222-1.137,1.158-1.819,0.1305-0.3781,0.1649-0.7819,0.189-1.181,0.0344-0.5692,0.0535-1.155,0.2835-1.677,0.2854-0.6477,0.8846-1.132,1.559-1.347,0.5406-0.1717,1.132-0.1795,1.677-0.02363,0.766,0.219,1.404,0.7371,2.032,1.228,0.7465,0.5848,1.509,1.149,2.244,1.748,1.063,0.8671,2.065,1.807,3.024,2.788,0.8262,0.8447,1.625,1.724,2.551,2.457,0.5198,0.4114,1.082,0.7772,1.701,1.016,0.6887,0.2657,1.428,0.367,2.15,0.5197,0.8759,0.1852,1.734,0.448,2.575,0.756,1.57,0.5749,3.077,1.306,4.583,2.032,1.161,0.5595,2.324,1.117,3.473,1.701,0.9431,0.4795,1.881,0.9792,2.882,1.323,0.7522,0.2584,1.532,0.426,2.315,0.567,0.4483,0.08072,0.903,0.1542,1.323,0.3307,0.5898,0.2479,1.084,0.6906,1.465,1.205,0.2904,0.3922,0.5239,0.8395,0.5906,1.323,0.0817,0.5917-0.0963,1.202-0.4252,1.701-0.3326,0.504-0.806,0.8961-1.276,1.276-0.9733,0.7864-1.964,1.555-3.024,2.221-1.223,0.7683-2.531,1.396-3.733,2.197-1.063,0.7082-2.034,1.545-3.071,2.291-1.032,0.7427-2.127,1.393-3.213,2.055-1.647,1.004-3.276,2.038-4.961,2.977-1.904,1.061-3.88,2.002-5.693,3.213-1.17,0.7814-2.27,1.673-3.496,2.362-2.239,1.258-4.801,1.789-7.205,2.693-0.7068,0.2658-1.401,0.5645-2.08,0.8948"/>
		<path d="m147.7,121.3c-0.2693,1.42-0.5088,2.846-0.7183,4.276-0.2147,1.466-0.3979,2.936-0.5512,4.41-0.1765,1.696-0.3134,3.396-0.4677,5.095-0.218,2.4-0.4708,4.797-0.6682,7.2-0.1581,1.924-0.2806,3.851-0.3675,5.78"/>
		<path d="m144.9,148.1c0.5576,0.8609,1.234,1.645,2.005,2.322,0.8572,0.7537,1.823,1.371,2.773,2.005,1.607,1.072,3.23,2.221,5.112,2.656,1.139,0.2636,2.322,0.2516,3.491,0.2172,1.498-0.0442,2.995-0.1231,4.493-0.1336,0.8638-0.006,1.728,0.0106,2.589,0.0835,0.9678,0.082,1.939,0.2376,2.84,0.6014,0.5631,0.2274,1.096,0.5364,1.554,0.9354,0.2064,0.1799,0.3984,0.3791,0.5486,0.6081s0.2578,0.4894,0.2866,0.7617c0.0309,0.2914-0.0283,0.5846-0.1002,0.8686-0.1189,0.4696-0.2768,0.9371-0.5512,1.336-0.2371,0.345-0.553,0.6271-0.8686,0.902-0.7523,0.6551-1.524,1.292-2.205,2.021-0.5249,0.5627-0.9921,1.177-1.52,1.737-0.6946,0.7365-1.492,1.376-2.138,2.155-0.6217,0.7496-1.089,1.612-1.604,2.439-0.7389,1.188-1.578,2.311-2.355,3.474-0.5622,0.8421-1.092,1.706-1.587,2.589"/>
		<path d="m157.7,175.7c1.889-0.0253,3.778-0.1033,5.663-0.2338,1.924-0.1332,3.843-0.3212,5.763-0.5011,1.808-0.1694,3.616-0.3317,5.429-0.4343,1.118-0.0633,2.238-0.1039,3.358-0.0835,1.025,0.0187,2.054,0.0891,3.057,0.3007,1.115,0.235,2.185,0.6411,3.241,1.069,0.6776,0.2747,1.351,0.5591,2.021,0.8519,1.152,0.5034,2.293,1.032,3.458,1.503,1.005,0.4065,2.028,0.7705,3.007,1.236,0.7752,0.3688,1.52,0.8,2.238,1.27,2.603,1.701,4.849,3.888,7.325,5.769,1.735,1.317,3.579,2.482,5.363,3.733,2.365,1.658,4.646,3.483,7.276,4.677,1.352,0.6138,2.777,1.052,4.134,1.654,1.422,0.6306,2.77,1.441,4.252,1.914,0.3561,0.1134,0.7195,0.2072,1.063,0.3544,0.4817,0.2063,0.9312,0.5317,1.181,0.9922,0.1709,0.3149,0.2403,0.6891,0.1654,1.039-0.0796,0.3721-0.3139,0.6959-0.593,0.9545-0.2791,0.2587-0.6043,0.4614-0.9189,0.6755-0.8859,0.6029-1.699,1.305-2.528,1.984-1.127,0.9242-2.285,1.809-3.425,2.717-1.391,1.107-2.774,2.267-3.78,3.733-0.489,0.7129-0.8851,1.498-1.087,2.339-0.2071,0.8636-0.2048,1.761-0.2835,2.646-0.1043,1.172-0.3516,2.326-0.6142,3.473-0.4432,1.936-0.9322,3.864-1.583,5.741-0.6277,1.811-1.404,3.568-2.008,5.386-0.4357,1.312-0.7805,2.653-1.205,3.969-0.5181,1.607-1.154,3.173-1.819,4.725-0.8012,1.869-1.648,3.72-2.622,5.504-0.8787,1.608-1.86,3.158-2.811,4.725-0.9134,1.503-1.801,3.024-2.811,4.465-1.057,1.508-2.243,2.92-3.378,4.37-1.31,1.674-2.555,3.4-3.945,5.008-1.537,1.779-3.243,3.403-4.866,5.103-0.7234,0.7574-1.431,1.53-2.15,2.291-1.108,1.174-2.254,2.33-3.591,3.236-0.7166,0.4858-1.482,0.8952-2.221,1.347-0.768,0.4691-1.508,0.9832-2.268,1.465-1.695,1.073-3.491,1.982-5.339,2.764-1.385,0.5859-2.805,1.102-4.276,1.417-1.11,0.2377-2.243,0.3595-3.378,0.378-0.9818,0.016-2.006-0.0567-2.858-0.5434-0.8705-0.4968-1.464-1.373-1.866-2.291-0.4844-1.106-0.7329-2.3-0.8977-3.496-0.1015-0.7368-0.1725-1.478-0.2126-2.221"/>
		<path d="m156.4,272.6c-0.1748-0.6875-0.429-1.355-0.756-1.984-0.7598-1.463-1.892-2.692-2.906-3.992-0.8973-1.151-1.711-2.37-2.693-3.449-0.9371-1.03-2.023-1.924-3.213-2.646"/>
		<path d="m146.8,260.6c-0.8549,0.0122-1.709,0.0912-2.551,0.2362-1.051,0.1808-2.081,0.4634-3.118,0.7087-2.006,0.4744-4.047,0.8111-6.024,1.394-1.297,0.3822-2.561,0.8685-3.851,1.276-2.18,0.6885-4.425,1.148-6.638,1.725-2.235,0.5821-4.452,1.289-6.496,2.362-1.171,0.6145-2.278,1.345-3.449,1.961-1.078,0.5671-2.206,1.035-3.355,1.441-0.769,0.272-1.573,0.5199-2.386,0.4488-0.8175-0.0715-1.6-0.4803-2.126-1.11"/>
		<path d="m106.8,271c0.0959,0.5683,0.0382,1.162-0.1654,1.701-0.1641,0.4346-0.4225,0.834-0.756,1.158-0.4778,0.4636-1.1,0.7625-1.747,0.9173-0.6475,0.1548-1.322,0.1713-1.985,0.1221-1.572-0.1164-3.112-0.6005-4.488-1.37-2.119-1.185-3.801-2.998-5.599-4.63-1.115-1.012-2.286-1.963-3.378-3-1.714-1.626-3.229-3.457-4.559-5.41-1.513-2.219-2.787-4.593-3.945-7.016-1.057-2.214-2.019-4.471-3.024-6.709-1.107-2.465-2.268-4.909-3.213-7.441-1.059-2.839-1.841-5.78-2.362-8.764-0.3501-2.005-0.584-4.035-1.11-6-0.3722-1.39-0.89-2.742-1.559-4.016-0.5632-1.072-1.265-2.121-2.291-2.764-0.8504-0.5332-1.856-0.7472-2.835-0.9686-1.053-0.2381-2.103-0.4954-3.166-0.6851-1.06-0.1892-2.141-0.311-3.213-0.2126-0.1969,0.0181-0.3976,0.0433-0.5906,0-0.1652-0.0371-0.3167-0.1236-0.4456-0.2333s-0.2366-0.2424-0.334-0.3809c-0.1662-0.2366-0.3054-0.4953-0.381-0.7744-0.07554-0.2791-0.08495-0.5801,0.003-0.8556,0.08106-0.254,0.241-0.4768,0.4277-0.6671,0.1867-0.1902,0.4008-0.351,0.6117-0.5141,0.9058-0.7004,1.768-1.456,2.599-2.244,0.7603-0.7215,1.496-1.472,2.315-2.126,1.167-0.932,2.491-1.656,3.874-2.221,0.8306-0.3388,1.684-0.6212,2.551-0.8504,0.928-0.2453,1.876-0.4303,2.835-0.4725,1.013-0.0445,2.028,0.0709,3.024,0.2599,1.383,0.2623,2.739,0.6667,4.04,1.205"/>
		<path d="m77.93,206c0.8793-0.2413,1.747-0.5252,2.599-0.8504,1.716-0.6552,3.387-1.484,5.197-1.795,0.5807-0.1,1.17-0.1455,1.748-0.2599,1.689-0.3342,3.203-1.237,4.677-2.126,1.728-1.042,3.456-2.088,5.244-3.024,2.078-1.087,4.234-2.023,6.426-2.858,1.24-0.4729,2.493-0.9141,3.756-1.323"/>
		<path d="m107.6,193.8c0.3204-0.3251,0.5649-0.7244,0.7087-1.158,0.1843-0.5551,0.2021-1.153,0.1516-1.736-0.0505-0.5827-0.1672-1.157-0.2461-1.737-0.2256-1.657-0.15-3.388-0.7796-4.937-0.299-0.7357-0.7526-1.408-1.323-1.961"/>
		<path d="m106.1,182.3c-1.444-0.3488-2.914-0.586-4.394-0.7087-1.265-0.1049-2.535-0.1262-3.803-0.1654-2.425-0.0748-4.85-0.2149-7.276-0.2126-0.4429,0.00042-0.887,0.006-1.327-0.0429-0.4403-0.0485-0.8793-0.1524-1.271-0.3587-0.2813-0.148-0.5361-0.3486-0.738-0.5942s-0.35-0.5366-0.4195-0.8469c-0.09684-0.4324-0.03748-0.894,0.1417-1.299,0.1693-0.3829,0.4406-0.7145,0.7519-0.9944,0.3113-0.28,0.663-0.5112,1.02-0.7301,1.139-0.6982,2.359-1.287,3.662-1.583,0.7701-0.1752,1.565-0.2477,2.315-0.4961,0.7935-0.2629,1.509-0.7134,2.244-1.11,1.315-0.7093,2.738-1.271,3.851-2.268,0.9407-0.8429,1.6-1.946,2.362-2.953,1.299-1.717,2.923-3.191,4.04-5.032,0.5589-0.9219,0.9812-1.923,1.299-2.953,0.4492-1.455,0.6918-2.965,1.063-4.441,0.1631-0.6488,0.3531-1.296,0.6614-1.89,0.0968-0.1863,0.2055-0.3675,0.3406-0.5282s0.2977-0.3008,0.4862-0.3931c0.3178-0.1556,0.6864-0.1663,1.039-0.1417,0.2044,0.0143,0.4093,0.0396,0.6051,0.1,0.1958,0.0605,0.383,0.1577,0.5289,0.3016,0.1385,0.1366,0.2356,0.3109,0.3006,0.4942s0.0992,0.376,0.1246,0.5688c0.1164,0.884,0.0513,1.781-0.0236,2.669-0.11,1.305-0.2411,2.612-0.2126,3.922,0.026,1.195,0.1847,2.384,0.3544,3.567,0.1184,0.8258,0.2422,1.651,0.3307,2.48,0.1039,0.9729,0.1591,1.951,0.1654,2.929"/>
		<path d="m114.3,169.6c0.7318,0.5258,1.427,1.102,2.079,1.725,0.9087,0.8671,1.732,1.821,2.504,2.811,0.6008,0.7705,1.172,1.564,1.701,2.386,0.7101,1.103,1.343,2.256,1.89,3.449,0.4994,1.09,0.9268,2.212,1.465,3.284,0.6939,1.382,1.57,2.672,2.599,3.827"/>
		<path d="m126.6,187.1c0.9958-0.5653,2.021-1.078,3.071-1.536,0.9974-0.4346,2.016-0.8191,3.024-1.228,0.7779-0.3159,1.55-0.6467,2.315-0.9922"/>
		<path d="m135,183.3c0.1313-1.53,0.2888-3.058,0.4725-4.583,0.3288-2.73,0.7415-5.453,0.9213-8.197,0.1525-2.328,0.1367-4.667-0.0472-6.993"/>
		<path d="m136.3,163.5c-0.848-0.7373-1.74-1.424-2.67-2.055-1.612-1.094-3.333-2.02-5.103-2.835-0.9354-0.4307-1.891-0.8344-2.74-1.417-0.5307-0.3645-1.013-0.7946-1.488-1.228-0.7509-0.6848-1.517-1.423-1.843-2.386-0.232-0.6869-0.2132-1.459,0.0709-2.126,0.188-0.4414,0.4878-0.833,0.8571-1.139,0.3692-0.3063,0.8068-0.5278,1.269-0.656,0.718-0.1992,1.476-0.1736,2.221-0.189,0.2127-0.004,0.4254-0.0123,0.6378-0.0236"/>
		<path d="m127.5,149.5c0.7069-0.8444,1.377-1.72,2.008-2.622,1.134-1.622,2.139-3.33,3.189-5.008,1.236-1.974,2.535-3.909,3.733-5.906,0.7435-1.24,1.447-2.503,2.126-3.78,0.6201-1.166,1.219-2.343,1.819-3.52,0.6297-1.236,1.272-2.514,1.37-3.898,0.0336-0.4738,0.002-0.9522-0.0945-1.417"/>
		<path d="m141.7,123.3c-0.7612,0.1757-1.518,0.3727-2.268,0.5906-1.324,0.3844-2.629,0.8341-3.969,1.158-2.087,0.5038-4.236,0.6964-6.378,0.8268-2.141,0.1303-4.286,0.2001-6.426,0.3544-2.678,0.1931-5.348,0.5186-8.032,0.6142-1.99,0.0709-4.022,0.009-5.906-0.6378-2.221-0.7623-4.089-2.283-5.859-3.827-1.76-1.536-3.481-3.13-4.961-4.937-1.501-1.833-2.738-3.864-4.087-5.811-1.098-1.586-2.274-3.12-3.307-4.748-0.7541-1.188-1.444-2.459-1.654-3.851-0.06122-0.4054-0.08062-0.8203-0.01375-1.225,0.06688-0.4045,0.2234-0.7993,0.4862-1.114,0.1853-0.2219,0.4215-0.401,0.6851-0.5197"/>
		<path d="m89.2,216.4c2.08-0.8466,4.152-1.715,6.214-2.606,2.612-1.128,5.212-2.293,7.717-3.642,1.531-0.824,3.025-1.716,4.477-2.673"/>
		<path d="m107.6,207.5c0.2808,2.852,0.3144,5.728,0.1002,8.586-0.1675,2.235-0.4864,4.459-0.9688,6.648-0.5533,2.511-1.32,4.969-2.105,7.417-0.7785,2.429-1.577,4.854-2.539,7.216-1.161,2.849-2.559,5.601-4.176,8.219"/>
		<path d="m97.92,245.6c-1.301-2.929-2.406-5.945-3.307-9.02-0.891-3.041-1.581-6.136-2.305-9.221-0.728-3.102-1.492-6.2-2.506-9.221-0.1916-0.571-0.3921-1.139-0.6014-1.704"/>
		<path d="m128.7,198.3,2.806-0.5011"/>
		<path d="m131.5,197.8c0.2064,1.773,0.2957,3.56,0.2673,5.345-0.0416,2.607-0.334,5.212-0.2339,7.818,0.0866,2.253,0.4682,4.495,1.136,6.648,0.6837,2.205,1.685,4.345,3.207,6.08,0.8722,0.9948,1.903,1.843,3.007,2.572,2.128,1.406,4.541,2.378,7.049,2.84"/>
		<path d="m145.9,229.1c-0.1625,0.3866-0.3643,0.7566-0.6014,1.102-0.7488,1.093-1.822,1.913-2.856,2.74-2.084,1.665-4.083,3.432-6.114,5.162-1.504,1.281-3.032,2.546-4.36,4.009-1.517,1.671-2.762,3.586-4.393,5.145-1.16,1.108-2.5,2.02-3.926,2.756-2.93,1.514-6.176,2.281-9.288,3.374-1.651,0.5799-3.272,1.255-4.811,2.088-1.933,1.046-3.732,2.338-5.713,3.291-0.2426,0.1166-0.4876,0.228-0.735,0.3341"/>
		<path d="m103.1,259.1c-0.3867-0.5039-0.7386-1.035-1.052-1.587-0.9016-1.587-1.479-3.335-2.238-4.995-0.4449-0.9726-0.9531-1.916-1.52-2.823"/>
		<path d="m98.29,249.7c1.007-0.3451,2.004-0.7183,2.99-1.119,1.235-0.5023,2.456-1.049,3.608-1.721,0.9707-0.5655,1.889-1.217,2.79-1.888,1.518-1.131,3-2.328,4.26-3.742,1.038-1.166,1.913-2.465,2.856-3.708,1.147-1.512,2.406-2.957,3.307-4.627,0.4702-0.8712,0.838-1.795,1.136-2.74,0.4228-1.34,0.7057-2.719,1.069-4.076,0.4894-1.828,1.124-3.613,1.804-5.379,0.7808-2.029,1.621-4.034,2.355-6.08,0.4212-1.174,0.8074-2.363,1.102-3.575,0.3878-1.593,0.6169-3.222,1.019-4.811,0.4841-1.914,1.216-3.759,1.67-5.679,0.1759-0.7434,0.3098-1.497,0.4009-2.255"/>
		<path d="m150.8,196.5c0.9276-0.5293,1.763-1.22,2.457-2.032,0.6826-0.7983,1.228-1.713,1.606-2.693"/>
		<path d="m154.8,191.7c1.214-0.1895,2.436-0.3314,3.662-0.4252,3.425-0.2622,6.865-0.1488,10.3-0.0945,1.775,0.0281,3.556,0.0407,5.315,0.2835,1.188,0.1639,2.367,0.4345,3.473,0.8977,1.282,0.5372,2.442,1.322,3.638,2.032,0.7577,0.4496,1.534,0.8718,2.244,1.394,0.6974,0.5129,1.325,1.12,1.866,1.795,0.6043,0.7549,1.1,1.595,1.488,2.48,0.3668,0.8357,0.6388,1.711,0.8504,2.599,0.2339,0.9814,0.3946,1.979,0.5433,2.977,0.1462,0.9808,0.2814,1.964,0.3544,2.953,0.1433,1.942,0.0461,3.893-0.0945,5.835-0.1196,1.651-0.2706,3.301-0.5197,4.937-0.2688,1.766-0.6519,3.515-1.181,5.221-0.6742,2.173-1.582,4.265-2.362,6.402-0.7722,2.115-1.42,4.274-2.221,6.378-0.8653,2.274-1.907,4.477-3.024,6.638-1.113,2.154-2.3,4.268-3.449,6.402-0.5854,1.087-1.162,2.182-1.843,3.213-0.8593,1.301-1.877,2.49-2.788,3.756-0.7029,0.9774-1.342,2.001-2.079,2.953-0.291,0.3758-0.602,0.7446-0.9922,1.016-0.573,0.3982-1.275,0.5583-1.961,0.6851-0.6634,0.1226-1.35,0.2215-2.008,0.0709-0.457-0.1047-0.8822-0.3278-1.252-0.6155-0.3703-0.2876-0.6876-0.6389-0.9682-1.015-0.3133-0.4195-0.5829-0.8716-0.8032-1.347"/>
		<path d="m161,259.2c0.3178-0.3737,0.5883-0.7875,0.8032-1.228,0.4202-0.8622,0.6223-1.814,0.756-2.764,0.1909-1.356,0.2482-2.749-0.0472-4.087-0.2638-1.195-0.812-2.329-1.606-3.26-0.5348-0.6264-1.176-1.157-1.866-1.606-1.138-0.7405-2.413-1.262-3.733-1.583-1.898-0.4611-3.868-0.5077-5.811-0.7087-1.149-0.1189-2.293-0.2924-3.425-0.5197"/>
		<path d="m146.1,243.4c0.9984-0.4994,1.962-1.068,2.882-1.701,1.641-1.129,3.137-2.457,4.583-3.827,1.019-0.9654,2.032-1.966,3.26-2.646,0.5763-0.319,1.192-0.5623,1.772-0.8741,1.187-0.6377,2.242-1.567,3.544-1.914,0.9876-0.263,2.032-0.1655,3.047-0.2835,1.563-0.1816,3.017-0.8669,4.536-1.276,1.319-0.3549,2.684-0.5006,4.016-0.8032,1.041-0.2365,2.082-0.5803,2.929-1.228,0.6741-0.5153,1.207-1.216,1.512-2.008,0.4643-1.204,0.3865-2.582-0.0945-3.78-0.4975-1.239-1.387-2.27-2.197-3.331-0.834-1.091-1.598-2.235-2.457-3.307-0.9831-1.227-2.1-2.367-3.425-3.213-2.006-1.281-4.405-1.833-6.78-1.984-2.317-0.1474-4.642,0.0659-6.945,0.3544-0.9837,0.1232-1.966,0.2602-2.953,0.3544-0.778,0.0743-1.558,0.1218-2.339,0.1654-0.4582,0.0256-0.9183,0.0497-1.376,0.0103-0.4572-0.0394-0.9146-0.1449-1.317-0.3646-0.2375-0.1295-0.4538-0.2978-0.6378-0.4961"/>
		<path d="m147.6,211.2c-0.2065-1.04-0.2545-2.111-0.1417-3.166,0.1042-0.9742,0.3438-1.928,0.567-2.882,0.1763-0.7535,0.3432-1.511,0.5906-2.244,0.4031-1.195,1.014-2.31,1.441-3.496,0.3474-0.9664,0.5703-1.977,0.6615-3"/>
	</g>
</svg>
