<svg width="285mm" xmlns="http://www.w3.org/2000/svg" viewBox="0 0 285 375" version="1.1" height="375mm">
	<g stroke="#000" stroke-width="0.25px" fill-opacity="0.01">
		<path d="m158.4,67.91c1.871,0.1112,3.742,0.2226,5.613,0.3341,2.385,0.1421,4.797,0.2831,7.149-0.1336,2.475-0.4384,4.803-1.481,7.016-2.673,2.711-1.46,5.292-3.157,7.751-5.011,0.9651-0.7277,1.914-1.481,2.943-2.116,1.029-0.6347,2.147-1.151,3.338-1.359,0.9473-0.1647,1.92-0.1301,2.873,0,2.107,0.2877,4.119,1.032,6.147,1.67,1.464,0.4606,2.963,0.8762,4.276,1.67,0.8507,0.5146,1.632,1.216,2.005,2.138,0.2021,0.5009,0.275,1.051,0.233,1.589-0.042,0.5385-0.1973,1.066-0.4334,1.551-0.2936,0.6041-0.719,1.152-1.27,1.537-0.7087,0.4954-1.575,0.6946-2.405,0.9354-1.893,0.5491-3.698,1.361-5.479,2.205-1.89,0.8961-3.761,1.832-5.613,2.806-2.654,1.397-5.271,2.873-8.018,4.076-1.828,0.7999-3.708,1.476-5.613,2.071-1.785,0.5582-3.611,1.049-5.479,1.136-2.796,0.1301-5.598-0.6655-8.018-2.071-2.209-1.283-4.097-3.048-5.88-4.878-0.7037-0.7224-1.394-1.458-2.071-2.205"/>
		<path d="m157.5,71.18c-0.2841-0.6004-0.324-1.312-0.1087-1.94,0.1864-0.5442,0.5606-1.022,1.044-1.334"/>
		<path d="m163.3,86.28c1.171,0.3967,2.382,0.6769,3.608,0.8352,1.659,0.2142,3.339,0.2051,5.011,0.167,2.619-0.05951,5.263-0.1931,7.784-0.902,2.683-0.7543,5.138-2.134,7.651-3.341,1.724-0.8284,3.486-1.58,5.178-2.472,0.6086-0.3209,1.224-0.6655,1.904-0.7684,0.6468-0.09778,1.306,0.03095,1.938,0.2005,3.499,0.9388,6.527,3.099,9.421,5.279,0.7202,0.5424,1.443,1.093,2.038,1.771,0.2219,0.2525,0.4265,0.5238,0.571,0.8273s0.2271,0.6419,0.1974,0.9768c-0.0244,0.2747-0.1238,0.5399-0.2672,0.7755s-0.33,0.4428-0.5346,0.6277c-0.6547,0.5915-1.482,0.9512-2.305,1.27-1.314,0.5083-2.658,0.9369-4.009,1.336-2.014,0.5954-4.048,1.127-6.047,1.771-3.407,1.098-6.713,2.522-10.19,3.374-1.87,0.4583-3.776,0.7477-5.679,1.036-1.97,0.2981-3.956,0.5963-5.947,0.5011-2.225-0.1064-4.447-0.7223-6.314-1.938-1.412-0.919-2.589-2.154-3.675-3.441-1.042-1.235-2.013-2.53-2.907-3.875"/>
		<path d="m160.8,90.29c-0.0907-0.6208-0.1576-1.245-0.2004-1.871-0.0175-0.2558-0.031-0.5134-0.001-0.7681,0.0298-0.2547,0.1051-0.5083,0.2517-0.7186,0.1279-0.1835,0.3064-0.3284,0.5037-0.4338s0.4132-0.1725,0.6322-0.2177c0.4558-0.09395,0.9307-0.09395,1.386,0"/>
		<path d="m137.2,105.1c1.217,0.5522,2.484,0.9955,3.78,1.323,2.378,0.6008,4.834,0.8082,7.276,1.039,3.395,0.3215,6.796,0.6934,10.21,0.6142,3.329-0.0773,6.631-0.584,9.922-1.087,4.15-0.6339,8.303-1.263,12.47-1.748,3.163-0.3678,6.346-0.6539,9.449-1.37,3.221-0.7435,6.333-1.946,9.591-2.504,2.818-0.4831,5.694-0.4758,8.552-0.567,3.707-0.1183,7.449-0.4023,11.1,0.2362,2.453,0.4287,4.815,1.266,7.134,2.173,2.418,0.9464,4.84,1.995,6.851,3.638,1.235,1.01,2.318,2.27,2.835,3.78,0.6432,1.879,0.3158,4.062-0.8504,5.67"/>
		<path d="m235.5,116.3c-0.3808,0.2483-0.7966,0.4427-1.231,0.5757-1.052,0.322-2.175,0.2777-3.274,0.3341-1.652,0.0847-3.29,0.4032-4.944,0.4009-2.542-0.003-5.014-0.7607-7.517-1.203-2.861-0.5052-5.781-0.5992-8.686-0.5345-3.258,0.0726-6.509,0.3431-9.755,0.6348-3.177,0.2854-6.358,0.5921-9.488,1.203-3.303,0.6442-6.545,1.626-9.889,2.005-3.639,0.4123-7.427,0.1194-10.86,1.403-1.243,0.465-2.404,1.127-3.642,1.604-2.481,0.9558-5.193,1.14-7.851,1.069-2.478-0.0664-5.001-0.3598-7.25-1.403-1.611-0.7474-3.024-1.852-4.477-2.873-1.62-1.138-3.306-2.18-4.978-3.241-1.264-0.802-2.538-1.629-3.541-2.74-0.5905-0.6535-1.083-1.406-1.37-2.238-0.2579-0.7486-0.3454-1.545-0.568-2.305-0.1282-0.4379-0.3008-0.8616-0.4391-1.296-0.1383-0.4348-0.243-0.8868-0.2291-1.343,0.006-0.195,0.0339-0.3904,0.0976-0.5747,0.0637-0.1844,0.1641-0.3577,0.3033-0.4943,0.1628-0.1597,0.3774-0.2657,0.6031-0.2979s0.4614,0.01,0.6623,0.1174"/>
		<path d="m81.97,65.44c2.252-0.402,4.592-0.3045,6.804,0.2835,1.2,0.3191,2.358,0.7792,3.496,1.276,2.726,1.189,5.354,2.591,7.938,4.063,3.21,1.829,6.387,3.791,9.024,6.378,2.958,2.901,5.136,6.488,7.229,10.06,1.728,2.951,3.426,5.936,4.677,9.119,0.4417,1.123,0.8274,2.271,1.087,3.449,0.6827,3.103,0.473,6.32,0.4725,9.497-0.00038,2.317,0.1124,4.632,0.2362,6.945,0.1272,2.376,0.2662,4.758,0.1417,7.134-0.0951,1.816-0.3449,3.627-0.8032,5.386-0.313,1.202-0.7226,2.378-0.9922,3.591-0.3886,1.748-0.4811,3.549-0.4725,5.339,0.0108,2.24,0.1765,4.499-0.189,6.709-0.2657,1.607-0.8083,3.16-1.039,4.772-0.215,1.499-0.1569,3.022-0.0945,4.536,0.087,2.111,0.1815,4.221,0.2835,6.331"/>
		<path d="m119.8,160.3c0.6452-0.4047,1.326-0.753,2.032-1.039,0.8593-0.3488,1.755-0.6062,2.599-0.9922,1.268-0.5804,2.395-1.445,3.355-2.457,0.7523-0.7937,1.405-1.679,2.173-2.457,2.039-2.066,4.779-3.275,7.512-4.252,2.428-0.8681,4.916-1.593,7.465-1.984,3.923-0.6026,7.935-0.4065,11.86,0.189,3.304,0.5014,6.584,1.291,9.638,2.646,2.6,1.153,5.013,2.706,7.229,4.488,2.298,1.848,4.389,3.944,6.709,5.764,0.7492,0.5878,1.523,1.147,2.221,1.795,0.3717,0.3452,0.7268,0.7232,0.9449,1.181,0.1433,0.3008,0.2243,0.6366,0.1946,0.9685-0.0296,0.3319-0.1765,0.6588-0.4309,0.8741-0.2017,0.1708-0.4598,0.2645-0.7207,0.3064-0.261,0.0419-0.5271,0.035-0.7912,0.0243-1.636-0.0657-3.266-0.2688-4.866-0.6142-2.894-0.6247-5.666-1.708-8.504-2.551-1.986-0.5903-4.006-1.064-6.048-1.417"/>
		<path d="m162.3,160.8c-0.3261,0.6795-0.6568,1.357-0.9922,2.032-0.6081,1.224-1.232,2.44-1.89,3.638-0.8436,1.535-1.753,3.049-2.929,4.347-1.215,1.339-2.697,2.423-4.299,3.26-2.521,1.316-5.337,2.023-8.174,2.221-2.845,0.1982-5.707-0.107-8.504-0.6614-2.631-0.5215-5.261-1.283-7.512-2.74-0.8566-0.5546-1.651-1.206-2.362-1.937"/>
		<path d="m125.7,170.9c-0.4277,0.5854-0.9194,1.124-1.464,1.603-0.4399,0.3874-0.913,0.7351-1.37,1.102-0.5472,0.4401-1.072,0.9086-1.57,1.403"/>
		<path d="m121.3,175c0.2075,0.6115,0.3097,1.259,0.3007,1.904-0.01,0.7067-0.1526,1.41-0.4009,2.071-0.3534,0.9418-0.9136,1.791-1.503,2.606-1.191,1.646-2.523,3.19-3.976,4.61"/>
		<path d="m115.7,186.2c0.1686,0.8681,0.236,1.756,0.2004,2.639-0.0323,0.8024-0.149,1.607-0.0668,2.405,0.0311,0.3022,0.0905,0.601,0.1167,0.9036,0.0261,0.3026,0.0177,0.614-0.0833,0.9004-0.0942,0.2674-0.2658,0.5026-0.4677,0.7016-0.4257,0.4196-1.006,0.6908-1.604,0.7016-0.5328,0.01-1.064-0.189-1.47-0.5345-0.1996-0.17-0.3699-0.3744-0.5011-0.6014"/>
		<path d="m111.8,193.4c-0.1103,0.4155-0.2329,0.8278-0.3675,1.236-0.1256,0.3812-0.2678,0.7692-0.5345,1.069-0.2165,0.2434-0.5056,0.4153-0.8128,0.5238-0.3072,0.1086-0.6328,0.1564-0.9579,0.1778-1.049,0.0688-2.136-0.147-3.007-0.735-0.9418-0.636-1.558-1.643-2.105-2.639-0.4127-0.7519-0.8077-1.53-0.9688-2.372-0.1638-0.8561-0.0784-1.738,0-2.606,0.0645-0.7139,0.1327-1.456,0.5011-2.071,0.1718-0.2868,0.4023-0.5332,0.6014-0.8018,0.4674-0.6308,0.7595-1.39,0.8352-2.172"/>
		<path d="m105,183c-0.4506,0.7088-1.031,1.335-1.704,1.837-0.8364,0.625-1.802,1.053-2.773,1.437-1.791,0.7073-3.642,1.284-5.546,1.57-1.823,0.274-3.682,0.2792-5.512,0.0668-2.02-0.2343-4.049-0.751-5.746-1.871-1.281-0.8451-2.323-1.999-3.508-2.973-0.8831-0.7257-1.846-1.352-2.706-2.105-1.009-0.8838-1.884-1.967-2.305-3.241-0.2974-0.8994-0.3587-1.859-0.3675-2.806-0.0016-0.167-0.0016-0.3341,0-0.5011"/>
		<path d="m86.33,171.2c0.871,0.2855,1.73,0.6088,2.572,0.9689,0.572,0.2443,1.148,0.5125,1.604,0.9354,0.4797,0.4448,0.7971,1.032,1.169,1.57,0.4678,0.6763,1.032,1.286,1.67,1.804"/>
		<path d="m86.33,171.2c0.3262,0.4503,0.5352,0.9847,0.6014,1.537,0.05173,0.432,0.01734,0.8707,0.06682,1.303,0.04614,0.4031,0.1685,0.8034,0.4009,1.136,0.3305,0.473,0.8514,0.7716,1.27,1.169,0.5161,0.4908,0.8712,1.128,1.37,1.637,0.2566,0.2617,0.5499,0.4873,0.8686,0.6682"/>
		<path d="m90.91,178.6c0.1514-0.5194,0.4428-0.9973,0.8352-1.37,0.4398-0.4175,1.006-0.7005,1.604-0.8018"/>
		<path d="m74.84,174.4c-0.5494-0.1294-1.108-0.2188-1.67-0.2672-0.8548-0.0736-1.715-0.0525-2.572-0.0334-0.8032,0.0179-1.608,0.0342-2.405,0.1336-1.459,0.1819-2.869,0.6388-4.31,0.9354-0.7372,0.1518-1.486,0.2618-2.238,0.2673-0.3505,0.003-0.7043-0.0182-1.042-0.1113-0.3379-0.0931-0.6611-0.2629-0.8955-0.5235-0.1987-0.2209-0.3267-0.4989-0.4003-0.7868-0.07367-0.2879-0.09537-0.5866-0.1008-0.8836-0.01037-0.5682,0.04069-1.149,0.2673-1.67,0.2862-0.6582,0.8266-1.168,1.37-1.637,0.9679-0.8363,1.99-1.608,3.04-2.339,1.494-1.039,3.044-1.993,4.577-2.973,1.488-0.9515,2.997-1.944,4.711-2.372,1.12-0.28,2.292-0.3075,3.441-0.2005,0.8235,0.0767,1.647,0.2216,2.472,0.167,0.9884-0.0654,1.934-0.4138,2.907-0.6014,1.641-0.3164,3.341-0.1701,4.978,0.167,1.299,0.2676,2.573,0.6542,3.809,1.136,1.77,0.6897,3.458,1.572,5.112,2.506,1.066,0.602,2.121,1.226,3.14,1.904,1.406,0.9348,2.759,1.985,3.809,3.307,0.4521,0.5697,0.8446,1.187,1.169,1.837"/>
		<path d="m104,172.3c-0.2594-1.357-0.1305-2.787,0.3675-4.076,0.1283-0.3322,0.281-0.6568,0.3675-1.002,0.1454-0.581,0.0965-1.192,0.0225-1.786-0.074-0.5943-0.1723-1.192-0.1228-1.789,0.0678-0.8175,0.408-1.584,0.6348-2.372,0.2373-0.8252,0.3514-1.682,0.4009-2.539,0.0854-1.479-0.0196-2.962-0.0334-4.443-0.0104-1.114,0.0309-2.229,0.1002-3.341,0.1076-1.726,0.2832-3.45,0.2673-5.178-0.01-1.075-0.0943-2.152-0.3007-3.207-0.2813-1.438-0.8021-2.854-1.704-4.009-0.5723-0.7332-1.283-1.344-1.938-2.005-0.9447-0.9526-1.778-2.013-2.506-3.14-0.9114-1.412-1.655-2.923-2.439-4.41-0.9406-1.785-1.941-3.539-2.84-5.345-0.7324-1.472-1.398-2.978-2.205-4.41-0.8591-1.524-1.874-2.956-2.74-4.477-0.7039-1.237-1.317-2.561-1.47-3.976-0.142-1.31,0.1159-2.626,0.167-3.942,0.04585-1.181-0.07506-2.361-0.1336-3.541-0.04779-0.963-0.05231-1.943,0.2005-2.873,0.3326-1.224,1.087-2.284,1.837-3.307,0.8241-1.124,1.665-2.244,2.673-3.207,1.539-1.471,3.421-2.532,5.345-3.441,0.7823-0.3696,1.578-0.7176,2.405-0.9689,0.9206-0.2793,1.878-0.437,2.84-0.4677"/>
		<path d="m103.2,89.09c-0.7739-1.02-1.611-1.991-2.506-2.907-1.068-1.094-2.221-2.112-3.174-3.307-0.7784-0.9769-1.412-2.059-2.038-3.14-0.6356-1.099-1.273-2.211-2.138-3.14-1.04-1.117-2.364-1.921-3.608-2.806-1.091-0.7769-2.131-1.625-3.14-2.506-0.6717-0.5862-1.331-1.187-2.005-1.771-0.6678-0.5781-1.353-1.142-1.938-1.804-0.3578-0.4054-0.6856-0.8688-0.7684-1.403-0.04491-0.29-0.01399-0.5914,0.08888-0.8662"/>
		<path d="m107.2,101c0.3452,1.225,0.6904,2.45,1.036,3.675,0.3195,1.134,0.6391,2.268,0.9354,3.408,0.2667,1.026,0.5148,2.058,0.6682,3.107,0.2003,1.37,0.2374,2.758,0.2339,4.143-0.005,1.76-0.0742,3.519-0.1336,5.279-0.0526,1.559-0.0972,3.118-0.1336,4.677"/>
		<path d="m107.2,101c-0.5355,0.015-1.07,0.0485-1.604,0.1002-0.7232,0.0702-1.448,0.175-2.138,0.4009-0.6467,0.2115-1.259,0.5285-1.804,0.9354-0.6016,0.449-1.119,1.004-1.57,1.604-0.2773,0.3683-0.5345,0.7615-0.6682,1.203-0.1307,0.4313-0.1379,0.8917-0.09113,1.34,0.04675,0.4482,0.1459,0.8891,0.2248,1.333,0.1618,0.9105,0.2382,1.836,0.4343,2.74,0.2652,1.222,0.7457,2.388,1.303,3.508,0.5688,1.143,1.219,2.243,1.871,3.341,0.704,1.185,1.413,2.371,2.238,3.475,1.236,1.653,2.729,3.112,4.41,4.31"/>
		<path d="m134.3,166.2c0.6028-1.439,1.55-2.732,2.74-3.742,0.8342-0.7077,1.782-1.274,2.773-1.737,1.763-0.8235,3.656-1.321,5.512-1.904,0.8299-0.2607,1.654-0.5392,2.472-0.8352"/>
		<path d="m134.3,166.2c0.6311,0.3377,1.327,0.5544,2.038,0.6348,1.109,0.1254,2.23-0.0789,3.307-0.3675,1.405-0.3763,2.767-0.8958,4.143-1.37,0.5787-0.1994,1.162-0.3915,1.715-0.6537,0.5531-0.2622,1.079-0.5984,1.492-1.05,0.2582-0.2823,0.4706-0.6094,0.6014-0.9688,0.2042-0.5613,0.2028-1.173,0.2005-1.771-0.003-0.8909-0.003-1.782,0-2.673"/>
		<path d="m163.5,206c0.4581-1.491,1.136-2.914,2.005-4.21,1.022-1.524,2.297-2.859,3.608-4.143,1.83-1.791,3.746-3.5,5.813-5.011,2.061-1.507,4.264-2.81,6.481-4.076,2.84-1.621,5.72-3.188,8.753-4.41,2-0.806,4.075-1.462,6.214-1.737,2.201-0.2828,4.451-0.156,6.615,0.3341,2.886,0.6534,5.584,1.934,8.285,3.14,3.263,1.457,6.602,2.837,9.488,4.944,1.874,1.368,3.522,3.018,5.145,4.677,2.006,2.05,3.987,4.126,5.88,6.281,1.286,1.464,2.56,3.017,3.14,4.878,0.1957,0.6275,0.3084,1.281,0.3341,1.938"/>
		<path d="m214.9,202.9c1.32,0.1108,2.631,0.3162,3.922,0.6142,2.302,0.5316,4.524,1.354,6.756,2.126,3.187,1.102,6.409,2.104,9.659,3.005"/>
		<path d="m214.9,202.9c-0.6468,0.9864-1.374,1.92-2.173,2.788-0.9594,1.042-2.019,1.988-3.118,2.882-2.338,1.902-4.86,3.576-7.512,5.008-2.561,1.383-5.287,2.554-8.174,2.929-2.691,0.3501-5.472-0.0137-7.985-1.039-2.297-0.9376-4.335-2.397-6.426-3.733-0.6853-0.4376-1.378-0.8629-2.079-1.276"/>
		<path d="m177.5,210.4c-0.4297,0.5442-0.9411,1.024-1.512,1.417-0.6301,0.4346-1.335,0.7652-2.079,0.9449-0.942,0.2276-1.936,0.2101-2.882,0-0.8222-0.1826-1.605-0.5062-2.41-0.756-0.8142-0.2528-1.651-0.4301-2.457-0.7087-0.5846-0.2021-1.164-0.4657-1.606-0.8977-0.3355-0.3274-0.5798-0.7411-0.7438-1.18-0.1639-0.4392-0.2499-0.9044-0.2957-1.371-0.061-0.6212-0.0517-1.249,0.0274-1.868"/>
		<path d="m184.2,201.7c0.2229-0.7402,0.5947-1.435,1.087-2.032,0.8595-1.042,2.058-1.756,3.307-2.268,1.698-0.6958,3.518-1.051,5.339-1.276,1.833-0.2263,3.683-0.3249,5.528-0.2362,0.8377,0.0403,1.674,0.1191,2.504,0.2362"/>
		<path d="m184.2,201.7c0.3737,0.6803,0.8926,1.28,1.512,1.748,0.9602,0.7254,2.153,1.123,3.355,1.181,1.37,0.0665,2.726-0.292,4.016-0.756,1.784-0.6415,3.516-1.507,4.914-2.788,1.157-1.06,2.05-2.371,2.977-3.638,0.3254-0.445,0.6561-0.886,0.9922-1.323"/>
		<path d="m162.8,271.7c0.961-0.8771,1.739-1.953,2.272-3.14,0.3352-0.7475,0.5735-1.537,0.9354-2.272,0.9924-2.015,2.83-3.467,4.677-4.744,0.655-0.4526,1.322-0.8949,1.903-1.44,0.5805-0.5449,1.076-1.205,1.304-1.968,0.1829-0.6118,0.1885-1.269,0.4009-1.871,0.2772-0.7858,0.8885-1.417,1.58-1.882,0.6916-0.4648,1.468-0.784,2.228-1.125,2.812-1.262,5.46-2.859,8.085-4.477,3.432-2.115,6.912-4.306,10.82-5.279,2.524-0.6277,5.157-0.7262,7.751-0.5345,3.438,0.254,6.819,1.009,10.16,1.871,3.146,0.8121,6.294,1.732,9.154,3.274,2.236,1.206,4.26,2.775,6.147,4.477,1.412,1.273,2.768,2.643,3.742,4.276,0.5108,0.8567,0.9181,1.809,0.9354,2.806,0.006,0.3603-0.0389,0.7214-0.1336,1.069"/>
		<path d="m234.7,260.7c-1.385-0.1704-2.766-0.3709-4.143-0.6014-2.267-0.3795-4.52-0.8403-6.749-1.403-2.004-0.5062-4.014-1.099-6.08-1.136-0.8973-0.016-1.796,0.0739-2.673,0.2673"/>
		<path d="m215.1,257.9c-0.2822,1.232-0.5942,2.458-0.9354,3.675-0.6606,2.356-1.44,4.702-2.673,6.815-1.263,2.166-2.984,4.049-4.944,5.613-2.521,2.011-5.434,3.502-8.486,4.544-3.365,1.149-6.946,1.762-10.49,1.47-2.952-0.2436-5.828-1.109-8.553-2.272-1.632-0.6964-3.218-1.5-4.744-2.405"/>
		<path d="m174.3,275.3c-0.1274,1.031-0.5456,2.024-1.194,2.835-0.5708,0.7144-1.312,1.284-2.126,1.701-0.7391,0.3788-1.541,0.6353-2.362,0.7559"/>
		<path d="m168.6,280.6c0.2618,0.7147,0.6656,1.377,1.181,1.937,1.234,1.34,3.005,2.018,4.677,2.74,2.652,1.145,5.23,2.517,7.465,4.347,1.147,0.9391,2.196,1.992,3.213,3.071,1.736,1.843,3.401,3.782,5.433,5.292,0.7215,0.536,1.49,1.019,2.126,1.654,0.6338,0.6328,1.131,1.431,1.276,2.315,0.1159,0.7077,0.003,1.435-0.189,2.126-0.3067,1.107-0.8293,2.177-1.654,2.977-0.7947,0.771-1.823,1.252-2.693,1.937-0.4204,0.3312-0.8019,0.7089-1.216,1.048-0.4142,0.3389-0.8694,0.6427-1.382,0.7949-0.1542,0.0457-0.3126,0.0774-0.4725,0.0945"/>
		<path d="m186.3,310.9c-1.428-0.5619-2.802-1.26-4.098-2.082-1.637-1.038-3.143-2.271-4.577-3.575-1.101-1.002-2.162-2.047-3.241-3.074-1.041-0.9909-2.134-1.986-3.474-2.506-1.072-0.4154-2.237-0.5011-3.374-0.6682-1.728-0.2539-3.429-0.7057-5.045-1.37-1.639-0.6736-3.202-1.576-4.477-2.806-0.3462-0.3343-0.6702-0.6917-0.9688-1.069"/>
		<path d="m157.1,293.8c-0.948,0.3007-1.906,0.5682-2.873,0.8018-1.715,0.4145-3.457,0.7223-5.212,0.902-1.621,0.166-3.263,0.2223-4.878,0-0.8736-0.1203-1.736-0.3219-2.572-0.6014"/>
		<path d="m141.6,294.9c-0.5323,1.164-1.183,2.274-1.938,3.307-1.183,1.619-2.612,3.038-4.042,4.443-1.292,1.27-2.613,2.551-4.21,3.408-2.234,1.2-4.847,1.481-7.383,1.47-2.91-0.0122-5.837-0.3839-8.586-1.336-2.272-0.7871-4.407-1.968-6.281-3.474"/>
		<path d="m117.7,294.6c1.413,0.092,2.832,0.0809,4.243-0.0334,1.714-0.1388,3.416-0.4299,5.078-0.8686"/>
		<path d="m127,293.7c0.7145,0.3671,1.451,0.6908,2.205,0.9688,1.376,0.5075,2.814,0.8631,4.276,0.9688,0.289,0.0209,0.5788,0.032,0.8686,0.0334"/>
		<path d="m117.7,294.6c0.8638,0.2265,1.705,0.5405,2.506,0.9354,1.132,0.5582,2.178,1.274,3.207,2.005,0.7413,0.5258,1.476,1.06,2.205,1.604"/>
		<path d="m125.6,299.1c0.7587,0.2098,1.553,0.2893,2.339,0.2339,1.082-0.0763,2.144-0.4106,3.074-0.9688,0.8706-0.5229,1.613-1.23,2.372-1.904,0.3188-0.2832,0.6418-0.5617,0.9688-0.8352"/>
		<path d="m109.1,302.7c-0.7221,0.191-1.436,0.414-2.138,0.6682-1.276,0.4619-2.513,1.026-3.742,1.604-1.146,0.5394-2.291,1.094-3.341,1.804-0.8636,0.584-1.655,1.268-2.506,1.871-0.9664,0.6853-2.004,1.263-3.04,1.837-0.5505,0.3053-1.104,0.6113-1.693,0.8322-0.5894,0.2209-1.221,0.3551-1.848,0.3037-0.8121-0.0665-1.601-0.4617-2.105-1.102-0.5382-0.6852-0.7234-1.615-0.5679-2.472,0.1142-0.6298,0.3991-1.219,0.7604-1.748,0.3612-0.5284,0.7983-1,1.244-1.459,1.29-1.328,2.666-2.568,4.009-3.842,1.664-1.579,3.279-3.213,5.045-4.677,2.257-1.871,4.742-3.448,7.283-4.911,1.948-1.121,3.937-2.18,6.014-3.04,2.818-1.167,5.797-1.967,8.486-3.408,0.3166-0.1697,0.6286-0.3479,0.9354-0.5345"/>
		<path d="m121.9,284.4c-0.4329-0.5339-0.8786-1.058-1.336-1.57-0.7143-0.8-1.461-1.576-2.305-2.238-0.6111-0.4794-1.276-0.8995-2.005-1.169-1.404-0.5202-2.946-0.4536-4.443-0.4677-1.972-0.0186-3.945-0.1898-5.88-0.5679-1.9-0.3712-3.761-0.9409-5.679-1.203-1.029-0.1404-2.07-0.1913-3.107-0.1336-1.165,0.0648-2.323,0.2671-3.441,0.6014"/>
		<path d="m93.71,277.7c-0.7479,1.037-1.528,2.051-2.339,3.04-1.267,1.546-2.609,3.03-3.875,4.577-1.313,1.604-2.547,3.276-3.976,4.777-1.565,1.644-3.355,3.07-5.279,4.276-1.793,1.124-3.708,2.061-5.713,2.74-1.875,0.6347-3.834,1.044-5.813,1.102-1.554,0.0462-3.12-0.1254-4.61-0.5679-1.729-0.5132-3.33-1.38-4.878-2.305-1.403-0.8386-2.774-1.73-4.109-2.673"/>
		<path d="m62.64,282.1c1.36-0.833,2.766-1.592,4.209-2.272,2.199-1.036,4.488-1.89,6.849-2.472,1.101-0.2714,2.217-0.4834,3.341-0.6348"/>
		<path d="m77.04,276.7c0.2756,0.3439,0.4105,0.7974,0.3675,1.236-0.0555,0.5665-0.3853,1.064-0.7016,1.537-1.082,1.62-2.145,3.296-3.642,4.544-1.25,1.042-2.776,1.747-4.377,2.038-1.171,0.213-2.391,0.2056-3.541-0.1002-0.2809-0.0747-0.5587-0.1675-0.8142-0.306s-0.4889-0.3247-0.6558-0.5626c-0.1457-0.2076-0.2372-0.4488-0.3033-0.6937-0.06615-0.2449-0.1083-0.4955-0.1644-0.7429-0.1234-0.5442-0.3147-1.073-0.5679-1.57"/>
		<path d="m53.12,292.6c-0.885,0.4318-1.816,0.7684-2.773,1.002-0.793,0.1939-1.606,0.3183-2.372,0.6013-0.7549,0.2791-1.446,0.7064-2.105,1.169-1.196,0.841-2.307,1.811-3.575,2.539-0.9343,0.5366-1.94,0.9341-2.94,1.336-0.3685,0.1483-0.7388,0.2982-1.127,0.3829-0.3881,0.0847-0.7987,0.1015-1.178-0.0154-0.5204-0.1603-0.9486-0.5712-1.169-1.069-0.1792-0.4042-0.2281-0.8587-0.1841-1.299,0.04403-0.4399,0.178-0.867,0.3511-1.274,0.6612-1.553,1.868-2.796,3.007-4.042,1.223-1.339,2.395-2.725,3.642-4.042,1.976-2.088,4.133-3.995,6.181-6.014,2.098-2.068,4.078-4.251,6.114-6.381,1.01-1.056,2.041-2.106,3.241-2.94,1.505-1.046,3.231-1.72,4.944-2.372,2.262-0.8606,4.534-1.698,6.815-2.506,2.251-0.7969,4.512-1.565,6.782-2.305,0.9199-0.2998,1.845-0.596,2.799-0.7578,0.9539-0.1618,1.944-0.1858,2.88,0.0562,0.7159,0.185,1.4,0.5238,2.138,0.568,0.4775,0.0286,0.9561-0.0692,1.407-0.229s0.8773-0.3808,1.299-0.6062c1.212-0.6475,2.416-1.345,3.742-1.704,1.579-0.4275,3.246-0.3524,4.878-0.2339,1.938,0.1408,3.877,0.3389,5.78,0.735,1.913,0.3983,3.779,0.9942,5.646,1.57,1.68,0.518,3.365,1.021,5.011,1.637,1.74,0.651,3.435,1.428,5.212,1.971,1.757,0.5375,3.576,0.842,5.345,1.336,0.9437,0.2637,1.873,0.5815,2.773,0.9688,1.362,0.5864,2.654,1.331,3.875,2.172,0.9547,0.6572,1.868,1.374,2.74,2.138,1.558,1.366,2.977,2.882,4.377,4.41,1.273,1.39,2.531,2.793,3.775,4.209"/>
		<path d="m140.5,283.7c0.1204-0.625,0.0497-1.286-0.2004-1.871-0.2176-0.5091-0.5638-0.9546-0.9537-1.348-0.3898-0.3931-0.8247-0.7382-1.251-1.091-1.124-0.9297-2.199-1.922-3.174-3.007-0.8557-0.9526-1.632-1.974-2.472-2.94-0.6844-0.7864-1.417-1.541-2.272-2.138-0.2585-0.1808-0.5278-0.347-0.7721-0.5465s-0.4656-0.4366-0.5976-0.723c-0.1899-0.4119-0.1796-0.8832-0.2004-1.336-0.0273-0.5923-0.1129-1.196,0.0334-1.771,0.1164-0.4573,0.3749-0.8682,0.6835-1.225,0.3086-0.357,0.668-0.6659,1.02-0.9798,0.4752-0.4232,0.946-0.8624,1.503-1.169,0.8063-0.444,1.754-0.5846,2.673-0.5345,0.9013,0.0491,1.793,0.2755,2.606,0.6682,0.9808,0.4739,1.834,1.18,2.806,1.67,0.2315,0.1169,0.47,0.2217,0.6893,0.3602s0.4215,0.3148,0.5469,0.5418c0.129,0.2336,0.1689,0.5056,0.1838,0.772,0.0148,0.2664,0.007,0.535,0.0501,0.7983,0.0822,0.5021,0.346,0.9584,0.6642,1.355,0.3182,0.397,0.6926,0.7447,1.04,1.117,1.281,1.373,2.17,3.058,3.274,4.577,0.6783,0.9335,1.439,1.807,2.272,2.606"/>
		<path d="m148.6,277.4c0.2417,0.1003,0.5189,0.1124,0.7684,0.0334,0.2011-0.0636,0.3811-0.1833,0.5365-0.3259s0.288-0.308,0.4156-0.4759c0.1979-0.2603,0.3862-0.5288,0.6071-0.7699s0.478-0.456,0.7793-0.5831c0.1597-0.0674,0.3313-0.1093,0.5046-0.1106,0.1733-0.001,0.3483,0.0392,0.4976,0.1272,0.2254,0.133,0.3785,0.3658,0.463,0.6135,0.0844,0.2477,0.1069,0.5117,0.1217,0.773,0.0442,0.7791,0.0265,1.562,0.1002,2.339,0.0637,0.6721,0.2007,1.351,0.5345,1.938,0.224,0.3937,0.534,0.7382,0.902,1.002"/>
		<path d="m154.8,282c-0.054-0.4768-0.132-0.951-0.2339-1.42-0.162-0.7464-0.3855-1.492-0.3675-2.255,0.0109-0.462,0.1104-0.917,0.1593-1.377,0.0489-0.4596,0.0441-0.9402-0.1426-1.363-0.1769-0.4008-0.5041-0.7201-0.6849-1.119-0.2173-0.4796-0.2042-1.027-0.2004-1.554,0.005-0.7674-0.0206-1.551-0.284-2.272-0.2178-0.5961-0.5967-1.132-1.086-1.537"/>
		<path d="m152,269.1c-0.4814,0.1726-0.9804,0.2959-1.487,0.3675-0.8593,0.1215-1.74,0.093-2.589-0.0835-1.107-0.23-2.161-0.7128-3.057-1.403-0.7342-0.566-1.356-1.263-1.954-1.971-0.4782-0.5658-0.9532-1.157-1.203-1.854-0.0587-0.1642-0.1046-0.3342-0.1168-0.5082-0.0122-0.1739,0.0104-0.3525,0.0834-0.5108,0.1084-0.2351,0.3312-0.415,0.5846-0.4677,0.2466-0.0513,0.5064,0.0149,0.7276,0.1355,0.2212,0.1205,0.4096,0.2922,0.5921,0.4659,0.5454,0.5189,1.083,1.087,1.787,1.353,0.2895,0.1095,0.5968,0.1634,0.892,0.2564,0.3202,0.1009,0.625,0.2476,0.9474,0.3412,0.3224,0.0937,0.6755,0.1315,0.9897,0.0132,0.2818-0.1061,0.5069-0.3292,0.6716-0.5813,0.1648-0.252,0.276-0.5344,0.3914-0.8125,0.3556-0.8571,0.7671-1.704,1.37-2.41,0.7327-0.8569,1.716-1.465,2.74-1.937,1.006-0.4634,2.07-0.8092,3.166-0.9686,1.649-0.2398,3.423-0.0243,4.796,0.9213,0.1788,0.1232,0.3501,0.2581,0.5394,0.3643s0.4011,0.1836,0.6181,0.179c0.2017-0.004,0.3974-0.0797,0.567-0.189,0.2361-0.1522,0.4239-0.3666,0.6171-0.5705s0.4009-0.4043,0.6586-0.5162c0.3345-0.1452,0.7293-0.1233,1.063,0.0236,0.3988,0.1755,0.7044,0.51,0.969,0.8562s0.504,0.7169,0.8264,1.01c0.158,0.1436,0.3336,0.2664,0.4956,0.4056,0.1619,0.1392,0.3125,0.2983,0.4022,0.4921,0.1121,0.2424,0.119,0.5302,0.0236,0.7796-0.0825,0.2157-0.2352,0.3976-0.4027,0.5566s-0.3521,0.2992-0.5186,0.4592c-0.5166,0.4967-0.8344,1.158-1.205,1.772-0.3534,0.5854-0.7617,1.136-1.11,1.725-0.2508,0.4232-0.4717,0.8692-0.5906,1.347-0.1176,0.4718-0.1353,0.9722-0.3307,1.417-0.1627,0.3707-0.4379,0.6784-0.6614,1.016-0.2274,0.3433-0.4029,0.721-0.5186,1.116"/>
		<path d="m183.2,264.3c0.9152-0.7603,1.851-1.496,2.806-2.205,2.243-1.665,4.603-3.193,7.149-4.343,2.186-0.988,4.493-1.691,6.682-2.673,0.7272-0.3262,1.441-0.683,2.138-1.069"/>
		<path d="m183.2,264.3c0.4654,0.1516,0.9143,0.3536,1.336,0.6014,0.7001,0.411,1.32,0.9431,1.938,1.47,0.4533,0.3866,0.9178,0.7784,1.47,1.002,0.7322,0.2968,1.549,0.272,2.339,0.2672,0.5642-0.003,1.144,0.003,1.67-0.2004,0.6723-0.2599,1.169-0.826,1.737-1.27,0.7171-0.5598,1.561-0.931,2.405-1.27,0.4646-0.1863,0.9324-0.3645,1.403-0.5345"/>
		<path d="m197.5,264.4c0.354-0.5063,0.6864-1.028,0.9962-1.562,0.7038-1.214,1.292-2.501,1.677-3.851,0.303-1.06,0.4812-2.159,0.8741-3.189,0.2364-0.62,0.5492-1.211,0.9292-1.755"/>
		<path d="m172,213.1c0.5331,0.5849,1.069,1.168,1.606,1.748,1.08,1.165,2.173,2.327,3.071,3.638,1.526,2.228,2.435,4.81,3.638,7.229,0.6151,1.237,1.311,2.439,1.795,3.733,0.588,1.57,0.8524,3.243,0.9922,4.914,0.1237,1.478,0.1524,2.964,0.2835,4.441,0.0992,1.118,0.257,2.232,0.2835,3.355,0.0301,1.276-0.1102,2.551-0.1417,3.827-0.007,0.2968-0.009,0.5971-0.0836,0.8845-0.0371,0.1437-0.0926,0.2834-0.1724,0.4085-0.0799,0.1251-0.1847,0.2354-0.311,0.3134-0.1289,0.0797-0.276,0.1239-0.4139,0.1866-0.069,0.0314-0.1361,0.0677-0.1958,0.1143s-0.1119,0.1041-0.1462,0.1716c-0.0525,0.1032-0.0606,0.2235-0.0536,0.3391s0.0281,0.2302,0.03,0.346c0.003,0.205-0.0545,0.4075-0.1427,0.5926-0.0882,0.185-0.2064,0.3541-0.3298,0.5178-0.457,0.606-0.9917,1.148-1.512,1.701-0.3362,0.3572-0.667,0.7195-0.9922,1.087"/>
		<path d="m122.8,269.7c0.8898,0.1976,1.818,0.2218,2.717,0.0709,0.3059-0.0514,0.6105-0.1234,0.8939-0.2494s0.5462-0.3084,0.7361-0.5538c0.2657-0.3433,0.3717-0.7827,0.5906-1.158,0.1874-0.3209,0.4587-0.5922,0.7796-0.7796"/>
		<path d="m139.7,265c-0.0232-0.1764-0.0628-0.3506-0.1181-0.5197-0.1124-0.3436-0.2891-0.6654-0.378-1.016-0.1016-0.4008-0.0837-0.8249-0.001-1.23,0.0824-0.4052,0.2274-0.7948,0.3793-1.179,0.3046-0.7713,0.6393-1.53,0.9686-2.291,0.4704-1.088,0.93-2.18,1.417-3.26,0.441-0.9772,0.9166-1.962,1.654-2.74,0.2392-0.2526,0.5032-0.4804,0.748-0.7276s0.4727-0.5175,0.6222-0.8316c0.1499-0.3149,0.2161-0.6635,0.2486-1.011,0.0325-0.3472,0.0328-0.6967,0.0585-1.045,0.0741-1.001,0.3574-1.973,0.6615-2.929,0.2311-0.727,0.4762-1.454,0.5979-2.207,0.1218-0.753,0.115-1.543-0.1491-2.258-0.249-0.6749-0.7146-1.256-0.945-1.937-0.29-0.8579-0.1829-1.793-0.2835-2.693-0.0925-0.8276-0.361-1.624-0.6378-2.41-0.1942-0.5508-0.3942-1.102-0.6642-1.619-0.2701-0.5178-0.6138-1.004-1.06-1.381-0.0687-0.0579-0.1396-0.1131-0.2126-0.1654"/>
		<path d="m154.5,256.1c0.6482-0.3281,1.356-0.5374,2.079-0.6142,1.035-0.1101,2.078,0.0496,3.118,0.0472,0.2707-0.00064,0.5451-0.0129,0.8032-0.0945,0.3772-0.1193,0.6937-0.3782,0.9771-0.6543s0.5462-0.5768,0.8656-0.8103c0.376-0.2749,0.8187-0.4471,1.27-0.5616,0.4515-0.1144,0.9148-0.1737,1.376-0.2416,0.9995-0.1473,1.993-0.3365,2.977-0.567"/>
		<path d="m168,252.6c0.0253-0.6173,0.0884-1.233,0.189-1.843,0.213-1.291,0.5928-2.55,1.039-3.78,0.4864-1.34,1.054-2.651,1.465-4.016,0.2658-0.8822,0.4654-1.784,0.6142-2.693,0.3151-1.926,0.3984-3.923-0.0945-5.811-0.4604-1.764-1.4-3.357-2.268-4.961-0.7151-1.322-1.389-2.669-2.221-3.922-1.102-1.659-2.472-3.136-4.016-4.394-0.8717-0.7099-1.8-1.352-2.788-1.89-1.281-0.6982-2.651-1.217-3.969-1.843-1.889-0.8964-3.716-2.053-4.961-3.733-1.084-1.462-1.674-3.283-1.654-5.103"/>
		<path d="m149.3,208.6c-0.8454-0.7718-1.746-1.483-2.693-2.126-0.8474-0.5756-1.732-1.097-2.646-1.559"/>
		<path d="m144,205c-0.3712,0.2578-0.7674,0.4797-1.181,0.6615-0.7026,0.3086-1.456,0.501-2.221,0.567"/>
		<path d="m140.6,206.2c0.9642,0.9423,1.894,1.92,2.788,2.929,1.045,1.182,2.045,2.414,2.835,3.78,0.8645,1.495,1.469,3.135,2.41,4.583,0.8601,1.324,1.987,2.466,2.788,3.827,0.6574,1.118,1.08,2.358,1.701,3.496,0.7589,1.391,1.808,2.618,2.457,4.063,0.7855,1.751,0.9354,3.71,1.087,5.622,0.1159,1.466,0.239,2.93,0.378,4.394,0.1748,1.84,0.3749,3.68,0.4252,5.528,0.0439,1.611-0.0267,3.228-0.2835,4.819-0.1976,1.224-0.5056,2.431-0.9449,3.591-0.4402,1.162-1.012,2.273-1.701,3.307"/>
		<path d="m115.4,194c0.0141,0.6773-0.2889,1.355-0.8032,1.795-0.1749,0.1499-0.3711,0.2726-0.5564,0.4096-0.1852,0.1369-0.3627,0.2917-0.4831,0.4882-0.1597,0.2605-0.2071,0.5756-0.2053,0.8812,0.002,0.3056,0.0491,0.609,0.0636,0.9142,0.0488,1.028-0.2752,2.042-0.2835,3.071-0.004,0.5032,0.0675,1.004,0.08,1.507,0.0126,0.5031-0.0381,1.022-0.269,1.469-0.1376,0.2664-0.3341,0.4976-0.4893,0.7541-0.0776,0.1283-0.145,0.2637-0.1871,0.4076-0.042,0.1439-0.0579,0.297-0.0324,0.4447,0.0374,0.2159,0.1616,0.4095,0.3177,0.5632s0.3436,0.2714,0.5328,0.3818c0.6049,0.3531,1.249,0.6481,1.795,1.087,0.6121,0.4916,1.094,1.158,1.795,1.512,0.4443,0.2242,0.9465,0.3056,1.442,0.3466,0.496,0.0409,0.996,0.0444,1.487,0.1259,0.8837,0.1467,1.705,0.54,2.504,0.9449,1.112,0.5637,2.21,1.16,3.355,1.654,1.182,0.5099,2.409,0.9089,3.591,1.417,1.718,0.739,3.344,1.715,4.725,2.977,0.8619,0.788,1.627,1.688,2.221,2.693,0.4208,0.7122,0.7547,1.476,0.9922,2.268"/>
		<path d="m150.5,261.2c-0.5811-0.079-1.146-0.2728-1.654-0.567-0.6352-0.3683-1.184-0.9023-1.512-1.559-0.3957-0.7918-0.4532-1.718-0.3284-2.594,0.1248-0.8764,0.4211-1.718,0.7064-2.556,0.772-2.267,1.478-4.571,1.795-6.945,0.4695-3.515,0.0589-7.156-1.276-10.44-1.006-2.477-2.51-4.714-3.827-7.04-1.305-2.305-2.432-4.705-3.591-7.087-1.353-2.78-2.773-5.572-4.819-7.89-0.7489-0.8485-1.584-1.633-2.551-2.221-1.283-0.7796-2.757-1.19-4.235-1.451-1.478-0.2606-2.978-0.3803-4.458-0.6281-1.926-0.3225-3.816-0.8625-5.622-1.606"/>
		<path d="m119.2,208.6c-0.1251-1.337-0.0773-2.691,0.1417-4.016,0.3342-2.022,1.089-4.008,2.41-5.575,1.182-1.402,2.769-2.415,4.441-3.166,2.155-0.9677,4.491-1.532,6.851-1.654"/>
		<path d="m133,194.2c-0.3079-1.834-0.2104-3.735,0.2835-5.528,0.4262-1.547,1.139-3.001,1.937-4.394,0.3642-0.6358,0.7495-1.264,1.231-1.817,0.4813-0.5524,1.066-1.029,1.746-1.302,0.5566-0.223,1.166-0.3036,1.764-0.2616,0.5982,0.042,1.185,0.2047,1.732,0.4506,1.155,0.5194,2.126,1.407,2.835,2.457,0.6651,0.9846,1.112,2.125,1.228,3.307,0.0748,0.7611,0.0172,1.551,0.2835,2.268,0.2645,0.7122,0.8195,1.272,1.37,1.795,0.961,0.9133,1.958,1.79,2.882,2.74,0.7676,0.7899,1.511,1.651,2.504,2.126,0.7117,0.3405,1.505,0.4592,2.268,0.6615,1.759,0.4666,3.393,1.403,4.677,2.693,0.9774,0.9816,1.752,2.164,2.268,3.449,0.3309,0.8239,0.5558,1.686,0.756,2.551,0.2172,0.939,0.4064,1.884,0.567,2.835"/>
		<path d="m142.6,231.6c-0.3473,0.5512-0.5642,1.184-0.6282,1.832-0.0778,0.7883,0.0682,1.583,0.2846,2.345s0.5034,1.503,0.7176,2.265c0.3352,1.193,0.4898,2.436,0.4677,3.675-0.0299,1.673-0.3793,3.325-0.8018,4.944-0.3882,1.488-0.8585,2.997-1.804,4.21-0.7666,0.983-1.813,1.726-2.539,2.74-0.5586,0.7794-0.9054,1.687-1.357,2.533-0.2258,0.423-0.4798,0.8335-0.7936,1.196s-0.69,0.6767-1.124,0.8814c-0.2356,0.1112-0.491,0.19-0.7515,0.1912-0.2606,0.001-0.5273-0.0809-0.7184-0.258-0.1119-0.1037-0.1949-0.2365-0.2494-0.379s-0.0813-0.2946-0.0898-0.447c-0.0172-0.3047,0.0371-0.6081,0.0719-0.9113,0.1451-1.262-0.0464-2.539,0-3.809,0.0438-1.2,0.3158-2.423,1.002-3.408,0.6411-0.9197,1.592-1.567,2.405-2.339,0.2516-0.2387,0.4922-0.4919,0.6853-0.78s0.338-0.6135,0.3838-0.9573c0.0538-0.4038-0.0315-0.8174-0.191-1.192-0.1595-0.3748-0.3908-0.7146-0.638-1.038-0.4943-0.6475-1.071-1.267-1.309-2.046-0.2295-0.7522-0.1131-1.562,0.0205-2.337s0.2824-1.573,0.1131-2.341c-0.1766-0.8013-0.6828-1.491-0.9354-2.272-0.3072-0.9494-0.2265-1.991-0.5345-2.94-0.262-0.8071-0.7928-1.503-1.399-2.097-0.6058-0.5942-1.291-1.1-1.942-1.644-1.114-0.9314-2.131-1.978-3.274-2.873-1.514-1.186-3.243-2.096-5.078-2.673"/>
		<path d="m122.6,221.7c-0.0907,0.4843-0.1356,0.9772-0.1336,1.47,0.004,0.9929,0.2032,1.996,0.6682,2.873,0.7002,1.321,1.946,2.274,2.74,3.541,0.9099,1.453,1.163,3.205,1.537,4.878,0.272,1.219,0.6171,2.42,1.002,3.608,0.1794,0.5532,0.368,1.105,0.485,1.675,0.1171,0.5697,0.1611,1.162,0.0495,1.733-0.1007,0.515-0.3241,0.9962-0.5189,1.483-0.1948,0.4872-0.3648,0.9988-0.3497,1.523,0.0169,0.5844,0.2626,1.139,0.5592,1.642,0.2966,0.5038,0.6484,0.9756,0.9108,1.498,0.6285,1.251,0.7022,2.695,0.9354,4.076,0.1046,0.6193,0.2438,1.236,0.2696,1.863,0.0258,0.6276-0.0704,1.279-0.4032,1.812-0.1491,0.2386-0.3463,0.4512-0.5905,0.5909s-0.5375,0.2023-0.8127,0.144c-0.2806-0.0594-0.5206-0.2354-0.7457-0.413-0.2252-0.1776-0.4521-0.3653-0.7243-0.4556-0.1983-0.0658-0.4135-0.076-0.6192-0.0391-0.2056,0.0369-0.4018,0.1202-0.577,0.2342-0.3503,0.2279-0.611,0.5725-0.8084,0.9408-0.5319,0.9928-0.6311,2.208-0.2673,3.274"/>
		<path d="m102.8,190.3c-0.179,0.6779-0.2745,1.378-0.2835,2.079-0.016,1.246,0.2398,2.487,0.189,3.733-0.0198,0.4852-0.0868,0.971-0.2357,1.433-0.1489,0.4623-0.3817,0.9013-0.7092,1.26-0.3548,0.3883-0.8189,0.6763-1.325,0.8186-0.5064,0.1423-1.054,0.138-1.557-0.0154-0.8658-0.264-1.545-0.9346-2.362-1.323-0.6933-0.3292-1.471-0.4467-2.238-0.4606-0.7673-0.0138-1.532,0.0718-2.298,0.1298-1.244,0.0943-2.502,0.1149-3.733-0.0945-1.09-0.1856-2.15-0.5525-3.118-1.087-0.8723-0.4812-1.686-1.104-2.646-1.37-1.098-0.3051-2.329-0.091-3.26,0.567"/>
		<path d="m79.23,196c0.2004,0.7383,0.4864,1.453,0.8504,2.126,0.6324,1.169,1.509,2.215,2.599,2.977,0.9256,0.6469,1.982,1.077,3.024,1.512,0.9312,0.3891,1.859,0.7868,2.788,1.181,0.908,0.3854,1.839,0.7819,2.551,1.465,0.4355,0.4176,0.7717,0.9271,1.181,1.37,0.9415,1.019,2.244,1.651,3.591,1.984,1.094,0.2707,2.234,0.3576,3.355,0.2362,0.214-0.0232,0.4278-0.054,0.6431-0.0575,0.2153-0.004,0.4342,0.0211,0.6326,0.1047,0.22,0.0926,0.4057,0.2541,0.5571,0.4386s0.2711,0.3926,0.3879,0.6008c0.5755,1.026,1.096,2.084,1.559,3.166"/>
		<path d="m103,213.1c-0.5568,0.5379-1.05,1.142-1.465,1.795-0.4126,0.6496-0.753,1.363-0.8504,2.126-0.1062,0.8316,0.0785,1.695-0.1417,2.504-0.1634,0.6002-0.5359,1.117-0.8504,1.654-0.5957,1.016-0.9959,2.132-1.465,3.213-0.6547,1.509-1.45,2.964-1.937,4.536-0.5201,1.677-0.6763,3.443-0.756,5.197-0.138,3.038-0.05523,6.084,0.1417,9.119,0.1375,2.118,0.3338,4.251,0.9449,6.284,0.7192,2.393,1.99,4.574,3.118,6.804,0.8149,1.609,1.582,3.285,2.835,4.583,1.717,1.778,4.137,2.643,6.378,3.685,0.9328,0.4338,1.847,0.9068,2.74,1.417"/>
		<path d="m125.2,259.6c-0.7829-0.3729-1.431-1.021-1.804-1.804-0.2261-0.4747-0.3529-0.9999-0.3392-1.526,0.0137-0.5256,0.1712-1.051,0.4728-1.481,0.2358-0.3366,0.5516-0.6082,0.8725-0.8648,0.3209-0.2567,0.6523-0.5041,0.9315-0.8056,0.4171-0.4503,0.7058-1.012,0.8686-1.604,0.2702-0.9819,0.196-2.043-0.1336-3.007-0.3848-1.125-1.104-2.123-1.403-3.274-0.362-1.39-0.0787-2.855,0.1336-4.276,0.1426-0.9542,0.2508-1.942,0-2.873-0.3186-1.184-1.172-2.133-1.871-3.14-0.6317-0.9112-1.151-1.901-1.537-2.94-0.4644-1.251-0.7407-2.583-1.403-3.742-0.5443-0.9517-1.327-1.744-1.938-2.654-0.3058-0.455-0.5702-0.9429-0.727-1.468-0.1569-0.5253-0.2027-1.091-0.0743-1.624,0.1018-0.4225,0.3085-0.8116,0.5263-1.188,0.2178-0.3761,0.4498-0.7468,0.6096-1.151,0.1794-0.4537,0.2635-0.939,0.4154-1.403,0.1519-0.4636,0.3876-0.9236,0.7873-1.203,0.2595-0.1816,0.5689-0.274,0.8663-0.383,0.2974-0.1089,0.5987-0.2446,0.8041-0.4857,0.2226-0.2613,0.3036-0.6108,0.384-0.9445,0.0402-0.1668,0.0821-0.3339,0.1461-0.4932,0.0639-0.1593,0.1509-0.3114,0.2718-0.4332,0.2245-0.2265,0.5565-0.3318,0.8746-0.3084s0.6206,0.1676,0.8627,0.3752c0.4165,0.3572,0.6492,0.8765,0.8983,1.365,0.1245,0.2444,0.2569,0.4864,0.4242,0.7039,0.1673,0.2174,0.3715,0.4107,0.6152,0.5367,0.4024,0.2081,0.8751,0.2178,1.328,0.2086,0.4529-0.009,0.9193-0.0305,1.345,0.1255,0.4557,0.1671,0.8162,0.5208,1.134,0.8873,0.3183,0.3665,0.6145,0.7603,1.004,1.05,0.4027,0.3003,0.8831,0.4733,1.346,0.6675,0.4633,0.1942,0.9298,0.4234,1.259,0.8025,0.3167,0.3642,0.4831,0.8402,0.8018,1.203,0.3902,0.4438,1.004,0.6799,1.591,0.612s1.131-0.4381,1.409-0.9593"/>
		<path d="m112.8,231.9c0.1103-0.7193,0.1735-1.446,0.189-2.173,0.01-0.4485-0.001-0.9094-0.1683-1.326-0.0835-0.2082-0.2064-0.4025-0.3711-0.5548s-0.3725-0.2611-0.5945-0.2928c-0.1749-0.025-0.355-0.002-0.5226,0.0537-0.1676,0.0558-0.3233,0.144-0.4657,0.2487-0.2847,0.2094-0.515,0.4822-0.7598,0.7371-0.6807,0.7086-1.497,1.302-2.032,2.126-0.5202,0.8028-0.7311,1.761-0.9449,2.693-0.1015,0.4426-0.2063,0.8881-0.2206,1.342s0.0681,0.9228,0.3151,1.304c0.2939,0.4535,0.7865,0.7371,1.281,0.9549s1.015,0.3905,1.459,0.6987c0.7168,0.4979,1.158,1.294,1.748,1.937,0.3572,0.3892,0.7727,0.7249,1.228,0.9922"/>
		<path d="m113,240.7c0.3218-0.3247,0.7361-0.5568,1.181-0.6615,0.3546-0.0834,0.7245-0.0869,1.087-0.0473,0.3045,0.0333,0.6056,0.0967,0.8977,0.189"/>
		<path d="m116.1,240.2c-0.1083-0.6884-0.0922-1.396,0.0473-2.079,0.1332-0.6516,0.3771-1.279,0.4725-1.937,0.0913-0.6302,0.0425-1.28-0.1417-1.89"/>
		<path d="m116.5,234.3c-0.5596,0.1262-1.112,0.284-1.654,0.4725-0.671,0.2335-1.326,0.5141-2.007,0.7158-0.6813,0.2017-1.399,0.3236-2.103,0.2292-0.6866-0.0921-1.36-0.4061-1.795-0.9449-0.3995-0.4943-0.5743-1.148-0.5488-1.783s0.2401-1.252,0.5488-1.808c0.4093-0.7366,0.9808-1.372,1.606-1.937,0.1975-0.1782,0.4063-0.3534,0.6555-0.4465,0.1246-0.0465,0.2583-0.0715,0.391-0.0629,0.1327,0.009,0.2644,0.0517,0.3709,0.1314,0.1297,0.0971,0.2166,0.2442,0.2599,0.4004s0.0456,0.3212,0.0286,0.4824c-0.034,0.3223-0.1434,0.6358-0.1468,0.9598-0.003,0.2544,0.062,0.5092,0.1856,0.7316s0.3058,0.4119,0.5231,0.5441"/>
		<path d="m109.9,245.9c0.3451,0.0845,0.7116,0.08,1.055-0.013,0.3429-0.093,0.6615-0.2742,0.9166-0.5215,0.3636-0.3524,0.5974-0.8319,1.002-1.136,0.224-0.1682,0.4914-0.2739,0.7669-0.3244,0.2755-0.0504,0.5591-0.0469,0.8367-0.01,0.7206,0.0964,1.416,0.4299,1.904,0.9688,0.4611,0.5092,0.7226,1.185,0.7684,1.871,0.0431,0.6452-0.0964,1.294-0.0334,1.938,0.1001,1.022,0.693,1.918,1.069,2.873,0.2131,0.5413,0.3576,1.107,0.5011,1.67,0.2465,0.9685,0.4915,1.937,0.735,2.907"/>
		<path d="m109.9,245.9c0.2388,0.3348,0.5074,0.6483,0.8018,0.9354,0.1975,0.1926,0.4067,0.3736,0.5932,0.5769s0.3515,0.4322,0.4425,0.6926c0.1132,0.3238,0.1058,0.6773,0.0645,1.018-0.0413,0.3405-0.1153,0.6775-0.1313,1.02-0.0229,0.4903,0.0735,0.9792,0.0668,1.47-0.008,0.571-0.1547,1.133-0.167,1.704-0.009,0.4306,0.0589,0.8628,0.2004,1.27"/>
		<path d="m111.8,254.6c0.373-0.2791,0.7202-0.5927,1.036-0.9354,0.3839-0.4172,0.7208-0.8776,1.002-1.37"/>
		<path d="m113.8,252.3c-0.002,0.4928,0.0425,0.9857,0.1336,1.47,0.0627,0.3334,0.1485,0.6656,0.3007,0.9688,0.1706,0.3399,0.42,0.6345,0.6014,0.9688,0.192,0.3539,0.3038,0.7452,0.4009,1.136,0.0264,0.1064,0.0524,0.2142,0.1027,0.3115,0.0504,0.0974,0.1286,0.1848,0.2314,0.223,0.0585,0.0217,0.1228,0.0265,0.1843,0.0161,0.0615-0.0105,0.1201-0.036,0.1711-0.072,0.1019-0.072,0.1712-0.1839,0.2079-0.3032,0.0367-0.1192,0.043-0.2459,0.0373-0.3706-0.006-0.1246-0.0231-0.2484-0.0327-0.3728-0.0536-0.693,0.1341-1.379,0.2004-2.071,0.0362-0.3775,0.0362-0.7584,0-1.136"/>
		<path d="m116.3,253.1c0.3458,0.2828,0.6321,0.6378,0.8352,1.036,0.1378,0.27,0.2371,0.5577,0.3574,0.836,0.1203,0.2782,0.2651,0.5516,0.4778,0.7676,0.3578,0.3634,0.9026,0.532,1.403,0.4343"/>
		<path d="m193.9,301.4c0.8204-0.0603,1.649-0.0125,2.457,0.1417,1.195,0.2282,2.332,0.6848,3.496,1.039,1.273,0.388,2.585,0.6558,3.827,1.134,1.345,0.5177,2.594,1.279,3.685,2.221,0.9878,0.8523,1.842,1.846,2.693,2.835,0.9966,1.159,2.013,2.349,2.551,3.78,0.4565,1.212,0.5435,2.532,0.5197,3.827-0.0288,1.568-0.2126,3.131-0.4725,4.677-0.1824,1.086-0.4072,2.18-0.8977,3.166-0.4076,0.8189-1,1.552-1.748,2.079-1.003,0.7063-2.297,1.017-3.496,0.7559-0.9275-0.2016-1.751-0.7186-2.551-1.228-0.6556-0.4176-1.319-0.8433-1.843-1.417-0.6832-0.7485-1.088-1.701-1.559-2.599-0.7769-1.48-1.776-2.865-3.071-3.922-1.141-0.9305-2.477-1.582-3.78-2.268-1.328-0.699-2.633-1.441-3.969-2.126-0.36-0.1846-0.7231-0.3656-1.06-0.5895-0.3369-0.224-0.649-0.4937-0.8771-0.8279-0.2771-0.4059-0.4207-0.9014-0.4037-1.393"/>
	</g>
</svg>
