<svg width="285mm" xmlns="http://www.w3.org/2000/svg" viewBox="0 0 285 375" version="1.1" height="375mm">
	<g stroke="#000" stroke-width="0.25px" fill-opacity="0.01">
		<g transform="translate(1.0583333)">
			<path d="m139.7,54.15c2.965-0.1245,5.956,0.412,8.693,1.559,0.8451,0.3542,1.666,0.7657,2.457,1.228,3.182,1.862,5.888,4.605,7.465,7.938,1.52,3.212,1.955,6.842,1.89,10.39-0.0614,3.37-0.5591,6.751-1.701,9.922-0.7939,2.205-1.89,4.289-2.74,6.473-0.382,0.9814-0.715,1.987-0.8977,3.024-0.4334,2.46-0.002,5.006,0.8032,7.371,0.4643,1.364,1.053,2.687,1.795,3.922,1.08,1.797,2.485,3.41,3.307,5.339,1.066,2.502,1.061,5.312,1.039,8.032-0.0144,1.828-0.0326,3.686-0.567,5.433-0.6012,1.966-1.817,3.674-2.882,5.433-0.8882,1.468-1.684,3.001-2.221,4.63-0.7329,2.228-0.9656,4.61-0.756,6.945,0.2092,2.331,0.8629,4.635,2.032,6.662,0.7952,1.379,1.822,2.624,2.504,4.063,1.122,2.367,1.23,5.097,0.945,7.701-0.2964,2.709-0.9958,5.37-2.032,7.89-1.466,3.566-3.657,6.904-6.709,9.26-3.116,2.406-7.074,3.697-11.01,3.591"/>
			<path d="m141.9,166.4c1.532-0.8891,2.624-2.5,2.882-4.252,0.2042-1.385-0.087-2.789-0.378-4.158-0.6082-2.861-1.223-5.731-1.465-8.646-0.2161-2.607-0.1319-5.228-0.189-7.843-0.1009-4.619-0.6421-9.256-0.0945-13.84,0.2908-2.436,0.8864-4.831,1.087-7.276,0.1471-1.796,0.0785-3.612-0.2362-5.386-0.3654-2.06-1.06-4.061-1.276-6.142-0.2694-2.603,0.2213-5.227,0.1417-7.843-0.0786-2.585-0.7123-5.122-0.8977-7.701-0.3104-4.317,0.6394-8.62,0.8032-12.95,0.0699-1.847-0.004-3.701-0.2835-5.528-0.3076-2.011-0.8644-3.984-1.654-5.859"/>
			<path d="m139.7,54.15c-2.965-0.1245-5.956,0.412-8.693,1.559-0.8451,0.3542-1.666,0.7657-2.457,1.228-3.182,1.862-5.888,4.605-7.465,7.938-1.52,3.212-1.955,6.842-1.89,10.39,0.0614,3.37,0.5591,6.751,1.701,9.922,0.7939,2.205,1.89,4.289,2.74,6.473,0.382,0.9814,0.715,1.987,0.8977,3.024,0.4334,2.46,0.002,5.006-0.8032,7.371-0.4643,1.364-1.053,2.687-1.795,3.922-1.08,1.797-2.485,3.41-3.307,5.339-1.066,2.502-1.061,5.312-1.039,8.032,0.0144,1.828,0.0326,3.686,0.567,5.433,0.6012,1.966,1.817,3.674,2.882,5.433,0.8882,1.468,1.684,3.001,2.221,4.63,0.7329,2.228,0.9656,4.61,0.756,6.945-0.2092,2.331-0.8629,4.635-2.032,6.662-0.7952,1.379-1.822,2.624-2.504,4.063-1.122,2.367-1.23,5.097-0.945,7.701,0.2964,2.709,0.9958,5.37,2.032,7.89,1.466,3.566,3.657,6.904,6.709,9.26,3.116,2.406,7.074,3.697,11.01,3.591"/>
			<path d="m137.5,166.4c-1.532-0.8891-2.624-2.5-2.882-4.252-0.2042-1.385,0.087-2.789,0.378-4.158,0.6082-2.861,1.223-5.731,1.465-8.646,0.2161-2.607,0.1319-5.228,0.189-7.843,0.1009-4.619,0.6421-9.256,0.0945-13.84-0.2908-2.436-0.8864-4.831-1.087-7.276-0.1471-1.796-0.0785-3.612,0.2362-5.386,0.3654-2.06,1.06-4.061,1.276-6.142,0.2694-2.603-0.2213-5.227-0.1417-7.843,0.0786-2.585,0.7123-5.122,0.8977-7.701,0.3104-4.317-0.6394-8.62-0.8032-12.95-0.0699-1.847,0.004-3.701,0.2835-5.528,0.3076-2.011,0.8644-3.984,1.654-5.859"/>
			<path d="m139,68.93c0.1284-0.2073,0.3592-0.3477,0.6024-0.3662,0.1412-0.01075,0.2853,0.01801,0.4115,0.08218,0.1263,0.06417,0.2344,0.1636,0.309,0.284"/>
			<path d="m137.5,166.4c0.633,0.3315,1.341,0.5187,2.055,0.5433,0.8244,0.0285,1.655-0.1607,2.386-0.5433"/>
			<path d="m138.3,181h2.835"/>
		</g>
		<g transform="translate(-62.27402,140.92518)">
			<path d="m139.7,54.15c2.965-0.1245,5.956,0.412,8.693,1.559,0.8451,0.3542,1.666,0.7657,2.457,1.228,3.182,1.862,5.888,4.605,7.465,7.938,1.52,3.212,1.955,6.842,1.89,10.39-0.0614,3.37-0.5591,6.751-1.701,9.922-0.7939,2.205-1.89,4.289-2.74,6.473-0.382,0.9814-0.715,1.987-0.8977,3.024-0.4334,2.46-0.002,5.006,0.8032,7.371,0.4643,1.364,1.053,2.687,1.795,3.922,1.08,1.797,2.485,3.41,3.307,5.339,1.066,2.502,1.061,5.312,1.039,8.032-0.0144,1.828-0.0326,3.686-0.567,5.433-0.6012,1.966-1.817,3.674-2.882,5.433-0.8882,1.468-1.684,3.001-2.221,4.63-0.7329,2.228-0.9656,4.61-0.756,6.945,0.2092,2.331,0.8629,4.635,2.032,6.662,0.7952,1.379,1.822,2.624,2.504,4.063,1.122,2.367,1.23,5.097,0.945,7.701-0.2964,2.709-0.9958,5.37-2.032,7.89-1.466,3.566-3.657,6.904-6.709,9.26-3.116,2.406-7.074,3.697-11.01,3.591"/>
			<path d="m141.9,166.4c1.532-0.8891,2.624-2.5,2.882-4.252,0.2042-1.385-0.087-2.789-0.378-4.158-0.6082-2.861-1.223-5.731-1.465-8.646-0.2161-2.607-0.1319-5.228-0.189-7.843-0.1009-4.619-0.6421-9.256-0.0945-13.84,0.2908-2.436,0.8864-4.831,1.087-7.276,0.1471-1.796,0.0785-3.612-0.2362-5.386-0.3654-2.06-1.06-4.061-1.276-6.142-0.2694-2.603,0.2213-5.227,0.1417-7.843-0.0786-2.585-0.7123-5.122-0.8977-7.701-0.3104-4.317,0.6394-8.62,0.8032-12.95,0.0699-1.847-0.004-3.701-0.2835-5.528-0.3076-2.011-0.8644-3.984-1.654-5.859"/>
			<path d="m139.7,54.15c-2.965-0.1245-5.956,0.412-8.693,1.559-0.8451,0.3542-1.666,0.7657-2.457,1.228-3.182,1.862-5.888,4.605-7.465,7.938-1.52,3.212-1.955,6.842-1.89,10.39,0.0614,3.37,0.5591,6.751,1.701,9.922,0.7939,2.205,1.89,4.289,2.74,6.473,0.382,0.9814,0.715,1.987,0.8977,3.024,0.4334,2.46,0.002,5.006-0.8032,7.371-0.4643,1.364-1.053,2.687-1.795,3.922-1.08,1.797-2.485,3.41-3.307,5.339-1.066,2.502-1.061,5.312-1.039,8.032,0.0144,1.828,0.0326,3.686,0.567,5.433,0.6012,1.966,1.817,3.674,2.882,5.433,0.8882,1.468,1.684,3.001,2.221,4.63,0.7329,2.228,0.9656,4.61,0.756,6.945-0.2092,2.331-0.8629,4.635-2.032,6.662-0.7952,1.379-1.822,2.624-2.504,4.063-1.122,2.367-1.23,5.097-0.945,7.701,0.2964,2.709,0.9958,5.37,2.032,7.89,1.466,3.566,3.657,6.904,6.709,9.26,3.116,2.406,7.074,3.697,11.01,3.591"/>
			<path d="m137.5,166.4c-1.532-0.8891-2.624-2.5-2.882-4.252-0.2042-1.385,0.087-2.789,0.378-4.158,0.6082-2.861,1.223-5.731,1.465-8.646,0.2161-2.607,0.1319-5.228,0.189-7.843,0.1009-4.619,0.6421-9.256,0.0945-13.84-0.2908-2.436-0.8864-4.831-1.087-7.276-0.1471-1.796-0.0785-3.612,0.2362-5.386,0.3654-2.06,1.06-4.061,1.276-6.142,0.2694-2.603-0.2213-5.227-0.1417-7.843,0.0786-2.585,0.7123-5.122,0.8977-7.701,0.3104-4.317-0.6394-8.62-0.8032-12.95-0.0699-1.847,0.004-3.701,0.2835-5.528,0.3076-2.011,0.8644-3.984,1.654-5.859"/>
			<path d="m139,68.93c0.1284-0.2073,0.3592-0.3477,0.6024-0.3662,0.1412-0.01075,0.2853,0.01801,0.4115,0.08218,0.1263,0.06417,0.2344,0.1636,0.309,0.284"/>
			<path d="m137.5,166.4c0.633,0.3315,1.341,0.5187,2.055,0.5433,0.8244,0.0285,1.655-0.1607,2.386-0.5433"/>
			<path d="m138.3,181h2.835"/>
		</g>
		<g transform="translate(64.751737,140.9253)">
			<path d="m139.7,54.15c2.965-0.1245,5.956,0.412,8.693,1.559,0.8451,0.3542,1.666,0.7657,2.457,1.228,3.182,1.862,5.888,4.605,7.465,7.938,1.52,3.212,1.955,6.842,1.89,10.39-0.0614,3.37-0.5591,6.751-1.701,9.922-0.7939,2.205-1.89,4.289-2.74,6.473-0.382,0.9814-0.715,1.987-0.8977,3.024-0.4334,2.46-0.002,5.006,0.8032,7.371,0.4643,1.364,1.053,2.687,1.795,3.922,1.08,1.797,2.485,3.41,3.307,5.339,1.066,2.502,1.061,5.312,1.039,8.032-0.0144,1.828-0.0326,3.686-0.567,5.433-0.6012,1.966-1.817,3.674-2.882,5.433-0.8882,1.468-1.684,3.001-2.221,4.63-0.7329,2.228-0.9656,4.61-0.756,6.945,0.2092,2.331,0.8629,4.635,2.032,6.662,0.7952,1.379,1.822,2.624,2.504,4.063,1.122,2.367,1.23,5.097,0.945,7.701-0.2964,2.709-0.9958,5.37-2.032,7.89-1.466,3.566-3.657,6.904-6.709,9.26-3.116,2.406-7.074,3.697-11.01,3.591"/>
			<path d="m141.9,166.4c1.532-0.8891,2.624-2.5,2.882-4.252,0.2042-1.385-0.087-2.789-0.378-4.158-0.6082-2.861-1.223-5.731-1.465-8.646-0.2161-2.607-0.1319-5.228-0.189-7.843-0.1009-4.619-0.6421-9.256-0.0945-13.84,0.2908-2.436,0.8864-4.831,1.087-7.276,0.1471-1.796,0.0785-3.612-0.2362-5.386-0.3654-2.06-1.06-4.061-1.276-6.142-0.2694-2.603,0.2213-5.227,0.1417-7.843-0.0786-2.585-0.7123-5.122-0.8977-7.701-0.3104-4.317,0.6394-8.62,0.8032-12.95,0.0699-1.847-0.004-3.701-0.2835-5.528-0.3076-2.011-0.8644-3.984-1.654-5.859"/>
			<path d="m139.7,54.15c-2.965-0.1245-5.956,0.412-8.693,1.559-0.8451,0.3542-1.666,0.7657-2.457,1.228-3.182,1.862-5.888,4.605-7.465,7.938-1.52,3.212-1.955,6.842-1.89,10.39,0.0614,3.37,0.5591,6.751,1.701,9.922,0.7939,2.205,1.89,4.289,2.74,6.473,0.382,0.9814,0.715,1.987,0.8977,3.024,0.4334,2.46,0.002,5.006-0.8032,7.371-0.4643,1.364-1.053,2.687-1.795,3.922-1.08,1.797-2.485,3.41-3.307,5.339-1.066,2.502-1.061,5.312-1.039,8.032,0.0144,1.828,0.0326,3.686,0.567,5.433,0.6012,1.966,1.817,3.674,2.882,5.433,0.8882,1.468,1.684,3.001,2.221,4.63,0.7329,2.228,0.9656,4.61,0.756,6.945-0.2092,2.331-0.8629,4.635-2.032,6.662-0.7952,1.379-1.822,2.624-2.504,4.063-1.122,2.367-1.23,5.097-0.945,7.701,0.2964,2.709,0.9958,5.37,2.032,7.89,1.466,3.566,3.657,6.904,6.709,9.26,3.116,2.406,7.074,3.697,11.01,3.591"/>
			<path d="m137.5,166.4c-1.532-0.8891-2.624-2.5-2.882-4.252-0.2042-1.385,0.087-2.789,0.378-4.158,0.6082-2.861,1.223-5.731,1.465-8.646,0.2161-2.607,0.1319-5.228,0.189-7.843,0.1009-4.619,0.6421-9.256,0.0945-13.84-0.2908-2.436-0.8864-4.831-1.087-7.276-0.1471-1.796-0.0785-3.612,0.2362-5.386,0.3654-2.06,1.06-4.061,1.276-6.142,0.2694-2.603-0.2213-5.227-0.1417-7.843,0.0786-2.585,0.7123-5.122,0.8977-7.701,0.3104-4.317-0.6394-8.62-0.8032-12.95-0.0699-1.847,0.004-3.701,0.2835-5.528,0.3076-2.011,0.8644-3.984,1.654-5.859"/>
			<path d="m139,68.93c0.1284-0.2073,0.3592-0.3477,0.6024-0.3662,0.1412-0.01075,0.2853,0.01801,0.4115,0.08218,0.1263,0.06417,0.2344,0.1636,0.309,0.284"/>
			<path d="m137.5,166.4c0.633,0.3315,1.341,0.5187,2.055,0.5433,0.8244,0.0285,1.655-0.1607,2.386-0.5433"/>
			<path d="m138.3,181h2.835"/>
		</g>
	</g>
</svg>
