<svg width="285mm" xmlns="http://www.w3.org/2000/svg" viewBox="0 0 285 375" version="1.1" height="375mm">
	<g stroke="#000" stroke-width="0.25px" fill-opacity="0.01">
		<path d="m54.81,66.19c0.4497-0.8977,1.121-1.683,1.937-2.268,0.8304-0.5946,1.798-0.9764,2.788-1.228,0.9717-0.2474,1.974-0.3747,2.977-0.378"/>
		<path d="m62.51,62.32c0.8988-2.259,1.687-4.562,2.362-6.898,0.3639-1.259,0.6948-2.529,1.087-3.78,0.3282-1.048,0.7087-2.1,1.37-2.977,0.2032-0.2692,0.4339-0.5216,0.7113-0.7132,0.2775-0.1917,0.6051-0.3204,0.9423-0.3262,0.3623-0.0062,0.7171,0.1298,1.017,0.3334,0.2998,0.2036,0.5497,0.4723,0.7785,0.7532,0.8492,1.042,1.435,2.269,2.079,3.449,0.8309,1.522,1.773,2.989,2.457,4.583,0.6344,1.478,1.038,3.047,1.323,4.63,0.2333,1.297,0.3886,2.607,0.4725,3.922,0.1916,3.004,0.01036,6.018-0.1417,9.024-0.1704,3.368-0.3042,6.739-0.2835,10.11,0.02245,3.656,0.2265,7.308,0.378,10.96,0.2173,5.241,0.3266,10.49,0.189,15.73-0.0996,3.797-0.3282,7.603,0,11.39,0.04274,0.4926,0.1026,1.007,0.378,1.417,0.2,0.2982,0.4992,0.5173,0.8157,0.6869s0.6543,0.2953,0.9797,0.447c1.13,0.5266,2.09,1.355,3.166,1.984,1.284,0.7511,2.726,1.215,3.969,2.032,0.7496,0.4925,1.44,1.142,1.748,1.984,0.1836,0.5013,0.2216,1.056,0.09908,1.576-0.1225,0.5196-0.4064,1.001-0.8078,1.353-0.5788,0.5077-1.36,0.7231-2.126,0.8032-1.588,0.1661-3.179-0.1836-4.772-0.2835-1.781-0.1116-3.565,0.0896-5.339,0.2835-1.603,0.1752-3.208,0.3448-4.819,0.4252-1.944,0.0971-3.908,0.066-5.811,0.4725-1.372,0.2929-2.689,0.8089-4.063,1.087-1.566,0.3164-3.175,0.3178-4.772,0.378-0.5602,0.0211-1.122,0.0496-1.681,0.0106-0.5593-0.039-1.12-0.1477-1.626-0.3886-0.4027-0.1916-0.7719-0.472-1.013-0.8472-0.1205-0.1876-0.2076-0.3974-0.2474-0.6168-0.03976-0.2194-0.03149-0.4483,0.03187-0.662,0.0891-0.3006,0.2833-0.5616,0.5135-0.7744,0.2301-0.2129,0.4965-0.3822,0.7622-0.5485,1.637-1.025,3.316-1.986,4.914-3.071,0.8838-0.6003,1.743-1.239,2.551-1.937,0.7138-0.6167,1.398-1.294,1.843-2.126,0.6565-1.23,0.7295-2.674,0.8504-4.063,0.2392-2.747,0.7195-5.47,0.8977-8.221,0.17-2.625,0.06398-5.259,0.04725-7.89-0.02063-3.245,0.09479-6.489,0.189-9.733,0.1418-4.881,0.2355-9.764,0.3307-14.65,0.06236-3.197,0.1254-6.394,0.189-9.591"/>
		<path d="m64.44,72.05c0.03809-0.449-0.1239-0.9112-0.4339-1.238-0.3282-0.3462-0.7979-0.53-1.27-0.6014-0.9646-0.146-1.936,0.1363-2.907,0.2339-1,0.1005-2.025,0.001-2.973-0.3341-0.5627-0.1989-1.102-0.4841-1.536-0.8944-0.4334-0.4103-0.7551-0.9532-0.8362-1.544-0.07-0.51,0.04423-1.043,0.317-1.48"/>
		<path d="m180.1,172.5c1.076-1.443,2.406-2.704,3.942-3.642,1.551-0.9468,3.328-1.561,5.145-1.604,2.073-0.0489,4.111,0.6443,5.913,1.67,1.399,0.7967,2.678,1.794,3.842,2.907,1.327,1.268,2.516,2.704,3.341,4.343,0.7121,1.415,1.146,2.995,1.069,4.577-0.0861,1.775-0.8026,3.461-1.67,5.011-1.132,2.023-2.568,3.917-4.443,5.279-1.725,1.253-3.792,2.021-5.913,2.238-3.568,0.366-7.261-0.87-9.922-3.274-2.28-2.059-3.802-4.961-4.109-8.018-0.3378-3.358,0.7881-6.783,2.806-9.488z"/>
		<path d="m188.7,178.4c0.8153,0.1664,1.56,0.655,2.038,1.336,0.1864,0.266,0.3343,0.5627,0.4029,0.8802s0.0549,0.6569-0.0688,0.9573c-0.0918,0.2229-0.2433,0.4209-0.4343,0.5679"/>
		<path d="m188.7,178.4c-0.3524,0.3933-0.5164,0.9483-0.4343,1.47,0.0862,0.5482,0.425,1.029,0.8352,1.403,0.4386,0.3997,0.9682,0.699,1.537,0.8686"/>
		<path d="m80.89,202.2c0.4681-0.1164,0.9867-0.009,1.37,0.2835,0.3012,0.2299,0.5142,0.562,0.6449,0.9177s0.1834,0.7356,0.2056,1.114c0.01662,0.2832,0.01662,0.5673,0,0.8504"/>
		<path d="m80.89,202.2c-0.1691,0.4626-0.1518,0.9905,0.04725,1.441,0.1803,0.4082,0.4977,0.7425,0.8504,1.016,0.3973,0.3078,0.8465,0.5485,1.323,0.7087"/>
		<path d="m77.07,192.5c1.438-0.6501,2.97-1.124,4.544-1.236,1.328-0.0945,2.672,0.0715,3.942,0.4677,1.542,0.481,2.973,1.299,4.209,2.339,1.357,1.141,2.488,2.554,3.274,4.143,0.6972,1.41,1.12,2.948,1.303,4.51s0.1262,3.164-0.3007,4.677c-0.5343,1.894-1.637,3.598-3.007,5.011-1.554,1.603-3.504,2.873-5.679,3.374-2.134,0.4922-4.406,0.223-6.448-0.568-2.41-0.9337-4.506-2.566-6.247-4.477-1.547-1.698-2.865-3.693-3.307-5.947-0.5031-2.564,0.1981-5.291,1.67-7.45,1.474-2.161,3.664-3.767,6.047-4.844z"/>
		<path d="m135.7,48.05c1.653-0.03014,3.312,0.4177,4.725,1.276,0.979,0.5944,1.831,1.373,2.693,2.126,2.639,2.306,5.449,4.438,7.796,7.04,3.049,3.381,5.217,7.445,7.323,11.48,1.398,2.679,2.79,5.382,3.685,8.268,0.4876,1.571,0.8247,3.188,1.039,4.819,0.2147,1.632,0.3073,3.276,0.4725,4.914,0.0669,0.6628,0.1456,1.324,0.2362,1.984"/>
		<path d="m163.7,89.96c0.4357,0.3331,1.034,0.4419,1.559,0.2835,0.536-0.1618,0.9572-0.5668,1.37-0.9449,0.8604-0.7878,1.787-1.519,2.835-2.032,1.626-0.7943,3.503-1.026,5.292-0.756,0.7743,0.1168,1.556,0.3348,2.18,0.8081,0.4604,0.3493,0.8187,0.8302,1.027,1.369,0.2086,0.5389,0.2678,1.134,0.1754,1.704-0.0988,0.6103-0.3645,1.181-0.6571,1.725-0.2927,0.5446-0.6164,1.075-0.8463,1.649-0.285,0.7115-0.4192,1.472-0.5949,2.219-0.1757,0.7461-0.4016,1.497-0.8417,2.125-0.5548,0.7911-1.402,1.321-2.238,1.804-1.012,0.585-2.047,1.136-3.007,1.804-0.4575,0.3184-0.8988,0.6644-1.28,1.071-0.381,0.4068-0.7014,0.8772-0.8917,1.401-0.1358,0.3737-0.204,0.7718-0.2004,1.169"/>
		<path d="m167.5,105.4c0.7088,0.0747,1.413,0.1975,2.105,0.3675,1.82,0.447,3.559,1.222,5.112,2.272,1.683,1.138,3.154,2.607,4.21,4.343,1.179,1.939,1.825,4.214,1.737,6.481-0.0811,2.087-0.771,4.112-1.704,5.98-0.7924,1.587-1.776,3.1-3.074,4.31-1.596,1.489-3.599,2.463-5.613,3.307-2.311,0.9698-4.744,1.812-7.25,1.771-2.116-0.0347-4.217-0.7192-5.947-1.938"/>
		<path d="m157.1,132.3c-0.8062,0.897-1.678,1.735-2.606,2.506-1.08,0.8966-2.235,1.701-3.307,2.606-0.8976,0.7575-1.736,1.585-2.506,2.472"/>
		<path d="m148.7,139.8c1.643-0.0151,3.284-0.1379,4.911-0.3675,2.57-0.3628,5.095-0.9904,7.617-1.604,2.365-0.575,4.738-1.139,7.149-1.47,1.351-0.1853,2.713-0.2969,4.076-0.3341"/>
		<path d="m172.5,136.1c-0.1616,1.027-0.4308,2.036-0.8018,3.007-0.5099,1.334-1.221,2.606-2.205,3.642-1.472,1.55-3.459,2.485-5.212,3.708-1.947,1.359-3.668,3.114-5.88,3.976-1.184,0.4614-2.479,0.6446-3.742,0.5011-1.156-0.1314-2.262-0.5284-3.374-0.8686-0.925-0.2829-1.861-0.5282-2.806-0.735"/>
		<path d="m148.4,149.3c-0.6432,0.4654-1.301,0.9111-1.971,1.336-0.8637,0.5478-1.76,1.07-2.472,1.804-0.2487,0.2562-0.4728,0.5363-0.6682,0.8352"/>
		<path d="m143.3,153.3c0.5462-0.3105,1.116-0.5788,1.704-0.8018,0.6198-0.2353,1.258-0.42,1.904-0.568,1.37-0.3136,2.773-0.4622,4.176-0.5345,1.183-0.061,2.38-0.0674,3.541,0.167,1.839,0.3712,3.526,1.341,4.911,2.606,1.428,1.303,2.563,2.934,3.241,4.744,0.7374,1.97,0.9249,4.119,0.735,6.214-0.2234,2.464-0.9721,4.898-2.305,6.982-1.042,1.629-2.428,3.029-4.009,4.143-1.569,1.105-3.325,1.93-5.145,2.539-2.013,0.6731-4.125,1.087-6.247,1.069-1.773-0.0149-3.544-0.3327-5.212-0.9354"/>
		<path d="m140.6,178.9c0.1839,0.9139,0.1609,1.869-0.0668,2.773-0.2798,1.111-0.8632,2.132-1.604,3.007-0.3362,0.3971-0.7054,0.7662-1.102,1.102"/>
		<path d="m137.8,185.8c0.2898-0.0459,0.5931-0.003,0.859,0.1209,0.2659,0.1241,0.4934,0.3291,0.6444,0.5807,0.1797,0.2993,0.2476,0.65,0.3459,0.985,0.0491,0.1675,0.1068,0.3334,0.1899,0.487,0.0831,0.1535,0.1926,0.2949,0.3328,0.3989,0.1854,0.1376,0.413,0.2031,0.6348,0.2673,1.201,0.3477,2.39,0.7356,3.575,1.136,0.4237,0.1432,0.8469,0.288,1.27,0.4343"/>
		<path d="m145.7,190.2c-0.7578,0.6562-1.689,1.11-2.673,1.303-0.6702,0.1314-1.364,0.1427-2.038,0.0334"/>
		<path d="m141,191.5c0.1165,0.8624,0.024,1.752-0.2673,2.572-0.2416,0.68-0.6166,1.309-1.069,1.871-0.2098,0.2606-0.4378,0.5091-0.7036,0.7123s-0.5714,0.3605-0.9,0.4236c-0.1969,0.0378-0.3986,0.0415-0.5978,0.0634-0.1993,0.022-0.4014,0.0642-0.5715,0.1704-0.1745,0.109-0.3023,0.2766-0.4343,0.4343-0.4992,0.5962-1.109,1.095-1.771,1.503-0.5282,0.3265-1.116,0.6038-1.737,0.6014-0.3481-0.001-0.6921-0.0917-1.011-0.2321-0.3185-0.1404-0.6131-0.3302-0.8937-0.5363-0.6559-0.4818-1.243-1.057-1.737-1.704"/>
		<path d="m129.3,197.4c-0.4561,0.0534-0.921,0.0307-1.37-0.0668-0.289-0.0628-0.5727-0.1571-0.8322-0.2989-0.2596-0.1418-0.4949-0.3323-0.6712-0.5698-0.3094-0.4168-0.4193-0.9512-0.4343-1.47-0.011-0.3786,0.0239-0.7579,0-1.136-0.0348-0.5497-0.1961-1.091-0.4677-1.57"/>
		<path d="m125.5,192.3c-0.5309,0.1291-1.055,0.2853-1.57,0.4677-0.7722,0.2735-1.522,0.6054-2.272,0.9354-1.35,0.5942-2.71,1.186-4.143,1.537-1.462,0.3576-3,0.4564-4.477,0.167-2.231-0.4371-4.228-1.746-5.78-3.408-1.339-1.435-2.381-3.142-3.074-4.978-0.8246-2.185-1.154-4.585-0.735-6.882,0.3069-1.683,1.025-3.308,2.172-4.577,1.093-1.209,2.529-2.057,4.009-2.74,1.339-0.618,2.746-1.12,4.21-1.303,1.206-0.1506,2.428-0.0817,3.642,0,1.338,0.09,2.699,0.2008,3.942,0.7016,0.6756,0.272,1.318,0.6592,2.038,0.7684,0.6302,0.0956,1.293-0.0369,1.837-0.3675"/>
		<path d="m125.3,172.6c-0.7428-0.1531-1.423-0.5905-1.871-1.203-0.4631-0.6334-0.6752-1.428-1.169-2.038-0.5637-0.6956-1.423-1.068-2.238-1.437-1.708-0.772-3.382-1.643-4.878-2.773-1.617-1.222-2.996-2.725-4.377-4.21-0.7876-0.8471-1.584-1.697-2.205-2.673-0.9414-1.478-1.446-3.183-2.005-4.844-0.38-1.129-0.7956-2.285-0.735-3.474,0.0241-0.4726,0.1256-0.945,0.3341-1.37,0.2866-0.584,0.7778-1.067,1.37-1.336,0.8203-0.3739,1.787-0.3277,2.639-0.0334,1.022,0.3528,1.894,1.03,2.74,1.704,1.255,0.9996,2.498,2.016,3.675,3.107,1.242,1.151,2.408,2.381,3.642,3.541,1.367,1.285,2.817,2.483,4.343,3.575,1.428,1.021,2.94,1.964,4.109,3.274,0.4638,0.5198,0.8682,1.093,1.203,1.704"/>
		<path d="m129.9,164.1c-0.1788-0.4926-0.2806-1.013-0.3007-1.537-0.0304-0.7953,0.1277-1.591,0.4009-2.339,0.3533-0.9667,0.8984-1.859,1.57-2.639,0.3654-0.4242,0.7684-0.816,1.203-1.169"/>
		<path d="m132.8,156.4c-0.5157-0.4534-0.8651-1.092-0.9689-1.771-0.0745-0.4872-0.0258-0.9858,0.0668-1.47,0.0915-0.4784,0.2259-0.9486,0.4009-1.403"/>
		<path d="m132.3,151.8c-0.6142-0.064-1.227-0.1419-1.837-0.2339-1.939-0.292-3.861-0.7259-5.713-1.37-2.092-0.7271-4.136-1.755-5.646-3.374-1.663-1.783-2.554-4.142-3.241-6.481-0.4089-1.392-0.7614-2.811-0.8595-4.259-0.0982-1.448,0.0676-2.935,0.659-4.26,0.748-1.676,2.126-2.994,3.608-4.076,1.24-0.9055,2.606-1.69,4.109-2.005,1.742-0.3647,3.545-0.0782,5.312,0.1336,1.112,0.1333,2.237,0.2383,3.307,0.568,1.077,0.3315,2.078,0.886,2.973,1.57,0.9652,0.7378,1.807,1.622,2.706,2.439,1.078,0.9791,2.242,1.863,3.475,2.639"/>
		<path d="m141.1,133.1c0.0809-0.4523,0.1926-0.8992,0.3341-1.336,0.1662-0.5138,0.3733-1.014,0.6014-1.503,0.3176-0.6819,0.6862-1.358,1.236-1.871,0.302-0.2818,0.6545-0.5092,1.036-0.6682"/>
		<path d="m144.3,127.7c-1.106,0.0292-2.214-0.038-3.307-0.2004-1.715-0.2547-3.401-0.7472-4.944-1.537-1.796-0.9188-3.376-2.229-4.711-3.742-0.8146-0.9232-1.546-1.928-2.472-2.74-0.3619-0.3174-0.7512-0.603-1.105-0.9292-0.354-0.3262-0.6764-0.6997-0.8659-1.142-0.2278-0.5318-0.2497-1.126-0.2673-1.704-0.0681-2.238-0.1215-4.477-0.167-6.715-0.0183-0.8982-0.0328-1.815,0.2339-2.673,0.2129-0.685,0.6229-1.332,1.236-1.704,0.5716-0.3468,1.276-0.4284,1.938-0.3341,0.8154,0.1162,1.589,0.4891,2.205,1.036,0.5268,0.4672,0.9349,1.05,1.37,1.604,0.6679,0.8505,1.407,1.642,2.138,2.439,0.9544,1.041,1.896,2.094,2.806,3.174,0.8781,1.041,1.727,2.106,2.572,3.174,0.7827,0.9886,1.562,1.98,2.339,2.973"/>
		<path d="m143.3,118.7c0.4244-0.0952,0.8476-0.1954,1.27-0.3007,0.6583-0.1642,1.327-0.3422,2.005-0.3007,0.2843,0.0174,0.5661,0.0738,0.8352,0.167"/>
		<path d="m147.4,118.3c0.0769-0.3566,0.1548-0.713,0.2339-1.069,0.1979-0.8917,0.4164-1.812,0.9689-2.539,0.1289-0.1697,0.2746-0.3266,0.4343-0.4677"/>
		<path d="m149.1,114.2c-0.0306-0.4637-0.2842-0.9076-0.6682-1.169-0.3988-0.2718-0.8964-0.3403-1.37-0.4343-1.643-0.3264-3.207-1.052-4.51-2.105-1.838-1.485-3.099-3.546-4.41-5.512-1.079-1.618-2.238-3.25-2.673-5.145-0.4193-1.828-0.1185-3.767,0.568-5.512,0.8693-2.21,2.348-4.163,4.176-5.679,1.2-0.9954,2.598-1.826,4.143-2.038,1.458-0.2005,2.94,0.1633,4.31,0.7016,0.8306,0.3264,1.636,0.7178,2.405,1.169"/>
		<path d="m151,88.45c0.0273-1.082-0.0286-2.167-0.167-3.241-0.1651-1.28-0.4475-2.544-0.8352-3.775-0.4519-1.435-1.046-2.824-1.437-4.276-0.3933-1.464-0.5751-2.979-0.9689-4.443-0.7071-2.629-2.075-5.023-3.241-7.484-1.218-2.572-2.226-5.245-3.575-7.751-0.9539-1.772-2.073-3.449-3.207-5.112-0.5756-0.8432-1.158-1.687-1.604-2.606-0.0894-0.1844-0.1735-0.3721-0.2339-0.568-0.114-0.3698-0.1415-0.7659-0.0795-1.148"/>
		<path d="m146.2,97.44c0.4236,0.5762,1.008,1.032,1.67,1.303,0.5995,0.245,1.261,0.3378,1.904,0.2673"/>
		<path d="m146.2,97.44c0.0309,0.5226,0.1323,1.041,0.3007,1.537,0.2772,0.8163,0.7499,1.583,1.437,2.105,0.5556,0.4217,1.241,0.6699,1.938,0.7016"/>
		<path d="m149.8,99.01,0.1002,2.773"/>
		<path d="m166.3,94.83c0.8139-0.2186,1.581-0.6081,2.238-1.136,0.8418-0.6762,1.488-1.562,2.272-2.305,0.533-0.5056,1.129-0.9445,1.771-1.303"/>
		<path d="m166.3,94.83c0.4543,0.2847,1.003,0.4159,1.537,0.3675,0.798-0.07234,1.514-0.5276,2.105-1.069,0.5373-0.4926,0.9981-1.064,1.403-1.67,0.4964-0.7427,0.9118-1.54,1.236-2.372"/>
		<path d="m160.3,123.1c1.017-0.8049,1.911-1.766,2.639-2.84,0.4568-0.6732,0.849-1.39,1.169-2.138"/>
		<path d="m164.1,118.1c0.6328-0.1542,1.287-0.2219,1.938-0.2004,0.5927,0.0195,1.18,0.1122,1.771,0.167,0.855,0.0795,1.717,0.0795,2.572,0"/>
		<path d="m160.3,123.1c0.4544,0.3356,0.949,0.6167,1.47,0.8352,0.3674,0.1541,0.7478,0.2772,1.136,0.3675"/>
		<path d="m162.9,124.3c0.9067-0.5191,1.778-1.1,2.606-1.737,1.07-0.8234,2.065-1.739,3.04-2.673,0.62-0.5936,1.233-1.195,1.837-1.804"/>
		<path d="m124.6,135.6c0.4759-0.1631,0.9669-0.2819,1.465-0.3544,0.4221-0.0615,0.8514-0.0896,1.275-0.0427,0.424,0.0468,0.8435,0.1708,1.205,0.3971,0.4316,0.27,0.7619,0.6711,1.087,1.063,0.5874,0.7088,1.184,1.412,1.843,2.055,0.4881,0.4765,1.01,0.9189,1.559,1.323"/>
		<path d="m124.6,135.6c0.3667,0.2423,0.6705,0.579,0.8741,0.9686,0.2974,0.5691,0.3742,1.223,0.5433,1.843,0.1594,0.5838,0.4045,1.145,0.7323,1.654,0.2663,0.4133,0.5856,0.7906,0.8504,1.205,0.09,0.1408,0.174,0.2862,0.2779,0.4171s0.2303,0.2484,0.3836,0.3152c0.1496,0.0652,0.3167,0.079,0.4798,0.0746,0.1631-0.004,0.3256-0.0259,0.4887-0.0274,0.2366-0.002,0.475,0.0373,0.7087,0,0.2454-0.0391,0.4708-0.1613,0.6695-0.3106,0.1986-0.1492,0.3746-0.3261,0.559-0.4926,0.5519-0.4984,1.185-0.907,1.866-1.205"/>
		<path d="m140.7,167.3c0.8046-0.7688,1.657-1.487,2.551-2.15,0.745-0.552,1.547-1.096,1.984-1.914,0.1571-0.2935,0.2616-0.6151,0.3071-0.945"/>
		<path d="m145.6,162.3c0.5515-0.0261,1.103-0.0576,1.654-0.0945,0.7019-0.0471,1.415-0.1022,2.102,0.0472,0.4584,0.0996,0.9014,0.2896,1.37,0.3071,0.1665,0.006,0.3338-0.01,0.4961-0.0472"/>
		<path d="m151.2,162.5c0.2626,0.3192,0.4998,0.6592,0.7087,1.016,0.2256,0.3851,0.4195,0.7935,0.5197,1.228,0.1443,0.6264,0.0856,1.298-0.1654,1.89"/>
		<path d="m152.3,166.6c-0.4975,0.2731-0.9936,0.5487-1.488,0.8268-0.6582,0.37-1.314,0.7445-1.961,1.134-0.6308,0.3797-1.253,0.7736-1.866,1.181"/>
		<path d="m146.9,169.8c-0.548-0.1695-1.033-0.5354-1.347-1.016-0.1945-0.2981-0.3224-0.6336-0.4744-0.9554s-0.3356-0.6396-0.6122-0.8636c-0.2238-0.1813-0.4984-0.2918-0.7796-0.3544-0.29-0.0645-0.6044-0.0776-0.8741,0.0472-0.2508,0.1161-0.4357,0.3381-0.5906,0.567-0.0711,0.105-0.1378,0.2132-0.2163,0.3128s-0.1697,0.1913-0.2798,0.2542c-0.1927,0.1101-0.4385,0.1215-0.6406,0.0297-0.202-0.0918-0.3551-0.2846-0.3988-0.5022"/>
		<path d="m112.8,180.4c0.5884-0.1933,1.201-0.3126,1.819-0.3544,0.761-0.0514,1.531,0.0156,2.268,0.2126,0.6232,0.1667,1.219,0.4247,1.843,0.5906,0.8754,0.2329,1.802,0.2796,2.693,0.1181,0.5931-0.1075,1.171-0.3057,1.772-0.3544,0.3876-0.0314,0.7802,0.00069,1.158,0.0945"/>
		<path d="m112.8,180.4c0.2189,0.3903,0.4162,0.7927,0.5906,1.205,0.175,0.4134,0.3268,0.8363,0.4961,1.252,0.2114,0.5191,0.4499,1.027,0.6851,1.536,0.2451,0.5303,0.4917,1.07,0.8741,1.512,0.2741,0.3166,0.6142,0.5757,0.9922,0.756"/>
		<path d="m116.4,186.7c0.4348-0.3216,0.9129-0.5846,1.417-0.7796,0.4998-0.1931,1.025-0.3198,1.512-0.5433,0.5459-0.2506,1.044-0.6226,1.63-0.756,0.2378-0.0541,0.4836-0.067,0.7214-0.1213,0.1189-0.0271,0.236-0.0648,0.344-0.1215s0.2068-0.133,0.2811-0.2297c0.072-0.0936,0.1194-0.204,0.1539-0.317,0.0344-0.113,0.0565-0.2292,0.0824-0.3445,0.1383-0.6165,0.3895-1.21,0.756-1.725,0.279-0.3919,0.6239-0.7368,1.016-1.016"/>
		<path d="m133.8,209.6c-0.0374-1.026,0.1239-2.058,0.4725-3.024,0.3465-0.9597,0.875-1.849,1.512-2.646,0.8839-1.106,1.981-2.042,3.213-2.74"/>
		<path d="m139,201.2c0.4438-0.06,0.9019-0.011,1.323,0.1417,0.5683,0.2061,1.057,0.5934,1.465,1.039,0.5527,0.604,0.9709,1.317,1.37,2.032,0.4261,0.7628,0.8357,1.535,1.228,2.315"/>
		<path d="m133.8,209.6c0.7982-0.3044,1.586-0.6353,2.362-0.9922,1.094-0.5032,2.178-1.063,3.355-1.323,1.268-0.2807,2.588-0.2012,3.874-0.378,0.3337-0.0459,0.665-0.109,0.9922-0.189"/>
		<path d="m162.2,215.4c0.6447-0.0425,1.291-0.0583,1.937-0.0472,0.5482,0.009,1.114,0.0424,1.606,0.2835,0.3913,0.1915,0.712,0.5041,0.979,0.8484,0.267,0.3442,0.4858,0.7227,0.7219,1.089,0.4337,0.6727,0.9296,1.31,1.276,2.032,0.1967,0.4103,0.3435,0.8471,0.4026,1.298,0.0591,0.4511,0.0286,0.9173-0.1192,1.348-0.2583,0.752-0.8487,1.34-1.465,1.843-0.4641,0.3788-0.9538,0.7264-1.465,1.039"/>
		<path d="m162.2,215.4c0.6443,0.5851,1.03,1.445,1.039,2.315,0.003,0.3174-0.0409,0.6332-0.0579,0.9502-0.0169,0.317-0.005,0.6421,0.1052,0.9397,0.084,0.2265,0.2226,0.4292,0.378,0.6142,0.2131,0.2536,0.459,0.4773,0.6889,0.7157,0.23,0.2384,0.4468,0.496,0.5868,0.7962,0.146,0.3134,0.2024,0.6606,0.2398,1.004,0.0374,0.3438,0.0578,0.691,0.1382,1.027,0.1227,0.5135,0.387,0.9925,0.756,1.37"/>
		<path d="m119.6,217.3c0.2373,0.8225,0.571,1.617,0.9922,2.362,0.3578,0.6332,0.7828,1.241,0.9922,1.937,0.2345,0.7801,0.1797,1.627-0.0472,2.41-0.244,0.8411-0.6771,1.612-1.039,2.41-0.4937,1.086-0.8592,2.231-1.087,3.402"/>
		<path d="m119.6,217.3c-0.6431,0.172-1.264,0.4267-1.843,0.756-0.6368,0.3623-1.221,0.814-1.748,1.323-0.2284,0.2206-0.4516,0.4601-0.567,0.756-0.071,0.1821-0.098,0.3778-0.1289,0.5708s-0.0672,0.3883-0.1546,0.5632c-0.1334,0.2668-0.3726,0.462-0.602,0.6527-0.2294,0.1906-0.4634,0.3953-0.5791,0.6702-0.1026,0.2438-0.1011,0.5196-0.0615,0.7812s0.1152,0.5166,0.156,0.778c0.0732,0.4688,0.0332,0.9468,0.007,1.421-0.0266,0.4738-0.0386,0.9569,0.0879,1.414,0.1716,0.6204,0.5968,1.157,1.134,1.512,0.4703,0.3105,1.017,0.4857,1.565,0.6159,0.5483,0.1302,1.107,0.2192,1.648,0.3762,0.3065,0.0889,0.6068,0.1996,0.8977,0.3307"/>
		<path d="m141.1,223.4c-1.081,0.1002-2.126,0.5516-2.94,1.27-1.055,0.9301-1.688,2.255-2.071,3.608-0.4381,1.545-0.5787,3.222-0.0668,4.744,0.5509,1.638,1.829,2.971,3.341,3.809,1.381,0.7648,2.965,1.147,4.544,1.136,0.9518-0.007,1.907-0.1562,2.797-0.4939,0.8899-0.3378,1.713-0.868,2.348-1.577,1.131-1.265,1.589-2.994,1.804-4.677,0.189-1.478,0.212-3.023-0.3341-4.41-0.373-0.947-1.007-1.789-1.815-2.409-0.8072-0.62-1.785-1.016-2.796-1.132"/>
		<path d="m145.9,223.3c0.4928-0.1165,0.9972-0.1837,1.503-0.2004,0.6293-0.0208,1.28,0.042,1.837,0.3341,0.3588,0.1879,0.6661,0.4648,0.9219,0.7788,0.2558,0.3141,0.4622,0.6654,0.6483,1.025,0.4916,0.9504,0.8473,1.968,1.102,3.007,0.3887,1.583,0.5441,3.251,0.2004,4.844-0.3487,1.617-1.226,3.128-2.506,4.176-1.309,1.073-2.974,1.63-4.644,1.904-2.03,0.3333-4.16,0.2698-6.08-0.4677-1.628-0.6254-3.095-1.765-3.909-3.307-0.5244-0.9949-0.7641-2.125-0.7876-3.25-0.0235-1.124,0.1632-2.245,0.4535-3.332,0.2309-0.8642,0.5294-1.715,0.9653-2.496,0.4358-0.7812,1.014-1.493,1.741-2.014,1.068-0.7656,2.446-1.085,3.742-0.8686"/>
		<path d="m200.3,293.4c0.7857,0.2433,1.559,0.5273,2.315,0.8504,0.8749,0.3738,1.727,0.8,2.551,1.276"/>
		<path d="m205.2,295.5c1.26-0.417,2.481-0.9558,3.638-1.606,1.218-0.6848,2.369-1.494,3.638-2.079,0.8061-0.3714,1.652-0.6486,2.504-0.8977,1.761-0.5148,3.56-0.914,5.386-1.087,0.832-0.0787,1.668-0.1102,2.504-0.0945"/>
		<path d="m222.9,289.8c-0.0235,0.4921-0.1533,0.9789-0.378,1.417-0.3079,0.601-0.7866,1.102-1.323,1.512-1.034,0.7914-2.309,1.287-3.166,2.268-0.3174,0.3638-0.5665,0.7844-0.756,1.228-0.345,0.8084-0.4981,1.7-0.9449,2.457-0.1991,0.3372-0.4519,0.6392-0.672,0.9632-0.2201,0.3239-0.4109,0.6802-0.4619,1.068-0.0395,0.3006,0.007,0.6075,0.0945,0.8977,0.2202,0.7299,0.6886,1.355,1.039,2.032,0.5051,0.9746,0.7673,2.068,0.8032,3.166,0.0449,1.374-0.2577,2.735-0.6142,4.063-0.3057,1.139-0.6565,2.276-1.228,3.307-0.5192,0.936-1.21,1.765-1.937,2.551-0.5816,0.6291-1.207,1.247-1.984,1.606-0.5629,0.2599-1.191,0.3734-1.81,0.3434-0.6192-0.03-1.229-0.202-1.781-0.4851-1.151-0.591-2.004-1.629-2.74-2.693-0.9534-1.377-1.777-2.852-2.882-4.11-0.7654-0.8717-1.666-1.634-2.693-2.173-0.7365-0.3866-1.53-0.6552-2.268-1.039-1.049-0.5465-1.976-1.327-2.693-2.268"/>
		<path d="m194.5,305.9c0.4536-0.4791,1.003-0.8669,1.606-1.134,0.4103-0.1816,0.8429-0.307,1.276-0.4252,0.7218-0.1972,1.455-0.3783,2.126-0.7087,0.7332-0.3609,1.394-0.9171,1.748-1.654,0.355-0.7388,0.376-1.595,0.2835-2.41-0.0978-0.861-0.3154-1.71-0.6615-2.504-0.2517-0.5776-0.5729-1.133-0.7087-1.748-0.1387-0.6287-0.0715-1.301,0.189-1.89"/>
		<path d="m189.9,217.7c0.5383-0.3695,1.238-0.4944,1.871-0.3341,0.3886,0.0985,0.746,0.2972,1.069,0.5345,0.4866,0.3575,0.907,0.8099,1.203,1.336,0.2536,0.4514,0.4138,0.955,0.4677,1.47"/>
		<path d="m189.9,217.7c0.008,0.4385,0.1017,0.8753,0.2743,1.278,0.2139,0.4996,0.5434,0.94,0.8032,1.417,0.2462,0.4523,0.4296,0.9388,0.5433,1.441"/>
		<path d="m191.5,221.8c0.4928-0.205,0.989-0.4019,1.488-0.5906,0.4974-0.188,0.998-0.3679,1.501-0.5395"/>
		<path d="m247.8,230.2c-1.007,0.1543-2.022,0.2548-3.04,0.3007-1.461,0.0659-2.93,0.0191-4.377-0.2004-1.112-0.1688-2.214-0.4417-3.241-0.902-0.9999-0.4485-1.92-1.074-2.706-1.837"/>
		<path d="m234.4,227.5c-0.834-0.0573-1.67-0.0907-2.506-0.1002-1.715-0.0195-3.432,0.0617-5.145-0.0334-0.1764-0.01-0.3533-0.0215-0.5294-0.008-0.1761,0.0137-0.3528,0.0538-0.5062,0.1414-0.1616,0.0923-0.2899,0.2325-0.4068,0.3773-0.1169,0.1447-0.226,0.2971-0.3616,0.4245-0.0994,0.0934-0.2123,0.1724-0.3341,0.2339"/>
		<path d="m224.6,228.6c0.3696,0.4364,0.6647,0.9357,0.8686,1.47,0.341,0.8933,0.423,1.869,0.3585,2.824-0.0645,0.954-0.2711,1.892-0.4921,2.823-0.4353,1.832-0.9422,3.68-1.938,5.279-1.13,1.813-2.851,3.219-4.777,4.143-2.311,1.108-4.978,1.542-7.484,1.002-2.248-0.4845-4.282-1.724-5.98-3.274-1.51-1.379-2.788-3.018-3.708-4.844-0.4781-0.9492-0.8593-1.947-1.136-2.973-0.32-1.187-0.4998-2.412-0.5345-3.642"/>
		<path d="m199.8,231.4c-0.3533,0.1596-0.6814,0.3746-0.9688,0.6348-0.3623,0.3279-0.6593,0.7277-0.8686,1.169"/>
		<path d="m197.9,233.2c0.1237,0.4784,0.169,0.9771,0.1336,1.47-0.0318,0.4427-0.1279,0.8781-0.1848,1.318-0.0569,0.4402-0.0734,0.8949,0.0511,1.321,0.0998,0.3414,0.2867,0.6516,0.5011,0.9354,0.5323,0.7048,1.233,1.26,1.871,1.871,0.996,0.9544,1.844,2.052,2.806,3.04,0.8054,0.8269,1.701,1.589,2.305,2.572,0.6443,1.048,0.9187,2.33,0.7016,3.541-0.1124,0.6271-0.3542,1.233-0.7187,1.755-0.3646,0.5225-0.8527,0.9606-1.419,1.252-0.9559,0.491-2.102,0.5431-3.14,0.2673-1.304-0.3462-2.421-1.163-3.608-1.804-1.061-0.5729-2.19-1.01-3.274-1.537-1.709-0.8305-3.3-1.881-4.878-2.94-0.4291-0.2881-0.8716-0.5915-1.136-1.036-0.1782-0.2995-0.2638-0.6465-0.2971-0.9934s-0.0167-0.6963-0.004-1.045c0.0366-0.9665,0.049-1.949,0.3341-2.873,0.2786-0.9033,0.8182-1.724,1.537-2.339"/>
		<path d="m189.5,238c-0.6604,0.2753-1.251,0.7155-1.704,1.27-0.472,0.5777-0.7888,1.267-1.036,1.971-0.3079,0.8778-0.5145,1.789-0.6682,2.706-0.1078,0.6435-0.1918,1.299-0.4343,1.904-0.358,0.8943-1.051,1.633-1.871,2.138-0.6494,0.4002-1.383,0.6637-2.138,0.7684"/>
		<path d="m181.7,248.7c-0.007,0.4136-0.0409,0.8267-0.1002,1.236-0.0539,0.3721-0.1292,0.7414-0.2339,1.102-0.0824,0.2844-0.1829,0.5636-0.3007,0.8352"/>
		<path d="m181,251.9c0.2306-0.4651,0.5938-0.8635,1.036-1.136,0.5724-0.3529,1.248-0.4866,1.904-0.6348,1.383-0.3125,2.759-0.7181,4.176-0.7684,1.472-0.0523,2.931,0.2819,4.343,0.7016,2.435,0.7236,4.852,1.747,6.682,3.508,1.292,1.243,2.242,2.812,2.907,4.477,1.503,3.763,1.554,8.074,0.2004,11.89-0.8697,2.454-2.353,4.757-4.51,6.214-1.9,1.283-4.191,1.837-6.448,2.238-1.987,0.3531-4.037,0.6051-6.014,0.2004-1.813-0.3711-3.473-1.277-5.011-2.305-0.4188-0.2798-0.831-0.5694-1.236-0.8686"/>
		<path d="m179.1,275.4c0.2949,0.4363,0.4803,0.9461,0.5345,1.47,0.0228,0.22,0.0229,0.4428,0.0652,0.66,0.0423,0.2171,0.1328,0.4341,0.3023,0.5762,0.0977,0.0819,0.2161,0.1346,0.333,0.1855s0.2357,0.1022,0.3352,0.182c0.1346,0.108,0.2258,0.263,0.2804,0.4266,0.0546,0.1637,0.075,0.3367,0.0871,0.5088,0.0368,0.5234,0.00029,1.05-0.0668,1.57-0.0564,0.4378-0.1345,0.8728-0.2339,1.303"/>
		<path d="m182.2,265.1c0.6181-0.1361,1.205-0.4123,1.704-0.8018,0.617-0.4818,1.097-1.137,1.37-1.871"/>
		<path d="m185.3,262.4c0.7381,0.0155,1.478-0.0405,2.205-0.167,0.6127-0.1066,1.217-0.2632,1.804-0.4677"/>
		<path d="m189.3,261.8c0.1636,0.5807,0.2864,1.173,0.3675,1.771,0.1112,0.8199,0.143,1.657,0,2.472-0.0538,0.3063-0.132,0.6082-0.2339,0.902"/>
		<path d="m182.2,265.1c0.716,0.0222,1.431,0.0892,2.138,0.2004,1.764,0.2774,3.484,0.832,5.078,1.637"/>
		<path d="m167.5,261.5c-0.0915,0.3363-0.103,0.6941-0.0334,1.036,0.1232,0.6043,0.508,1.151,1.036,1.47"/>
		<path d="m168.5,264c-0.3151,0.3377-0.5955,0.7077-0.8352,1.102-0.433,0.7128-0.7334,1.511-0.8352,2.339-0.0905,0.736-0.0233,1.488,0.167,2.205,0.1327,0.4995,0.3255,0.9883,0.3675,1.503,0.0618,0.7578-0.2273,1.537-0.7684,2.071"/>
		<path d="m167.5,261.5c-0.361,0.2382-0.7174,0.4833-1.069,0.735-0.5421,0.388-1.082,0.7966-1.704,1.036-0.4248,0.1632-0.8814,0.2431-1.336,0.2339"/>
		<path d="m163.4,263.5c0.1048,0.1351,0.171,0.3,0.1886,0.4701s-0.0134,0.345-0.0884,0.4988c-0.0766,0.1571-0.1965,0.2894-0.3272,0.4055s-0.2733,0.2179-0.4078,0.3295c-0.3177,0.2634-0.5902,0.5812-0.8018,0.9355"/>
		<path d="m161.9,266.1c0.331,0.1628,0.6056,0.4374,0.7684,0.7684,0.1327,0.2699,0.1911,0.5719,0.2023,0.8724s-0.0233,0.6009-0.0687,0.8982c-0.029,0.1901-0.0624,0.3794-0.1002,0.568"/>
		<path d="m162.7,269.2c0.5112,0.491,1.012,0.9922,1.503,1.503,0.5403,0.5625,1.068,1.137,1.604,1.704,0.2434,0.2577,0.4884,0.5138,0.735,0.7684"/>
		<path d="m180.7,282.3h1.503c0.6041,0,1.22,0.0463,1.775,0.2867,0.5542,0.2405,1.021,0.641,1.466,1.05,0.68,0.6245,1.348,1.264,2.071,1.837,1.303,1.033,2.768,1.839,4.243,2.606,2.071,1.077,4.186,2.091,6.114,3.408,0.8581,0.5858,1.676,1.23,2.448,1.926"/>
		<path d="m209.2,230.4c0.409-0.2418,0.7325-0.6252,0.902-1.069,0.0737-0.1928,0.1187-0.3953,0.182-0.5918s0.1472-0.391,0.2857-0.5441c0.1521-0.1681,0.3672-0.2778,0.5926-0.3022s0.459,0.0368,0.6435,0.1685"/>
		<path d="m209.2,230.4c0.1745,0.077,0.3263,0.2047,0.4321,0.3634s0.1653,0.3479,0.1692,0.5386c0.004,0.1811-0.0411,0.3592-0.0643,0.5388-0.0116,0.0898-0.0178,0.1808-0.01,0.271,0.008,0.0902,0.0306,0.1799,0.0741,0.2594,0.064,0.1171,0.1698,0.2062,0.2831,0.2767s0.2357,0.125,0.3517,0.191c0.3836,0.2181,0.6925,0.5642,0.8686,0.9688,0.064,0.147,0.1107,0.3008,0.1686,0.4503s0.1281,0.2966,0.2323,0.4184c0.1044,0.122,0.2418,0.2156,0.3936,0.2681s0.3176,0.0639,0.4751,0.0326"/>
		<path d="m211.8,228c0.188,0.4239,0.3124,0.8759,0.3675,1.336,0.0527,0.4404,0.0458,0.9012,0.2339,1.303,0.142,0.3034,0.3876,0.5535,0.5011,0.8686,0.1219,0.3383,0.078,0.7102,0.1002,1.069,0.029,0.4696,0.1736,0.9384,0.1002,1.403-0.0572,0.3626-0.2512,0.702-0.5345,0.9354"/>
		<path d="m247.8,230.2c0.1308-0.0128,0.2547-0.0848,0.3305-0.1922s0.1022-0.2482,0.0704-0.3758c-0.0313-0.1256-0.1148-0.233-0.2129-0.3175-0.0982-0.0844-0.2115-0.149-0.3216-0.2171-0.6533-0.4038-1.211-0.9438-1.737-1.503-1.042-1.108-1.987-2.315-3.14-3.307-1.271-1.094-2.759-1.898-4.21-2.74-2.029-1.178-4.011-2.447-5.847-3.909-0.8636-0.6877-1.714-1.429-2.74-1.837-1.03-0.4098-2.167-0.4544-3.274-0.4009-1.248,0.0603-2.494,0.2385-3.742,0.167-0.2042-0.0117-0.4101-0.0305-0.6047-0.0936s-0.379-0.1742-0.4978-0.3408c-0.1274-0.1787-0.1691-0.4037-0.1926-0.6219s-0.033-0.4414-0.108-0.6476c-0.1052-0.289-0.334-0.5219-0.5997-0.6767-0.2658-0.1548-0.5675-0.2377-0.8703-0.2921-0.2329-0.0419-0.4699-0.0681-0.6952-0.1405s-0.443-0.1972-0.5743-0.394c-0.0774-0.1159-0.1214-0.2522-0.1377-0.3907-0.0163-0.1384-0.005-0.2791,0.0209-0.4159,0.0526-0.2737,0.1657-0.5315,0.2504-0.797,0.3618-1.134,0.1983-2.358,0.0668-3.541-0.0968-0.8711-0.1774-1.758-0.5011-2.572-0.3073-0.7732-0.854-1.476-1.604-1.837-0.697-0.3358-1.513-0.3524-2.272-0.2005-0.6802,0.1362-1.336,0.4038-1.904,0.8018-1.263,0.8851-1.997,2.323-2.74,3.675-0.5514,1.005-1.134,1.995-1.604,3.04-0.4786,1.066-0.8364,2.184-1.336,3.241-0.4638,0.9798-1.049,1.902-1.737,2.74"/>
		<path d="m205.3,216.1c-0.5146,0.2081-1.054,0.3543-1.604,0.4343-0.6635,0.0967-1.341,0.0967-2.005,0"/>
		<path d="m201.7,216.5c-0.0207-0.5298-0.0992-1.057-0.2339-1.57-0.3351-1.277-1.013-2.444-1.837-3.474-1.327-1.659-3.11-3.023-5.178-3.508-1.362-0.3195-2.785-0.2483-4.176-0.1002-1.138,0.1211-2.284,0.296-3.341,0.735-1.4,0.5815-2.574,1.597-3.642,2.673-1.008,1.015-1.957,2.117-2.572,3.408-0.6121,1.284-0.8719,2.72-0.8686,4.143,0.003,1.242,0.2014,2.479,0.5345,3.675,0.4284,1.538,1.082,3.017,1.971,4.343,0.8905,1.328,2.016,2.499,3.307,3.441"/>
		<path d="m185.7,230.3c-1.107-0.0121-2.216,0.2421-3.207,0.735-0.8122,0.4039-1.538,0.9605-2.238,1.537-1.011,0.8317-1.983,1.713-2.873,2.673-0.6951,0.7488-1.359,1.581-1.604,2.572-0.0754,0.3054-0.1092,0.621-0.1002,0.9354"/>
		<path d="m175.6,238.7c-0.8197,0.3232-1.644,0.635-2.472,0.9354-0.914,0.3315-1.834,0.6493-2.773,0.902-0.7686,0.2069-1.565,0.3768-2.238,0.8018-0.6133,0.3874-1.087,0.968-1.437,1.604-0.3139,0.5707-0.5356,1.194-0.6348,1.837-0.1618,1.05,0.002,2.138-0.2339,3.174-0.0792,0.3479-0.203,0.6856-0.3675,1.002"/>
		<path d="m165.5,249c-0.3626,0.2523-0.7302,0.4974-1.102,0.735-0.8321,0.531-1.707,1.032-2.673,1.236-0.9725,0.2051-1.98,0.097-2.973,0.1336-1.351,0.0498-2.706,0.3686-4.042,0.167-0.8674-0.1308-1.688-0.4763-2.472-0.8686-1.164-0.582-2.27-1.272-3.408-1.904-0.6455-0.3586-1.305-0.7001-2.005-0.9354-0.9895-0.3327-2.087-0.4423-3.074-0.1002-0.7477,0.2593-1.393,0.7654-1.904,1.37-0.4179,0.4943-0.7545,1.06-0.9688,1.67-0.3108,0.8855-0.3579,1.862-0.1336,2.773"/>
		<path d="m156.3,251.2c-0.2662-0.3117-0.557-0.6024-0.8686-0.8686-0.4024-0.3437-0.8396-0.6464-1.303-0.902"/>
		<path d="m154.1,249.4c0.5622-0.0294,1.122-0.1078,1.67-0.2339,0.9788-0.225,1.931-0.6074,2.74-1.203,1.036-0.7625,1.793-1.835,2.673-2.773,0.3072-0.3276,0.6307-0.6399,0.9689-0.9354"/>
		<path d="m162.1,244.2c0.7614,0.6394,1.508,1.297,2.238,1.971,0.463,0.4275,0.9197,0.8618,1.37,1.303"/>
		<path d="m172.6,239.6c0.0631-0.7278,0.2564-1.444,0.5679-2.105,0.5319-1.128,1.388-2.065,2.205-3.007,1.019-1.175,2.001-2.392,2.773-3.742,0.8417-1.471,1.428-3.096,1.637-4.777,0.1656-1.329,0.0963-2.676-0.0334-4.009-0.1244-1.278-0.3042-2.562-0.2005-3.842,0.0499-0.6159,0.1651-1.225,0.2186-1.841,0.0535-0.6156,0.0431-1.248-0.1518-1.834-0.2952-0.8879-0.9775-1.581-1.57-2.305-1.384-1.691-2.389-3.723-4.076-5.112-0.9271-0.7633-2.019-1.296-3.107-1.804-1.222-0.5712-2.463-1.125-3.775-1.437-1.58-0.3752-3.221-0.3899-4.844-0.3675-1.382,0.0191-2.763,0.0636-4.143,0.1336"/>
		<path d="m158.1,203.6c-0.4971-0.464-1.077-0.8391-1.704-1.102-0.4387-0.1843-0.8989-0.3139-1.336-0.5011-0.3493-0.1495-0.6971-0.3483-0.902-0.6682-0.1601-0.2498-0.2184-0.553-0.2252-0.8496-0.007-0.2966,0.0346-0.5919,0.0581-0.8877,0.0961-1.206-0.1091-2.436-0.6014-3.541-0.5791-1.3-1.539-2.404-2.639-3.307-1.467-1.204-3.204-2.078-5.045-2.539"/>
		<path d="m145,259.2c0.3268-0.0679,0.669-0.0597,0.9922,0.0236,0.4641,0.1197,0.876,0.388,1.252,0.6851,0.6168,0.4872,1.16,1.06,1.701,1.63,0.3699,0.3894,0.7422,0.781,1.039,1.228,0.3632,0.5467,0.6052,1.163,0.8504,1.772,0.2422,0.6011,0.4905,1.201,0.6851,1.819,0.2202,0.6994,0.3708,1.421,0.4488,2.15"/>
		<path d="m145,259.2c0.2755,0.2191,0.5434,0.4476,0.8032,0.6851,0.6499,0.594,1.253,1.25,1.701,2.008,0.3737,0.6324,0.644,1.341,1.158,1.866,0.3365,0.3441,0.7606,0.5907,1.11,0.9213,0.3191,0.3016,0.57,0.6674,0.8032,1.039,0.5526,0.8816,1.02,1.817,1.394,2.788"/>
		<path d="m194.5,305.9c-0.7118,0.0644-1.432,0.0305-2.135-0.1004-1.818-0.3388-3.445-1.304-5.112-2.105-2.476-1.19-5.101-2.036-7.717-2.873-2.714-0.8678-5.43-1.729-8.118-2.673-2.433-0.8539-4.848-1.777-7.149-2.94-0.9714-0.4908-1.93-1.027-2.973-1.336-1.154-0.3421-2.372-0.3942-3.575-0.4343-1.459-0.0486-2.919-0.0828-4.377-0.167-3.596-0.2079-7.167-0.7198-10.76-1.002-2.201-0.1732-4.418-0.2613-6.582-0.7016-1.925-0.3917-3.782-1.057-5.613-1.771-1.709-0.666-3.449-1.407-4.744-2.706-1.246-1.251-1.974-2.911-2.907-4.41-0.7053-1.133-1.558-2.205-2.673-2.94-0.7059-0.4651-1.507-0.7854-2.339-0.9354"/>
		<path d="m128,266.2c0.6457-0.0191,1.292-0.0303,1.938-0.0334,1.337-0.006,2.677,0.0212,4.009-0.1002,0.4362-0.0398,0.8709-0.0955,1.303-0.167"/>
		<path d="m135.3,265.9c0.3204,0.4446,0.6547,0.8792,1.002,1.303,1.05,1.28,2.22,2.46,3.474,3.541,1.601,1.38,3.336,2.596,5.112,3.742,2.974,1.918,6.068,3.642,9.187,5.312,0.5226,0.2798,1.046,0.5583,1.57,0.8352"/>
		<path d="m128,266.2c-0.1235,0.3635-0.1468,0.7604-0.0668,1.136,0.0243,0.1138,0.0578,0.2257,0.1002,0.3341"/>
		<path d="m128.1,267.7c0.4931,0.3602,0.9724,0.7392,1.437,1.136,0.7488,0.64,1.458,1.326,2.138,2.038,0.9117,0.9542,1.773,1.957,2.572,3.007,0.3223,0.4235,0.6362,0.8576,0.8686,1.336,0.1945,0.4006,0.33,0.8298,0.4009,1.27"/>
		<path d="m135.5,276.5c0.5389,0.1564,1.065,0.3578,1.57,0.6013,0.8957,0.4315,1.74,0.9998,2.706,1.236,0.86,0.2105,1.763,0.1437,2.639,0.2672,1.169,0.1648,2.294,0.6677,3.474,0.6348,0.9438-0.0263,1.864-0.3968,2.806-0.3341,0.6537,0.0435,1.273,0.293,1.904,0.4677,0.8106,0.2244,1.649,0.3269,2.472,0.5011,0.88,0.1864,1.742,0.4552,2.572,0.8018"/>
		<path d="m101.8,273.5c0.903-0.4888,1.844-0.9078,2.811-1.252,0.7437-0.2646,1.503-0.485,2.244-0.7559,0.6744-0.2464,1.333-0.5342,2.008-0.7796,0.412-0.1498,0.8298-0.2838,1.252-0.4016"/>
		<path d="m101.8,273.5c0.0346,0.4243,0.0503,0.85,0.0472,1.276-0.005,0.6244-0.0498,1.249-0.1417,1.866-0.0212,0.1421-0.0448,0.2839-0.0709,0.4252"/>
		<path d="m101.7,277.1c0.4963,0.0196,0.9924,0.0432,1.488,0.0709,0.5988,0.0335,1.197,0.0728,1.795,0.1181"/>
		<path d="m104.9,277.3c0.2118-0.4228,0.4741-0.8202,0.7796-1.181,0.3724-0.4402,0.8113-0.8299,1.11-1.323,0.1665-0.2745,0.2855-0.5747,0.4016-0.8741,0.1021-0.2633,0.2028-0.5278,0.3307-0.7796,0.3138-0.6179,0.7826-1.143,1.276-1.63,0.4129-0.4078,0.8468-0.7943,1.299-1.158"/>
		<path d="m117.7,278.8c-0.0612,0.6146-0.2584,1.215-0.5734,1.747-0.4112,0.6935-1.009,1.254-1.606,1.795-0.9174,0.8312-1.854,1.641-2.764,2.48-1.059,0.976-2.111,2.01-3.425,2.599-1.515,0.6778-3.231,0.6984-4.89,0.6851-1.546-0.0124-3.108-0.0463-4.607-0.4252-1.855-0.4689-3.559-1.462-4.961-2.764-0.982-0.9122-1.819-1.972-2.551-3.095-1.1-1.686-1.981-3.556-2.244-5.552-0.2701-2.049,0.1257-4.145,0.8741-6.071,0.6948-1.788,1.733-3.501,3.284-4.63,1.07-0.7788,2.332-1.245,3.591-1.654,1.045-0.3397,2.101-0.647,3.166-0.9213"/>
		<path d="m101,263c-0.5343-0.0907-1.058-0.2416-1.559-0.4488-0.5356-0.2217-1.044-0.5079-1.512-0.8504"/>
		<path d="m97.92,261.7c-0.4214,0.2202-0.8467,0.4329-1.276,0.6378-0.8615,0.4116-1.738,0.7922-2.599,1.205-0.8607,0.4124-1.706,0.8568-2.575,1.252-1.603,0.7292-3.301,1.293-5.055,1.441-1.347,0.1135-2.725-0.0244-3.992-0.4961-1.212-0.4511-2.338-1.238-2.977-2.362-0.5111-0.8994-0.682-1.983-0.4961-3,0.2473-1.353,1.084-2.525,2.008-3.544,0.8034-0.8855,1.708-1.707,2.788-2.221,0.6325-0.3011,1.334-0.4932,2.032-0.4252,0.6396,0.0624,1.238,0.3378,1.866,0.4725,0.3256,0.0698,0.6593,0.1016,0.9922,0.0945"/>
		<path d="m88.64,254.7c-0.5035-0.1966-0.9456-0.547-1.252-0.9922-0.2729-0.3965-0.4378-0.8665-0.4725-1.347"/>
		<path d="m86.91,252.4c-0.6949-0.087-1.383-0.2293-2.055-0.4252-0.8135-0.237-1.605-0.5525-2.433-0.7323-0.3583-0.0778-0.7218-0.1298-1.087-0.1654-0.6495-0.0633-1.321-0.0721-1.937,0.1417-0.4341,0.1505-0.8234,0.4052-1.205,0.6615-0.2848,0.1913-0.5703,0.3861-0.8858,0.5207s-0.6674,0.2066-1.004,0.1407c-0.3859-0.0755-0.7136-0.3212-1.023-0.5641-0.3092-0.2429-0.6277-0.4966-1.009-0.5934-0.3302-0.0839-0.6777-0.0419-1.016,0-0.8743,0.1084-1.749,0.2133-2.622,0.3307-2.025,0.2725-4.042,0.6126-6.071,0.8504-2.507,0.2939-5.068,0.4391-7.441,1.299-0.8057,0.292-1.581,0.6636-2.339,1.063-1.757,0.9254-3.43,2.002-5.055,3.142-1.067,0.7475-2.117,1.525-3.26,2.15-1.117,0.6114-2.31,1.071-3.496,1.536-0.9927,0.3892-1.984,0.784-2.953,1.228-0.9838,0.4512-1.96,0.9584-3.024,1.158-0.2105,0.0394-0.428,0.0663-0.6378,0.0236-0.2622-0.0534-0.4999-0.2196-0.6378-0.4488-0.1262-0.2097-0.1675-0.4628-0.1509-0.707,0.01662-0.2442,0.08807-0.4815,0.1745-0.7104,0.2791-0.7395,0.716-1.41,1.205-2.032,1.161-1.476,2.616-2.689,3.945-4.016,1.609-1.606,3.039-3.386,4.677-4.961,1.422-1.367,2.991-2.571,4.512-3.827,0.9102-0.7517,1.814-1.529,2.858-2.079,0.7448-0.3916,1.549-0.6599,2.362-0.8741,0.9612-0.253,1.941-0.4329,2.929-0.5433,1.531-0.1713,3.103-0.1808,4.559-0.6851,0.7838-0.2715,1.514-0.6804,2.291-0.9686,0.7477-0.277,1.532-0.4397,2.315-0.5906,0.3974-0.0766,0.8112-0.1573,1.134-0.4016,0.2509-0.19,0.4262-0.4665,0.5396-0.7601s0.169-0.606,0.2163-0.9172c0.08711-0.5724,0.1474-1.165,0-1.725-0.1944-0.7384-0.723-1.333-1.158-1.961-0.9903-1.431-1.532-3.13-1.843-4.843-0.2458-1.354-0.3554-2.735-0.3071-4.11,0.04054-1.155,0.1948-2.316,0.5906-3.402,0.4462-1.224,1.184-2.315,1.866-3.425,0.1759-0.2863,0.3491-0.5754,0.5564-0.8399s0.4511-0.5054,0.7429-0.672c0.304-0.1737,0.6491-0.261,0.9922-0.3307,0.5284-0.1074,1.068-0.1778,1.606-0.1417,0.622,0.0417,1.248,0.2356,1.725,0.6378,0.5675,0.4794,0.8667,1.197,1.134,1.89,0.4236,1.098,0.8182,2.209,1.299,3.284,0.5828,1.302,1.294,2.554,1.701,3.922,0.1575,0.5291,0.2679,1.071,0.4016,1.606,0.09907,0.3967,0.211,0.7902,0.3307,1.181,0.2772,0.9051,0.6072,1.817,1.205,2.551,0.3682,0.4523,0.8345,0.8326,1.11,1.347,0.1736,0.3234,0.2628,0.684,0.3544,1.039,0.1058,0.4106,0.218,0.8226,0.4016,1.205,0.1043,0.2171,0.2312,0.4233,0.378,0.6142"/>
		<path d="m82.38,237.5c0.3227-0.2676,0.6095-0.5783,0.8504-0.9213,0.3468-0.4938,0.5992-1.054,0.9922-1.512,0.2308-0.2689,0.5119-0.5055,0.6615-0.8268,0.101-0.2171,0.1349-0.4597,0.1431-0.6991,0.0082-0.2393-0.008-0.479-0.0013-0.7184,0.02252-0.8042,0.3038-1.583,0.6851-2.291,0.8538-1.587,2.194-2.854,3.591-3.992,1.176-0.9582,2.429-1.857,3.851-2.386,1.188-0.4417,2.466-0.6125,3.733-0.5906,1.488,0.0257,2.984,0.3193,4.323,0.9686,1.28,0.6205,2.4,1.56,3.26,2.693,0.8953,1.179,1.504,2.547,2.055,3.922,0.4952,1.235,0.9508,2.489,1.276,3.78,0.2642,1.049,0.4418,2.136,0.3307,3.213-0.1227,1.188-0.5916,2.314-1.134,3.378-0.5279,1.036-1.13,2.033-1.654,3.071-0.259,0.5133-0.5001,1.039-0.8268,1.512-0.2988,0.4326-0.6672,0.817-1.087,1.134"/>
		<path d="m95.6,234.8c0.2674,0.2923,0.5602,0.5614,0.8741,0.8032,0.2476,0.1908,0.5083,0.3645,0.7796,0.5197"/>
		<path d="m97.26,236.1c-0.1982,0.1254-0.3511,0.3208-0.4252,0.5433-0.06013,0.1805-0.06897,0.3743-0.06084,0.5644,0.0081,0.1901,0.03266,0.3793,0.03721,0.5696,0.01311,0.5487-0.1396,1.086-0.2126,1.63-0.1205,0.8986-0.0228,1.813-0.0945,2.717-0.02253,0.284-0.06161,0.5717-0.0096,0.8517,0.02599,0.14,0.07531,0.277,0.1558,0.3946,0.08044,0.1175,0.1932,0.2149,0.3263,0.2656,0.1889,0.0719,0.4011,0.0456,0.5964-0.007,0.1953-0.0523,0.3847-0.1295,0.5848-0.1587,0.2312-0.0337,0.4717-0.00053,0.6851,0.0945"/>
		<path d="m95.6,234.8c-0.2177,0.2163-0.3814,0.4865-0.4725,0.7796-0.1296,0.417-0.111,0.8645-0.07087,1.299,0.02458,0.2664,0.0568,0.5327,0.05472,0.8002-0.0021,0.2675-0.03978,0.5385-0.1492,0.7826-0.1056,0.2356-0.2736,0.4372-0.4016,0.6615-0.171,0.2996-0.2697,0.652-0.2126,0.9922,0.02477,0.1477,0.0788,0.291,0.1629,0.4149,0.08414,0.1238,0.1988,0.2278,0.3331,0.2938,0.1101,0.0541,0.2308,0.0822,0.349,0.1151s0.2372,0.0722,0.3361,0.1448c0.1232,0.0904,0.2067,0.2277,0.2526,0.3735,0.04583,0.1458,0.05642,0.3005,0.05453,0.4533-0.007,0.564-0.1784,1.114-0.2126,1.677-0.03698,0.6088,0.08707,1.214,0.1654,1.819,0.02666,0.206,0.04913,0.4166,0.1352,0.6056,0.04303,0.0945,0.1021,0.1826,0.1793,0.252,0.07725,0.0694,0.1733,0.1194,0.2761,0.1345,0.08443,0.0124,0.1715,0.00098,0.252-0.0274,0.08049-0.0283,0.1546-0.0733,0.2207-0.1272,0.1323-0.1078,0.2321-0.2494,0.3305-0.3888,0.5395-0.7644,1.091-1.52,1.654-2.268"/>
		<path d="m103.4,247.2c0.29,0.3414,0.5827,0.6805,0.8782,1.017,0.2249,0.2563,0.4536,0.5132,0.7281,0.7156s0.6014,0.3486,0.9424,0.3535c0.3253,0.005,0.644-0.1181,0.9688-0.1002,0.2416,0.0133,0.473,0.1042,0.6854,0.22,0.2125,0.1158,0.41,0.2568,0.6175,0.3813,0.5768,0.3461,1.224,0.5609,1.804,0.902,0.7636,0.4492,1.397,1.118,1.804,1.904"/>
		<path d="m111.9,252.6c0.1367-0.4084,0.0731-0.8787-0.167-1.236-0.1632-0.2429-0.3981-0.4299-0.568-0.6682-0.202-0.2832-0.304-0.6307-0.3213-0.9782-0.0173-0.3474,0.0469-0.6955,0.1543-1.026,0.0633-0.1949,0.1415-0.385,0.2339-0.568"/>
		<path d="m111.2,248.1c0.2901,0.0974,0.612,0.0974,0.902,0,0.3897-0.1309,0.701-0.4219,1.002-0.7016,0.4647-0.4314,0.9495-0.8634,1.537-1.102,0.4939-0.2011,1.037-0.255,1.57-0.2339,0.7473,0.0296,1.511,0.214,2.105,0.6682,0.5817,0.4447,0.951,1.103,1.37,1.704,0.4599,0.6597,0.9944,1.266,1.437,1.938,0.2226,0.3382,0.4209,0.6918,0.6348,1.036,0.1741,0.2799,0.3602,0.557,0.4677,0.8686,0.1696,0.4913,0.1301,1.034,0,1.537-0.1028,0.3977-0.2607,0.7811-0.4677,1.136"/>
		<path d="m121.7,255c0.2638-0.2097,0.5432-0.3998,0.8352-0.568,0.2428-0.1398,0.4967-0.2655,0.7684-0.3341,0.5465-0.1379,1.123-0.0361,1.67,0.1002,0.5514,0.1374,1.097,0.3106,1.604,0.568,0.5657,0.2873,1.088,0.6811,1.704,0.8352,0.3985,0.0998,0.8169,0.0931,1.225,0.0434,0.4078-0.0497,0.8092-0.1414,1.214-0.2105,0.7842-0.1337,1.605-0.1895,2.305-0.5679,0.4514-0.2441,0.8262-0.6102,1.27-0.8686,0.8158-0.4756,1.796-0.5529,2.74-0.6014,1.213-0.0624,2.427-0.0958,3.642-0.1002"/>
		<path d="m137.3,253.2c-0.3906,0.0344-0.7906-0.0458-1.138-0.2282-0.3471-0.1824-0.6401-0.4663-0.8334-0.8074-0.1723-0.3041-0.2652-0.6527-0.2673-1.002"/>
		<path d="m135,251.2c-0.6219,0.0575-1.249,0.0575-1.871,0-0.7072-0.0654-1.411-0.2062-2.071-0.4677-1.078-0.4272-2.008-1.162-2.84-1.971-0.7679-0.7468-1.466-1.564-2.238-2.305-0.6231-0.598-1.294-1.146-2.005-1.637"/>
		<path d="m124,244.8c-0.0404,0.3879-0.1305,0.7706-0.2673,1.136-0.2083,0.5561-0.5218,1.066-0.8352,1.57-0.5837,0.9395-1.174,1.875-1.771,2.806"/>
		<path d="m111.2,248.1c-0.0104-0.424,0.0119-0.8489,0.0668-1.27,0.1126-0.8633,0.3609-1.702,0.6014-2.539,0.1594-0.5547,0.32-1.12,0.6348-1.604,0.1724-0.265,0.3909-0.5056,0.5011-0.8018,0.0881-0.2368,0.1012-0.4944,0.1015-0.7471,0.00034-0.2527-0.0109-0.5073,0.0321-0.7563,0.0418-0.2417,0.1341-0.4742,0.1553-0.7186,0.0106-0.1222,0.003-0.2475-0.0374-0.3634-0.0402-0.1159-0.1145-0.2221-0.2181-0.2877-0.0776-0.0492-0.1684-0.0741-0.2595-0.0862-0.0911-0.012-0.1832-0.0117-0.2751-0.0141-0.7294-0.0188-1.452-0.2096-2.105-0.5345-0.8864-0.441-1.647-1.131-2.172-1.971"/>
		<path d="m104.3,226.7c-0.3928-1.193-0.5856-2.452-0.568-3.708,0.0207-1.475,0.3293-2.935,0.7684-4.343,0.5238-1.68,1.238-3.307,2.205-4.777,0.7701-1.171,1.703-2.243,2.806-3.107,0.9619-0.753,2.051-1.344,3.207-1.737,1.493-0.507,3.075-0.68,4.644-0.8352,1.213-0.12,2.427-0.2314,3.642-0.3341"/>
		<path d="m121,207.9c0.3121-0.8594,0.6577-1.707,1.036-2.539,0.5666-1.248,1.206-2.462,1.904-3.642,0.6426-1.085,1.336-2.141,2.105-3.14,0.3521-0.4578,0.7199-0.9036,1.102-1.336"/>
	</g>
</svg>
