<svg width="285mm" xmlns="http://www.w3.org/2000/svg" viewBox="0 0 285 375" version="1.1" height="375mm">
	<g stroke="#000" stroke-width="0.25px" fill-opacity="0.01">
		<path d="m95.62,50.47c0.2977,0.05151,0.5784,0.1971,0.792,0.4107s0.3592,0.4943,0.4107,0.792c0.05563,0.3215,0.0035,0.6512-0.06136,0.971-0.06486,0.3197-0.1429,0.6405-0.1391,0.9667,0.007,0.5992,0.288,1.16,0.6014,1.67,0.5759,0.9389,1.286,1.802,1.737,2.806,0.8344,1.856,0.7028,3.985,0.5345,6.014-0.2195,2.645-0.4756,5.297-1.069,7.884-0.06559,0.286-0.1354,0.5717-0.1708,0.863-0.03537,0.2912-0.03552,0.59,0.03714,0.8743,0.0965,0.3775,0.3154,0.7105,0.4677,1.069,0.4146,0.976,0.3183,2.08,0.3341,3.14,0.02856,1.922,0.449,3.824,0.4677,5.746,0.01738,1.786-0.3131,3.561-0.8018,5.279-0.2132,0.7494-0.458,1.496-0.5345,2.272-0.1058,1.071,0.1133,2.143,0.2673,3.207,0.2143,1.481,0.3038,2.981,0.2673,4.477"/>
		<path d="m98.76,98.91c1.055-0.2112,2.152-0.2112,3.207,0,0.5339,0.1069,1.057,0.267,1.594,0.3543,0.5374,0.08733,1.101,0.09864,1.613-0.08706,0.6478-0.235,1.144-0.7564,1.604-1.27,1.163-1.297,2.266-2.666,3.074-4.209,0.5865-1.122,1.012-2.327,1.67-3.408,0.3643-0.5978,0.8103-1.165,1.403-1.537,0.2702-0.1696,0.5715-0.2972,0.8884-0.3338,0.3169-0.03661,0.6504,0.023,0.9157,0.2002,0.2971,0.1984,0.4875,0.5285,0.5805,0.8734,0.0929,0.345,0.0974,0.7071,0.0877,1.064-0.0597,2.193-0.6317,4.355-0.6014,6.548,0.0159,1.149,0.1975,2.291,0.4677,3.408,0.2376,0.982,0.544,1.948,0.735,2.94,0.208,1.08,0.2774,2.181,0.4009,3.274,0.1041,0.9212,0.2471,1.839,0.4677,2.74,0.2083,0.8501,0.4855,1.683,0.6682,2.539,0.2805,1.314,0.3349,2.666,0.3341,4.009-0.00021,0.3444-0.004,0.6915-0.0755,1.028-0.0712,0.337-0.2146,0.6668-0.4591,0.9093-0.1636,0.1623-0.3682,0.2808-0.5867,0.3541s-0.4506,0.1022-0.681,0.0974c-0.4608-0.01-0.9085-0.1511-1.338-0.3179-1.414-0.5487-2.698-1.377-4.009-2.138-1.929-1.12-4.001-2.162-5.345-3.942-0.3082-0.4082-0.5734-0.8503-0.9162-1.23-0.3428-0.3796-0.7826-0.701-1.289-0.7746-0.1512-0.022-0.3065-0.0213-0.456,0.0103s-0.2932,0.0948-0.4126,0.1901c-0.131,0.1046-0.2301,0.2455-0.3,0.3979-0.0699,0.1523-0.1117,0.3162-0.1406,0.4813-0.0577,0.3302-0.0655,0.6703-0.1608,0.9917-0.1551,0.523-0.5262,0.9495-0.8832,1.362-0.3569,0.4125-0.7203,0.8487-0.8541,1.378-0.07397,0.2925-0.07313,0.5984-0.06219,0.8999,0.01093,0.3015,0.03145,0.6046-0.0046,0.9042-0.08306,0.6898-0.4565,1.305-0.8168,1.899-0.3602,0.594-0.7249,1.217-0.7868,1.909-0.04103,0.4585,0.05732,0.9267,0.2673,1.336,0.2211,0.4313,0.5588,0.7928,0.9259,1.109,0.3671,0.3164,0.7666,0.593,1.145,0.8953,1.394,1.112,2.497,2.564,3.942,3.608,1.276,0.9221,2.805,1.519,3.875,2.673,0.8316,0.8967,1.312,2.053,1.871,3.14,0.2017,0.3926,0.4178,0.7857,0.5101,1.217,0.0462,0.2158,0.0602,0.44,0.024,0.6577s-0.1242,0.4288-0.2669,0.5972c-0.1733,0.2046-0.4194,0.3378-0.6762,0.4148-0.2569,0.077-0.5262,0.1019-0.7938,0.1197-1.763,0.1178-3.535-0.0488-5.279-0.3341-2.043-0.3342-4.078-0.8329-6.147-0.8018-1.8,0.0271-3.567,0.4547-5.345,0.735-3.188,0.5025-6.439,0.5333-9.622,1.069-1.684,0.2835-3.388,0.7093-5.078,0.4677-0.3873-0.0553-0.7754-0.1478-1.117-0.3391-0.3413-0.1913-0.634-0.4912-0.7542-0.8636-0.1144-0.3543-0.06466-0.7452,0.06485-1.094,0.1295-0.3491,0.3342-0.6644,0.5365-0.977,0.2428-0.3752,0.4853-0.7524,0.7748-1.093,0.2895-0.3405,0.6294-0.6453,1.029-0.8448,0.6377-0.3181,1.414-0.3432,2.071-0.0668"/>
		<path d="m80.25,132.1c0.6775-1.038,1.438-2.022,2.272-2.94,1.131-1.245,2.415-2.392,3.207-3.875,0.5174-0.9691,0.804-2.05,0.9354-3.14,0.203-1.685,0.04403-3.39-0.1336-5.078-0.1136-1.079-0.236-2.164-0.5345-3.207-0.278-0.9715-0.708-1.899-1.27-2.74"/>
		<path d="m84.72,111.1c-4.613-0.0124-9.227,0.1213-13.83,0.4009-0.359,0.0218-0.7205,0.0449-1.069,0.1336-0.5282,0.1345-1.007,0.4145-1.465,0.7094-0.4584,0.2949-0.9082,0.6101-1.408,0.8274-0.827,0.3596-1.752,0.4334-2.653,0.3926-0.9009-0.0408-1.793-0.1907-2.693-0.259-0.9279-0.0704-1.861-0.0538-2.788-0.1293-0.9275-0.0756-1.862-0.2485-2.691-0.6725-0.6261-0.3204-1.181-0.7823-1.6-1.347-0.4195-0.5645-0.7023-1.232-0.8053-1.927-0.1484-1.002,0.07711-2.033,0.4844-2.96,0.4073-0.9278,0.99-1.767,1.587-2.585,2.24-3.073,4.729-5.954,7.149-8.887,3.465-4.199,6.793-8.513,10.36-12.63,2.133-2.463,4.352-4.858,6.281-7.484,0.9583-1.305,1.842-2.662,2.74-4.009,1.639-2.459,3.33-4.89,4.744-7.484,1.172-2.15,2.152-4.408,2.873-6.749,0.275-0.8919,0.5181-1.808,1.002-2.606,0.4524-0.7455,1.099-1.357,1.804-1.871,0.8731-0.636,1.847-1.134,2.873-1.47"/>
		<path d="m72.63,99.51c1.045-0.7152,2.01-1.546,2.873-2.472,1.675-1.798,2.943-3.927,4.343-5.947,1.313-1.893,2.749-3.698,4.209-5.479,0.7722-0.9415,1.552-1.877,2.339-2.806"/>
		<path d="m86.39,82.81c0.03151,1.715,0.03151,3.43,0,5.145-0.05328,2.9-0.1967,5.799-0.4677,8.686-0.05591,0.5957-0.1222,1.208-0.4009,1.737-0.2531,0.4807-0.6698,0.863-1.142,1.132-0.472,0.269-0.9985,0.4304-1.531,0.5385-1.008,0.2048-2.049,0.2243-3.074,0.1336-1.569-0.1388-3.108-0.5323-4.677-0.6682-0.822-0.07114-1.65-0.07114-2.472-0.000003"/>
		<path d="m192.5,155.8c0.0832-0.2406,0.2523-0.4504,0.4696-0.583s0.481-0.1872,0.7331-0.152c0.3369,0.047,0.6472,0.2575,0.8148,0.5536,0.1676,0.296,0.1883,0.6708,0.0538,0.9832-0.1109,0.2577-0.3238,0.4697-0.5817,0.5801s-0.5581,0.118-0.8214,0.0212c-0.2694-0.0989-0.4973-0.3062-0.6208-0.5652s-0.1411-0.5668-0.0474-0.838z"/>
		<path d="m185,150.3c1.35-1.696,3.064-3.142,5.078-3.942,1.229-0.4883,2.553-0.7291,3.875-0.735,1.969-0.009,3.928,0.5034,5.679,1.403,1.763,0.9056,3.345,2.23,4.343,3.942,0.9462,1.622,1.334,3.536,1.27,5.412-0.0772,2.235-0.7826,4.433-1.938,6.348-1.198,1.985-2.91,3.697-5.011,4.677-2.294,1.07-4.979,1.217-7.417,0.5345-3.074-0.8603-5.754-3.043-7.216-5.88-1.273-2.47-1.614-5.448-0.735-8.085,0.4471-1.341,1.191-2.569,2.071-3.675z"/>
		<path d="m88.67,168.7c-0.1352-0.46-0.1135-0.9754,0.1146-1.397,0.114-0.2109,0.278-0.3956,0.4783-0.5272s0.437-0.2092,0.6767-0.2138c0.271-0.005,0.5397,0.0827,0.7681,0.2286s0.4178,0.3479,0.5683,0.5733c0.2721,0.4075,0.4207,0.9086,0.3519,1.394-0.03439,0.2426-0.1227,0.4782-0.2631,0.6791-0.1403,0.2008-0.3331,0.3659-0.5566,0.4663-0.2113,0.0949-0.4478,0.1311-0.6785,0.11s-0.4553-0.0988-0.6532-0.2193c-0.3958-0.2409-0.6758-0.6489-0.8064-1.093z"/>
		<path d="m84.32,157.7c1.675-0.8531,3.604-1.141,5.479-1.002,1.227,0.0905,2.437,0.3573,3.608,0.735,1.843,0.5944,3.611,1.476,5.078,2.74,1.511,1.301,2.689,3.019,3.207,4.944,0.5656,2.101,0.3284,4.365-0.4009,6.414-0.9116,2.562-2.639,4.886-5.011,6.214-1.485,0.8312-3.183,1.255-4.884,1.306-1.701,0.0511-3.403-0.2642-5.005-0.8384-1.625-0.5827-3.162-1.438-4.451-2.588-1.288-1.15-2.322-2.6-2.899-4.227-0.8578-2.42-0.6655-5.133,0.2005-7.55,0.9181-2.563,2.652-4.912,5.078-6.147z"/>
		<path d="m178.8,278.7c-0.6349-4.18-0.3755-8.494,0.756-12.57,0.9649-3.474,2.546-6.746,4.252-9.922,1.487-2.767,3.078-5.483,4.914-8.032,3.61-5.013,8.147-9.339,13.23-12.85,3.781-2.613,7.864-4.784,11.53-7.56,0.4078-0.309,0.8262-0.6332,1.323-0.756,0.3298-0.0815,0.6838-0.0675,1.003,0.0475,0.3197,0.115,0.6033,0.3314,0.7919,0.614,0.1997,0.2992,0.2893,0.6635,0.2918,1.023,0.002,0.3597-0.0785,0.7161-0.1973,1.056-0.2953,0.8438-0.8208,1.59-1.415,2.258-0.5943,0.6678-1.261,1.267-1.892,1.9-2.071,2.078-3.745,4.51-5.575,6.804-2.411,3.022-5.12,5.838-7.087,9.166-1.789,3.026-2.913,6.388-4.252,9.638-1.145,2.78-2.467,5.534-2.929,8.504-0.2039,1.311-0.2358,2.649-0.0945,3.969"/>
		<path d="m193.4,272c1.428-1.099,2.947-2.08,4.536-2.929,2.777-1.486,5.751-2.563,8.693-3.685,2.865-1.093,5.748-2.243,8.788-2.646,1.314-0.1741,2.648-0.2058,3.969-0.0945"/>
		<path d="m219.4,262.6c-0.6772,1.133-1.403,2.236-2.173,3.307-1.62,2.251-3.458,4.373-5.67,6.048-1.888,1.43-4.017,2.511-5.953,3.874-1.336,0.941-2.576,2.013-3.78,3.118-0.9647,0.8857-1.912,1.799-2.709,2.839-0.7962,1.04-1.44,2.216-1.733,3.492-0.2332,1.019-0.2377,2.074-0.2835,3.118-0.0695,1.585-0.2473,3.205-0.9449,4.63-0.3895,0.7956-0.9294,1.506-1.443,2.227-0.514,0.7214-1.011,1.47-1.297,2.308-0.3704,1.085-0.368,2.256-0.378,3.402-0.0238,2.744-0.1654,5.59-1.417,8.032-0.5663,1.105-1.358,2.105-2.362,2.835-0.8978,0.653-1.958,1.082-3.058,1.232-1.1,0.1496-2.238,0.019-3.273-0.3812-1.923-0.7431-3.446-2.447-3.969-4.441"/>
		<path d="m179,308.3c-0.5752,0.4606-1.213,0.8431-1.89,1.134-1.127,0.4841-2.369,0.711-3.592,0.6108-1.222-0.1003-2.422-0.5327-3.401-1.272-1.078-0.8149-1.853-1.961-2.551-3.118-0.4892-0.8102-0.9552-1.645-1.228-2.551-0.4305-1.428-0.3609-2.952-0.2835-4.441,0.1833-3.525,0.3884-7.055,0.2835-10.58-0.0945-3.176-0.4414-6.349-1.134-9.449-0.4864-2.178-1.143-4.319-1.512-6.52-0.6473-3.86-0.3968-7.805-0.2835-11.72,0.1351-4.663,0.0727-9.337,0.4725-13.99,0.4012-4.665,1.267-9.303,1.228-13.99-0.0173-2.078-0.2132-4.15-0.2351-6.228s0.1356-4.183,0.802-6.151c0.648-1.913,1.76-3.647,2.362-5.575,0.5245-1.678,0.647-3.451,0.8504-5.197,0.2004-1.72,0.4832-3.434,0.9449-5.103,0.6494-2.347,1.655-4.6,3.024-6.615,1.22-1.795,2.725-3.396,4.441-4.725"/>
		<path d="m178.8,278.7c-0.0181-2.943-0.2712-5.885-0.756-8.788-0.2129-1.275-0.4709-2.544-0.8504-3.78-0.306-0.9959-0.6935-1.984-0.756-3.024-0.0322-0.5363,0.0234-1.074,0.0945-1.606,0.1811-1.356,0.464-2.699,0.567-4.063,0.1766-2.338-0.1783-4.68-0.567-6.993-0.5521-3.285-1.177-6.599-0.9449-9.922,0.2983-4.269,2.003-8.383,1.984-12.66-0.009-2.07-0.429-4.138-1.228-6.048"/>
		<path d="m176.3,221.8c1.238-1.079,2.062-2.623,2.268-4.252,0.1507-1.19-0.0161-2.409,0.189-3.591,0.1695-0.977,0.5868-1.892,1.032-2.778,0.4455-0.8859,0.9256-1.761,1.236-2.703,0.4735-1.439,0.5334-2.983,0.9449-4.441,0.4061-1.438,1.158-2.778,2.173-3.874"/>
		<path d="m184.2,200.2c0.9614,1.615,1.938,3.222,2.929,4.819,1.147,1.848,2.324,3.705,3.024,5.764,0.6912,2.034,0.8926,4.196,1.134,6.331,0.2378,2.104,0.5193,4.219,0.378,6.331-0.0277,0.4148-0.0718,0.8294-0.0628,1.245s0.0733,0.8364,0.2518,1.212c0.1817,0.3822,0.482,0.7083,0.8522,0.9134,0.3701,0.2051,0.8088,0.2869,1.227,0.2205,0.4493-0.0713,0.8621-0.3088,1.19-0.6241,0.328-0.3153,0.5761-0.7056,0.7751-1.115,0.398-0.8182,0.6104-1.722,1.059-2.513,0.3327-0.5877,0.7855-1.097,1.228-1.606,1.18-1.358,2.33-2.782,3.024-4.441,0.4764-1.139,0.7256-2.363,0.8504-3.591,0.1276-1.256,0.1276-2.524,0-3.78"/>
		<path d="m202,209.4c1.24,0.3002,2.428,0.814,3.496,1.512,1.498,0.9787,2.736,2.297,4.063,3.496,2.527,2.282,5.396,4.146,8.221,6.048,2.844,1.914,5.66,3.879,8.315,6.048,3.609,2.947,6.992,6.317,11.24,8.221,1.708,0.7648,3.53,1.276,5.386,1.512"/>
		<path d="m242.8,236.2c0.3069-1.688,0.2419-3.442-0.189-5.103-0.5385-2.075-1.63-3.974-2.173-6.048-0.5106-1.949-0.5361-4.046-1.417-5.859-0.933-1.919-2.702-3.271-4.063-4.914-0.7882-0.9514-1.452-2.026-1.795-3.213-0.2852-0.9857-0.3431-2.022-0.567-3.024-0.5748-2.571-2.202-4.767-3.874-6.804-1.902-2.316-3.932-4.561-5.386-7.182-0.2736-0.4928-0.5259-0.9974-0.756-1.512"/>
		<path d="m222.5,192.5c1.934-0.4447,3.832-1.046,5.67-1.795,1.312-0.5352,2.599-1.148,3.969-1.512,1.536-0.4079,3.137-0.492,4.725-0.567,1.265-0.0598,2.584-0.1301,3.685-0.756,0.5734-0.326,1.069-0.802,1.372-1.388,0.3035-0.5857,0.4057-1.283,0.2341-1.92-0.1826-0.6776-0.6566-1.246-1.21-1.677-0.5538-0.431-1.19-0.7414-1.813-1.063-1.768-0.9113-3.475-1.935-5.197-2.929-3.433-1.982-6.946-3.86-10.68-5.197-3.665-1.314-7.5-2.092-11.34-2.74-2.468-0.4168-4.965-0.7828-7.465-0.6615-3.071,0.149-6.15,1.071-8.599,2.929-0.7647,0.5804-1.464,1.247-2.079,1.984"/>
		<path d="m203.3,180.9c1.696-0.1589,3.399-0.2534,5.103-0.2835,3.604-0.0635,7.217,0.1627,10.77,0.756,2.3,0.3838,4.575,0.9208,6.804,1.606"/>
		<path d="m203.3,180.9c2.172,1.136,4.346,2.27,6.52,3.402,1.574,0.8198,3.149,1.639,4.725,2.457"/>
		<path d="m214.5,186.8c1.399-0.7634,2.853-1.427,4.347-1.984,2.288-0.8536,4.669-1.457,7.087-1.795"/>
		<path d="m197.9,186.6c2.067,1.871,4.146,3.73,6.237,5.575,2.29,2.021,4.597,4.031,6.709,6.237,2.06,2.151,3.927,4.482,5.67,6.898,0.8483,1.176,1.668,2.374,2.457,3.591"/>
		<path d="m197.9,186.6c0.2924,1.098,0.1546,2.304-0.378,3.307-0.6584,1.24-1.92,2.142-3.307,2.362"/>
		<path d="m194.2,192.2c0.628,0.7541,1.325,1.451,2.079,2.079,0.276,0.2298,0.5597,0.4505,0.8504,0.6615"/>
		<path d="m197.1,195c0.8488-0.5247,1.837-0.8213,2.835-0.8504,1.663-0.0486,3.261,0.6273,4.725,1.417,1.813,0.9786,3.527,2.158,5.008,3.591,1.498,1.449,2.74,3.136,3.969,4.819,1.057,1.447,2.135,2.923,3.591,3.969,0.5279,0.3793,1.1,0.6971,1.701,0.9449"/>
		<path d="m173.9,183.6c1.219-0.574,2.484-1.049,3.78-1.417,2.331-0.6634,4.759-0.9829,7.182-0.9449"/>
		<path d="m173.9,183.6c1.703,0.5516,3.57,0.5849,5.292,0.0945,0.6138-0.1748,1.207-0.4137,1.795-0.6615,1.312-0.5526,2.605-1.152,3.874-1.795"/>
		<path d="m193.8,175.2c-1.28,0.0435-2.568-0.1497-3.78-0.567-1.428-0.4919-2.736-1.286-4.158-1.795-2.681-0.9602-5.665-0.854-8.41-0.0945-2.371,0.656-4.588,1.777-6.709,3.024-2.404,1.414-4.707,2.999-6.898,4.725-1.199,0.9444-2.392,1.965-3.118,3.307-0.5163,0.9549-0.7716,2.036-0.8504,3.118-0.0689,0.9462-0.005,1.907,0.2498,2.821,0.2552,0.9138,0.7064,1.78,1.357,2.471,1.169,1.242,2.925,1.839,4.63,1.795,1.644-0.0418,3.269-0.6511,4.536-1.701"/>
		<path d="m170.7,192.3c1.54,0.1626,3.084,0.2886,4.63,0.378,0.6611,0.0382,1.323,0.0697,1.984,0.0945"/>
		<path d="m70.87,251c0.9109-0.9068,1.625-2.01,2.079-3.213,0.6107-1.618,0.7437-3.413,0.378-5.103"/>
		<path d="m73.33,242.7c1.722-1.168,3.259-2.609,4.536-4.252,2.455-3.159,3.894-6.966,5.386-10.68,0.78-1.94,1.596-3.891,2.835-5.575,0.2654-0.3607,0.5494-0.7078,0.8504-1.039"/>
		<path d="m86.93,221.2c0.6814-0.1498,1.382-0.2135,2.079-0.189,1.43,0.0502,2.875,0.4939,3.969,1.417,0.6922,0.5848,1.222,1.339,1.671,2.126,0.449,0.7871,0.8242,1.614,1.258,2.41,0.9268,1.699,2.119,3.251,2.929,5.008,0.439,0.9526,0.7614,1.958,1.239,2.891,0.478,0.9337,1.141,1.816,2.068,2.306,0.5659,0.2991,1.213,0.4392,1.852,0.4172,0.6398-0.0219,1.272-0.204,1.833-0.5118,1.237-0.6783,2.088-1.945,2.457-3.307,0.3767-1.39,0.2866-2.893-0.189-4.252-0.4623-1.322-1.276-2.514-1.606-3.874-0.218-0.8966-0.2171-1.832-0.378-2.74-0.1986-1.122-0.6406-2.186-1.134-3.213-0.6111-1.272-1.306-2.504-2.079-3.685"/>
		<path d="m102.9,216c0.6162-0.2272,1.117-0.7464,1.323-1.37,0.0998-0.3031,0.1323-0.6281,0.0945-0.9449"/>
		<path d="m104.3,213.7c0.7736,1.063,1.439,2.205,1.984,3.402,0.8785,1.929,1.437,3.987,1.937,6.048,0.7692,3.17,1.41,6.383,1.606,9.638,0.1483,2.459,0.0433,4.944,0.4725,7.371,0.2876,1.626,0.814,3.217,0.8977,4.866,0.0944,1.86-0.3779,3.695-0.7087,5.528-0.2593,1.437-0.433,2.889-0.5197,4.347"/>
		<path d="m110,254.9c-0.8892-0.0762-1.793,0.0206-2.646,0.2835-1.715,0.5286-3.152,1.691-4.536,2.835-1.536,1.27-3.071,2.554-4.772,3.591-1.504,0.9166-3.129,1.634-4.819,2.126"/>
		<path d="m93.22,263.7c-1.097-0.8627-2.216-1.698-3.355-2.504-1.651-1.169-3.344-2.277-5.055-3.355-1.875-1.18-3.773-2.324-5.622-3.544-1.659-1.094-3.309-2.263-5.197-2.882-0.447-0.1466-0.9049-0.2613-1.37-0.3307-0.578-0.0862-1.166-0.1021-1.748-0.0472"/>
		<path d="m101.6,273.5c0.5856-1.285,1.282-2.519,2.079-3.685,0.5724-0.8374,1.196-1.639,1.795-2.457,0.7505-1.025,1.466-2.079,2.315-3.024,0.7178-0.7983,1.528-1.513,2.41-2.126"/>
		<path d="m110.2,262.2c0.2619,1.894,0.2619,3.823,0,5.717-0.1478,1.069-0.3784,2.125-0.6615,3.166-0.3049,1.121-0.6708,2.226-0.9449,3.355-0.4794,1.974-0.6746,4.019-0.567,6.048,0.0635,1.197,0.2317,2.389,0.2455,3.588s-0.1356,2.426-0.6707,3.499c-0.4528,0.9077-1.16,1.665-1.654,2.551-0.3672,0.66-0.6107,1.385-0.756,2.126-0.3462,1.767-0.1371,3.588-0.0472,5.386,0.084,1.68,0.0658,3.388,0.5197,5.008,0.3706,1.323,1.066,2.569,2.079,3.496,0.8223,0.7525,1.84,1.282,2.919,1.562,1.079,0.2802,2.217,0.3142,3.317,0.1387,1.009-0.1609,1.997-0.5005,2.851-1.062,0.8534-0.5618,1.567-1.353,1.969-2.292,0.6018-1.409,0.4665-3.009,0.3307-4.536-0.3815-4.289-0.6566-8.76,0.9449-12.76,0.8144-2.032,2.095-3.881,2.646-6,0.6166-2.372,0.2674-4.875,0.378-7.323,0.0857-1.899,0.4452-3.847-0.0945-5.67-0.2066-0.6979-0.5392-1.351-0.8032-2.029-0.2639-0.6783-0.4613-1.405-0.378-2.128,0.0968-0.8404,0.5606-1.59,1.051-2.279,0.4907-0.6891,1.028-1.365,1.311-2.162,0.2125-0.5988,0.2715-1.242,0.2638-1.878-0.008-0.6354-0.0799-1.268-0.1221-1.902-0.1304-1.959,0.0228-3.959-0.4725-5.859-0.4302-1.65-1.334-3.154-1.701-4.819-0.4439-2.015-0.0721-4.109,0.2835-6.142,0.5061-2.893,0.9754-5.886,0.2835-8.741-0.4298-1.773-1.293-3.419-1.701-5.197-0.3663-1.599-0.3546-3.265-0.7087-4.866-0.4667-2.111-1.548-4.027-2.315-6.048-0.4902-1.291-0.8527-2.627-1.181-3.969-0.1698-0.6935-0.3338-1.397-0.6615-2.032-0.3207-0.6208-0.7957-1.161-1.37-1.559"/>
		<path d="m114.8,206.6c-0.0319-0.2014-0.009-0.4112,0.0652-0.601,0.0743-0.1899,0.2-0.3594,0.36-0.4856,0.2107-0.1662,0.4711-0.2534,0.7087-0.378,0.2895-0.1518,0.5481-0.362,0.756-0.6142"/>
		<path d="m116.7,204.5c1.223-0.1456,2.463-0.1456,3.685,0,1.532,0.1825,3.04,0.5927,4.583,0.6142,0.7869,0.011,1.581-0.0817,2.323-0.344,0.7419-0.2624,1.431-0.7006,1.929-1.31,0.6961-0.8505,0.9784-1.974,1.039-3.071,0.0631-1.135-0.1082-2.326-0.756-3.26-0.4656-0.6712-1.144-1.164-1.842-1.589-0.6978-0.4247-1.431-0.7968-2.08-1.293-1.403-1.075-2.316-2.653-3.496-3.969-1.348-1.502-3.039-2.652-4.772-3.685-1.824-1.088-3.72-2.067-5.717-2.788-2.744-0.9905-5.715-1.484-8.599-1.039-2.451,0.378-4.743,1.411-7.087,2.221-1.189,0.4109-2.4,0.7665-3.638,0.9922-1.745,0.3182-3.548,0.3745-5.292,0.0472-1.416-0.2658-2.78-0.7806-4.205-0.9922-2.14-0.3178-4.322,0.0611-6.426,0.567-0.9137,0.2197-1.822,0.4635-2.74,0.6615-1.697,0.3658-3.43,0.5746-5.103,1.039-2.247,0.6244-4.342,1.698-6.378,2.835-1.703,0.9508-3.384,1.955-4.914,3.166-1.556,1.232-2.94,2.665-4.394,4.016-1.192,1.108-2.434,2.163-3.591,3.307-1.485,1.469-2.823,3.08-4.11,4.725-0.9724,1.243-1.943,2.532-3.26,3.402-0.3782,0.2499-0.7805,0.4618-1.156,0.715-0.376,0.2531-0.7305,0.5536-0.9696,0.9387-0.2282,0.3673-0.3415,0.7975-0.378,1.228-0.02919,0.3452-0.01039,0.6964,0.07916,1.031,0.08956,0.3347,0.2516,0.6526,0.4878,0.906,0.2805,0.301,0.6564,0.5018,1.05,0.6214,0.3937,0.1196,0.8067,0.162,1.218,0.1818,1.387,0.067,2.771-0.1162,4.158-0.189,1.543-0.0811,3.094-0.0256,4.63-0.189,1.025-0.109,2.086-0.3366,2.882-0.9922,0.4818-0.397,0.8384-0.9294,1.323-1.323,0.7992-0.6491,1.861-0.8578,2.882-0.9922,2.144-0.2822,4.319-0.3299,6.473-0.1418"/>
		<path d="m61.28,200.8c1.37-1.154,2.881-2.14,4.488-2.929,1.595-0.7829,3.326-1.379,5.103-1.37,1.344,0.007,2.708,0.3563,4.016,0.0472,0.8265-0.1953,1.569-0.6418,2.362-0.9449,2.096-0.801,4.456-0.5658,6.615,0.0472,1.322,0.3754,2.604,0.8869,3.827,1.512,1.833,0.9364,3.559,2.152,4.819,3.78,1.344,1.736,2.107,3.902,2.221,6.095,0.05924,1.14-0.0576,2.31-0.5197,3.355-0.1951,0.441-0.4502,0.8555-0.756,1.228"/>
		<path d="m93.45,211.6c-0.2856-0.4788-0.5234-0.986-0.7087-1.512-0.4596-1.304-0.5897-2.697-0.8032-4.063-0.2496-1.597-0.6244-3.196-1.37-4.63-0.7402-1.424-1.857-2.671-3.26-3.449-0.7583-0.4204-1.596-0.7018-2.457-0.8032-0.7656-0.0901-1.56-0.0348-2.274,0.256-0.7139,0.2908-1.341,0.8322-1.648,1.539-0.1946,0.4488-0.2558,0.9472-0.2354,1.436,0.02039,0.4888,0.1197,0.9708,0.2354,1.446,0.2289,0.9405,0.5243,1.871,0.6142,2.835,0.1293,1.386-0.1723,2.776-0.567,4.11-0.4665,1.578-1.065,3.113-1.701,4.63-0.8017,1.911-1.665,3.796-2.551,5.67-0.7622,1.611-1.542,3.215-2.41,4.772-0.8657,1.553-1.826,3.076-2.362,4.772-0.3025,0.9566-0.4804,1.988-1.087,2.788-0.3891,0.5131-0.9431,0.8992-1.559,1.087"/>
		<path d="m69.31,232.5c0.4233-0.7646,0.8021-1.554,1.134-2.362,0.4181-1.019,0.7611-2.066,1.087-3.118,0.6117-1.976,1.167-3.979,2.032-5.859,0.7512-1.632,1.73-3.156,2.41-4.819,0.6106-1.494,0.979-3.096,1.795-4.488,0.4775-0.8142,1.099-1.538,1.559-2.362,0.7956-1.423,1.077-3.096,0.9922-4.725-0.07684-1.481-0.4774-3.004-1.465-4.11-0.5717-0.6408-1.321-1.116-2.135-1.391-0.8134-0.2755-1.689-0.3543-2.543-0.2625-0.9851,0.1058-1.931,0.4322-2.882,0.7087-0.6505,0.189-1.31,0.3561-1.984,0.4252-1.196,0.1227-2.427-0.0633-3.591,0.2362-0.6274,0.1614-1.214,0.4593-1.843,0.6142-0.8573,0.2112-1.781,0.144-2.599-0.189"/>
		<path d="m100.3,193.9c1.355-0.2783,2.71-0.5618,4.063-0.8504,1.525-0.3253,3.105-0.6579,4.63-0.3307,0.6457,0.1385,1.263,0.393,1.843,0.7087,0.6463,0.3519,1.25,0.7811,1.795,1.276"/>
		<path d="m100.3,193.9c0.3471,0.4901,0.6481,1.013,0.8977,1.559,0.2633,0.5762,0.4694,1.179,0.6142,1.795"/>
		<path d="m101.8,197.3c0.6269-0.0738,1.259-0.1054,1.89-0.0945,0.6861,0.0119,1.378,0.0752,2.032,0.2835,0.4175,0.133,0.8163,0.3244,1.181,0.567"/>
		<path d="m106.9,198.1c0.6182,0.0652,1.256-0.0691,1.795-0.378,0.4578-0.2621,0.8364-0.6392,1.228-0.9922,0.8234-0.7414,1.728-1.392,2.693-1.937"/>
		<path d="m64.49,210.6c0.03913,1.114-0.05532,2.232-0.2807,3.323-0.2681,1.298-0.7187,2.55-1.136,3.809-0.7775,2.345-1.444,4.729-1.938,7.149-0.4766,2.335-0.7928,4.704-0.9354,7.083-0.1561,2.602-0.1047,5.213,0,7.818,0.1056,2.627,0.2654,5.258,0.1336,7.884-0.08493,1.693-0.291,3.385-0.2005,5.078,0.02391,0.4472,0.06852,0.8933,0.1336,1.336"/>
		<path d="m60.27,254.1c-0.4324,0.6824-0.8125,1.398-1.136,2.138-0.2146,0.4914-0.406,1.001-0.464,1.534-0.05799,0.533,0.0281,1.097,0.3303,1.54,0.2855,0.4184,0.7444,0.6986,1.232,0.837,0.4873,0.1384,1.003,0.1448,1.508,0.0985,1.75-0.1607,3.389-0.9371,4.878-1.871,0.5969-0.3743,1.177-0.7758,1.737-1.203"/>
		<path d="m68.35,257.1c1.642,1.506,3.336,2.955,5.078,4.343,2.367,1.887,4.825,3.664,7.083,5.679,1.827,1.631,3.522,3.419,4.944,5.412,0.7495,1.05,1.424,2.158,1.938,3.341,0.9794,2.256,1.352,4.773,1.069,7.216"/>
		<path d="m101.6,273.5c0.1436,1.485,0.2266,2.976,0.2486,4.468,0.0395,2.682-0.1185,5.369-0.5345,8.018-0.3138,1.998-0.7733,3.97-1.203,5.947-0.1836,0.8452-0.3618,1.692-0.5345,2.539"/>
		<path d="m99.56,294.5c0.7928,0.8948,1.409,1.945,1.804,3.074,0.5018,1.434,0.6416,2.966,0.8018,4.477,0.1867,1.761,0.4026,3.571-0.0668,5.279-0.4407,1.603-1.504,3.037-2.94,3.875-1.277,0.7458-2.805,1.01-4.276,0.8686-1.554-0.1492-3.105-0.7723-4.143-1.938-0.6514-0.7314-1.074-1.638-1.405-2.56-0.3307-0.9219-0.579-1.873-0.9341-2.785-0.6432-1.654-1.627-3.158-2.272-4.811-0.5393-1.382-0.8347-2.86-0.8686-4.343"/>
		<path d="m85.26,295.6c-1.039-0.4062-1.983-1.051-2.74-1.871-0.798-0.8648-1.378-1.908-2.138-2.806-1.106-1.308-2.554-2.271-3.942-3.274-0.6988-0.505-1.399-1.031-2.205-1.336-1.356-0.5133-2.877-0.354-4.276-0.735-1.425-0.3881-2.635-1.309-3.809-2.205-0.4656-0.3555-0.9338-0.7121-1.341-1.134-0.4069-0.4215-0.7532-0.9141-0.9311-1.472-0.2544-0.798-0.134-1.711,0.3341-2.405,0.4897-0.7266,1.333-1.185,2.205-1.27,0.6705-0.0651,1.346,0.0757,1.986,0.2862,0.6399,0.2104,1.255,0.4904,1.89,0.7161,1.57,0.5585,3.237,0.7777,4.878,1.069,1.256,0.2231,2.505,0.4902,3.742,0.8018,2.515,0.6334,4.98,1.45,7.417,2.339,0.7151,0.2609,1.428,0.5282,2.138,0.8018"/>
		<path d="m139.1,295c0.6088-0.3479,1.109-0.882,1.417-1.512,0.3407-0.697,0.4421-1.508,0.2835-2.268"/>
		<path d="m140.8,291.2c1.052-0.3006,2.127-0.5219,3.213-0.6615,0.628-0.0807,1.271-0.1335,1.89,0,0.6842,0.1476,1.33,0.5405,1.701,1.134,0.2616,0.4183,0.3785,0.9332,0.2835,1.417-0.0902,0.4596-0.3606,0.8659-0.6782,1.21-0.3177,0.3442-0.6856,0.6379-1.023,0.9632-0.2732,0.2636-0.5262,0.5482-0.756,0.8504"/>
		<path d="m139.1,295c0.7248,0.1241,1.449,0.2501,2.173,0.378,1.387,0.245,2.773,0.497,4.158,0.756"/>
		<path d="m140.8,253.5c1.462,0.0827,2.937-0.0777,4.347-0.4725,1.377-0.3855,2.69-0.9943,3.874-1.795"/>
		<path d="m139,281.5c1.962-0.3566,3.96-0.5151,5.953-0.4725,2.424,0.0519,4.842,0.4018,7.182,1.039"/>
		<path d="m149,251.2c0.0724,2.205,0.1354,4.409,0.189,6.615,0.0789,3.245,0.1374,6.49,0.2835,9.733,0.1342,2.978,0.3437,5.963,0.9449,8.882,0.3985,1.935,0.9684,3.835,1.701,5.67"/>
		<path d="m140.8,253.5c-0.0934,2.834-0.125,5.669-0.0945,8.504,0.0281,2.615,0.1088,5.231,0,7.843-0.0737,1.77-0.2345,3.536-0.4725,5.292-0.2931,2.162-0.7034,4.308-1.228,6.426"/>
		<path d="m139,242.7c-0.0469-0.2315-0.0222-0.477,0.0698-0.6946s0.2511-0.4062,0.4499-0.5338c0.1309-0.084,0.2772-0.1413,0.4252-0.189,0.9371-0.3017,1.946-0.2298,2.929-0.2835,1.54-0.0842,3.063-0.489,4.441-1.181"/>
		<path d="m139,242.7c0.8162,0.1858,1.635,0.3591,2.457,0.5197,1.517,0.2967,3.071,0.5595,4.441,1.276,0.622,0.3251,1.197,0.7402,1.701,1.228"/>
		<path d="m147.6,245.7c0.4214-0.2878,0.7059-0.7678,0.756-1.276,0.0503-0.5102-0.1232-1.012-0.2362-1.512-0.2049-0.9062-0.2084-1.88,0.1417-2.74,0.3407-0.8374,0.9923-1.521,1.323-2.362,0.2637-0.671,0.3089-1.406,0.3307-2.126,0.0434-1.433,0.006-2.867-0.0472-4.299-0.1205-3.217-0.3254-6.432-0.6142-9.638"/>
		<path d="m149.3,221.7c-0.4159-0.171-0.887-0.2046-1.323-0.0945-0.6581,0.1662-1.192,0.6332-1.795,0.9449-0.892,0.4611-1.917,0.5742-2.882,0.8504-0.5379,0.1539-1.061,0.3599-1.559,0.6142"/>
		<path d="m141.7,224c0.1154,0.7186,0.1786,1.446,0.189,2.173,0.0138,0.9653-0.0654,1.932-0.2362,2.882"/>
		<path d="m141.6,229.1c0.6345,0.2275,1.2,0.6434,1.606,1.181,0.1961,0.2596,0.3557,0.5468,0.4725,0.8504"/>
		<path d="m143.7,231.1c0.6009-0.0483,1.209-0.00031,1.795,0.1417,0.3869,0.0938,0.7659,0.2293,1.11,0.4299,0.3439,0.2006,0.6524,0.4682,0.8746,0.7985,0.2201,0.3271,0.3508,0.7076,0.4294,1.094,0.0786,0.3863,0.1071,0.7808,0.1375,1.174,0.0767,0.9919,0.166,1.996,0,2.977-0.1213,0.7167-0.3793,1.41-0.756,2.032"/>
		<path d="m143.3,213.7c0.7039-0.2906,1.384-0.6386,2.032-1.039,0.7057-0.4369,1.372-0.9358,2.079-1.37,0.5888-0.3616,1.205-0.6778,1.843-0.9449"/>
		<path d="m149.3,210.4c0.1207,0.6123,0.231,1.227,0.3307,1.843,0.1499,0.9258,0.2759,1.855,0.378,2.788"/>
		<path d="m143.3,213.7c0.6632-0.1686,1.368-0.1686,2.032,0,0.6582,0.1673,1.264,0.4942,1.843,0.8504,0.4539,0.2796,0.8954,0.5792,1.323,0.8977"/>
		<path d="m148.5,215.5,1.465-0.4725"/>
		<path d="m114.8,159.7c1.052-0.1485,2.144,0.0005,3.118,0.4252,1.235,0.5387,2.237,1.485,3.26,2.362,1.593,1.366,3.294,2.599,4.961,3.874,1.937,1.482,3.831,3.022,5.622,4.677,2.115,1.955,4.109,4.104,5.433,6.662,0.8169,1.578,1.362,3.279,1.937,4.961,0.8534,2.495,1.783,4.976,2.315,7.56,0.5396,2.62,0.6622,5.317,0.4725,7.985-0.0896,1.26-0.2478,2.533-0.0473,3.78,0.0302,0.1877,0.0687,0.375,0.1344,0.5534s0.1596,0.3484,0.2908,0.486c0.198,0.2076,0.4711,0.3311,0.7509,0.3946s0.5687,0.0713,0.8555,0.0779c1.701,0.0386,3.402,0.0386,5.103,0"/>
		<path d="m114.8,159.7c0.0913,0.9186,0.2982,1.826,0.6142,2.693,0.5475,1.503,1.414,2.869,2.362,4.158,1.497,2.034,3.208,3.901,4.914,5.764,1.829,1.999,3.672,4.022,5.008,6.378,1.392,2.455,2.194,5.207,2.693,7.985,0.4957,2.756,0.7049,5.562,0.6614,8.363-0.0325,2.097-0.2062,4.188-0.2835,6.284-0.128,3.469,0.009,6.948,0.4252,10.39,0.2279,1.885,0.54,3.772,0.4725,5.67-0.073,2.051-0.588,4.059-0.8504,6.095-0.2764,2.143-0.2721,4.312-0.2835,6.473-0.008,1.512-0.0237,3.024-0.0473,4.536"/>
		<path d="m130.4,234.5c-0.4709,0.8589-0.8969,1.742-1.276,2.646-0.7007,1.671-1.243,3.434-1.323,5.244-0.0805,1.833,0.3172,3.662,0.9449,5.386,0.4469,1.227,1.012,2.417,1.323,3.685,0.5158,2.104,0.3072,4.307,0.2835,6.473-0.0265,2.426,0.1832,4.85,0.189,7.276,0.005,2.154-0.1514,4.312-0.567,6.426-0.3764,1.914-0.963,3.781-1.606,5.622-0.5344,1.53-1.114,3.065-1.276,4.677-0.1372,1.364,0.0292,2.74,0,4.11-0.0389,1.828-0.4246,3.627-0.7087,5.433-0.2286,1.453-0.3923,2.924-0.3307,4.394,0.0803,1.917,0.5648,3.854,1.654,5.433,1.155,1.676,2.916,2.85,4.772,3.685,3.362,1.514,7.09,2.022,10.77,2.221,3.675,0.1979,7.406,0.0982,10.96-0.8504,1.11-0.2963,2.205-0.6766,3.213-1.228,1.057-0.5784,2.013-1.345,2.788-2.268,0.6339-0.7555,1.146-1.618,1.465-2.551,0.4478-1.313,0.5026-2.723,0.5197-4.11,0.0386-3.134-0.0938-6.268-0.0945-9.402-0.00066-3.078,0.1242-6.177-0.378-9.213-0.2909-1.759-0.7899-3.479-1.039-5.244-0.4017-2.842-0.1486-5.729-0.0945-8.599,0.0234-1.244,0.009-2.488,0-3.733-0.0109-1.46-0.003-2.976,0.6142-4.299,0.4362-0.9345,1.157-1.725,1.512-2.693,0.4152-1.134,0.2843-2.383,0.2835-3.591-0.001-2.07,0.3928-4.177-0.0945-6.189-0.2945-1.216-0.8994-2.337-1.228-3.544-0.6004-2.202-0.2505-4.535,0-6.804,0.1421-1.287,0.2509-2.58,0.2362-3.874-0.0185-1.628-0.2298-3.282,0.1417-4.866,0.2127-0.9073,0.6101-1.759,0.8977-2.646,0.5461-1.683,0.6902-3.477,0.6142-5.244-0.1088-2.533-0.6584-5.022-1.134-7.512-0.4024-2.107-0.7538-4.233-0.8032-6.378-0.0508-2.209,0.2191-4.411,0.378-6.615,0.0669-0.928,0.1142-1.858,0.1417-2.788"/>
		<path d="m159.9,185.3c-0.2249-1.439-0.3669-2.891-0.4252-4.347-0.1166-2.912,0.1019-5.826,0.1417-8.741,0.0489-3.576-0.171-7.159,0.0945-10.73,0.3768-5.06,1.723-9.991,3.071-14.88,1.262-4.58,2.533-9.158,3.922-13.7,1.741-5.696,3.672-11.35,6.237-16.73,2.249-4.715,4.97-9.186,7.512-13.75,2.032-3.648,3.972-7.389,6.662-10.58,3.026-3.594,6.891-6.365,10.39-9.497,3.38-3.021,6.435-6.39,9.78-9.449,2.913-2.664,6.062-5.11,8.552-8.174,0.3616-0.445,0.7083-0.9021,1.039-1.37"/>
		<path d="m216.9,63.31c-0.571-0.1346-1.166-0.1667-1.748-0.09449-0.853,0.1058-1.661,0.4303-2.457,0.756-2.18,0.8925-4.349,1.816-6.473,2.835-2.655,1.273-5.238,2.691-7.843,4.063-2.346,1.236-4.717,2.437-6.945,3.874-3.063,1.976-5.826,4.379-8.504,6.851-2,1.846-3.968,3.745-5.622,5.906-2.162,2.824-3.754,6.05-5.906,8.882-0.9826,1.293-2.084,2.507-2.882,3.921-0.764,1.354-1.227,2.852-1.795,4.299-0.8265,2.106-1.88,4.116-2.977,6.095-1.579,2.848-3.256,5.647-4.63,8.599-1.131,2.429-2.051,4.95-2.977,7.465-1.087,2.955-2.184,5.909-3.071,8.93-0.8767,2.984-1.547,6.025-2.173,9.071-0.6635,3.227-1.279,6.466-1.701,9.733-0.5705,4.421-0.7838,8.88-1.134,13.32-0.3086,3.918-0.7242,7.835-0.7087,11.76,0.0114,2.91,0.2598,5.818,0.7087,8.693,0.2041,1.307,0.4497,2.609,0.6142,3.922,0.2511,2.004,0.3123,4.028,0.3307,6.048,0.016,1.748,0.00021,3.497-0.0473,5.244"/>
	</g>
</svg>
