<svg width="285mm" xmlns="http://www.w3.org/2000/svg" viewBox="0 0 285 375" version="1.1" height="375mm">
	<g stroke="#000" fill-opacity="0.01">
		<g>
			<g transform="translate(1.0583333,-1.0583333)">
				<circle cx="108.4" cy="221" stroke-width="0.2508" r="5.439"/>
				<circle cx="108.2" cy="221.2" stroke-width="0.2736" r="9.771"/>
				<circle cx="108.3" cy="220.6" stroke-width="0.2733" r="17.72"/>
				<circle cx="108.2" cy="220.9" stroke-width="0.2576" r="22.01"/>
			</g>
			<g transform="translate(1.0583333,-6.879167)">
				<g>
					<circle stroke-width="0.2508" cy="290.3" cx="108.4" r="5.439"/>
					<circle stroke-width="0.2736" cy="290.5" cx="108.2" r="9.771"/>
					<circle stroke-width="0.2733" cy="289.9" cx="108.3" r="17.72"/>
				</g>
				<circle cx="108.2" cy="290.2" stroke-width="0.2576" r="22.01"/>
			</g>
			<g transform="translate(0,10.054167)">
				<circle cx="108.5" cy="82.43" stroke-width="0.2508" r="5.439"/>
				<circle cx="108.3" cy="82.63" stroke-width="0.2736" r="9.771"/>
				<circle cx="108.4" cy="82.03" stroke-width="0.2733" r="17.72"/>
				<circle cx="108.2" cy="82.3" stroke-width="0.2576" r="22.01"/>
			</g>
			<g transform="translate(1.0583333,4.7625002)">
				<circle cx="108.5" cy="151.8" stroke-width="0.2508" r="5.439"/>
				<circle cx="108.3" cy="152" stroke-width="0.2736" r="9.771"/>
				<circle cx="108.4" cy="151.4" stroke-width="0.2733" r="17.72"/>
				<circle cx="108.2" cy="151.6" stroke-width="0.2576" r="22.01"/>
			</g>
			<path stroke-width="0.25px" d="m123.3,123.6c3.624-2.117,6.925-4.786,9.755-7.884,2.114-2.315,3.968-4.871,5.479-7.617,2.911-5.29,4.534-11.34,4.276-17.37-0.2528-5.922-2.306-11.7-5.479-16.7-3.027-4.776-7.09-8.911-11.89-11.89-4.89-3.036-10.55-4.861-16.3-5.078-5.762-0.2174-11.54,1.176-16.7,3.742-4.351,2.162-8.307,5.173-11.36,8.954-2.177,2.696-3.877,5.756-5.212,8.954-1.546,3.704-2.612,7.626-2.94,11.63-0.412,5.031,0.3641,10.16,2.272,14.83,2.092,5.125,5.512,9.655,9.622,13.36,2.446,2.208,5.141,4.139,8.018,5.746"/>
			<path stroke-width="0.25px" d="m123.3,123.6c3.765,1.5,7.235,3.738,10.16,6.548,1.296,1.247,2.484,2.604,3.608,4.009,3.202,4.001,5.942,8.501,7.083,13.5,1.017,4.457,0.7191,9.116,0,13.63-0.4563,2.865-1.084,5.716-2.138,8.419-1.484,3.802-3.805,7.262-6.682,10.16-3.373,3.394-7.517,6.018-12.03,7.617"/>
			<path stroke-width="0.25px" d="m92.88,124.3c-3.179,2.167-6.1,4.713-8.682,7.566-1.083,1.197-2.108,2.45-3.024,3.78-2.344,3.404-3.95,7.299-4.819,11.34-0.9323,4.332-1.026,8.813-0.6615,13.23,0.2872,3.48,0.8653,6.968,2.173,10.21,1.578,3.905,4.186,7.343,7.276,10.21,3.197,2.961,6.929,5.342,10.96,6.993"/>
			<path stroke-width="0.25px" d="m123.3,187.5c2.728,1.305,5.32,2.896,7.718,4.738,0.7453,0.5726,1.472,1.169,2.173,1.795,3.016,2.693,5.554,5.931,7.371,9.544,1.675,3.331,2.731,6.97,3.118,10.68,0.3082,2.947,0.1974,5.921,0.0945,8.882-0.0782,2.25-0.1538,4.516-0.6615,6.709-0.5242,2.265-1.5,4.403-2.646,6.426-1.657,2.924-3.686,5.641-6.048,8.032-2.901,2.937-6.304,5.377-10.02,7.182"/>
			<path stroke-width="0.25px" d="m96.1,187.6c-2.164,1.111-4.25,2.375-6.237,3.78-2.138,1.512-4.164,3.191-5.953,5.103-2.917,3.118-5.177,6.846-6.615,10.87-1.489,4.166-2.093,8.616-2.079,13.04,0.01337,4.137,0.5691,8.302,1.984,12.19,1.003,2.754,2.434,5.355,4.252,7.654,2.496,3.156,5.674,5.698,8.882,8.126,1.437,1.087,2.886,2.158,4.347,3.213"/>
			<path stroke-width="0.25px" d="m124.4,251.5c1.822,1.006,3.589,2.111,5.292,3.307,1.668,1.172,3.279,2.436,4.725,3.874,2.178,2.165,3.959,4.703,5.481,7.371,1.653,2.898,3.02,5.991,3.685,9.26,0.5486,2.697,0.6116,5.469,0.567,8.221-0.0401,2.47-0.1667,4.95-0.6615,7.371-0.7788,3.81-2.457,7.392-4.536,10.68-2.206,3.487-4.892,6.698-8.126,9.26-3.594,2.848-7.831,4.86-12.28,5.953-4.035,0.9905-8.241,1.233-12.38,0.8504-5.836-0.5398-11.61-2.356-16.44-5.67-4.079-2.795-7.417-6.604-9.922-10.87-2.434-4.142-4.107-8.749-4.725-13.51-0.6128-4.728-0.1817-9.566,1.039-14.17,0.9946-3.753,2.521-7.387,4.725-10.58,2.019-2.93,4.589-5.465,7.465-7.56,1.977-1.44,4.102-2.677,6.331-3.685"/>
		</g>
		<g transform="translate(70.232589,2.8246142e-4)">
			<g transform="translate(1.0583333,-1.0583333)">
				<circle cx="108.4" cy="221" stroke-width="0.2508" r="5.439"/>
				<circle cx="108.2" cy="221.2" stroke-width="0.2736" r="9.771"/>
				<circle cx="108.3" cy="220.6" stroke-width="0.2733" r="17.72"/>
				<circle cx="108.2" cy="220.9" stroke-width="0.2576" r="22.01"/>
			</g>
			<g transform="translate(1.0583333,-6.879167)">
				<g>
					<circle stroke-width="0.2508" cy="290.3" cx="108.4" r="5.439"/>
					<circle stroke-width="0.2736" cy="290.5" cx="108.2" r="9.771"/>
					<circle stroke-width="0.2733" cy="289.9" cx="108.3" r="17.72"/>
				</g>
				<circle cx="108.2" cy="290.2" stroke-width="0.2576" r="22.01"/>
			</g>
			<g transform="translate(0,10.054167)">
				<circle cx="108.5" cy="82.43" stroke-width="0.2508" r="5.439"/>
				<circle cx="108.3" cy="82.63" stroke-width="0.2736" r="9.771"/>
				<circle cx="108.4" cy="82.03" stroke-width="0.2733" r="17.72"/>
				<circle cx="108.2" cy="82.3" stroke-width="0.2576" r="22.01"/>
			</g>
			<g transform="translate(1.0583333,4.7625002)">
				<circle cx="108.5" cy="151.8" stroke-width="0.2508" r="5.439"/>
				<circle cx="108.3" cy="152" stroke-width="0.2736" r="9.771"/>
				<circle cx="108.4" cy="151.4" stroke-width="0.2733" r="17.72"/>
				<circle cx="108.2" cy="151.6" stroke-width="0.2576" r="22.01"/>
			</g>
			<path stroke-width="0.25px" d="m123.3,123.6c3.624-2.117,6.925-4.786,9.755-7.884,2.114-2.315,3.968-4.871,5.479-7.617,2.911-5.29,4.534-11.34,4.276-17.37-0.2528-5.922-2.306-11.7-5.479-16.7-3.027-4.776-7.09-8.911-11.89-11.89-4.89-3.036-10.55-4.861-16.3-5.078-5.762-0.2174-11.54,1.176-16.7,3.742-4.351,2.162-8.307,5.173-11.36,8.954-2.177,2.696-3.877,5.756-5.212,8.954-1.546,3.704-2.612,7.626-2.94,11.63-0.412,5.031,0.3641,10.16,2.272,14.83,2.092,5.125,5.512,9.655,9.622,13.36,2.446,2.208,5.141,4.139,8.018,5.746"/>
			<path stroke-width="0.25px" d="m123.3,123.6c3.765,1.5,7.235,3.738,10.16,6.548,1.296,1.247,2.484,2.604,3.608,4.009,3.202,4.001,5.942,8.501,7.083,13.5,1.017,4.457,0.7191,9.116,0,13.63-0.4563,2.865-1.084,5.716-2.138,8.419-1.484,3.802-3.805,7.262-6.682,10.16-3.373,3.394-7.517,6.018-12.03,7.617"/>
			<path stroke-width="0.25px" d="m92.88,124.3c-3.179,2.167-6.1,4.713-8.682,7.566-1.083,1.197-2.108,2.45-3.024,3.78-2.344,3.404-3.95,7.299-4.819,11.34-0.9323,4.332-1.026,8.813-0.6615,13.23,0.2872,3.48,0.8653,6.968,2.173,10.21,1.578,3.905,4.186,7.343,7.276,10.21,3.197,2.961,6.929,5.342,10.96,6.993"/>
			<path stroke-width="0.25px" d="m123.3,187.5c2.728,1.305,5.32,2.896,7.718,4.738,0.7453,0.5726,1.472,1.169,2.173,1.795,3.016,2.693,5.554,5.931,7.371,9.544,1.675,3.331,2.731,6.97,3.118,10.68,0.3082,2.947,0.1974,5.921,0.0945,8.882-0.0782,2.25-0.1538,4.516-0.6615,6.709-0.5242,2.265-1.5,4.403-2.646,6.426-1.657,2.924-3.686,5.641-6.048,8.032-2.901,2.937-6.304,5.377-10.02,7.182"/>
			<path stroke-width="0.25px" d="m96.1,187.6c-2.164,1.111-4.25,2.375-6.237,3.78-2.138,1.512-4.164,3.191-5.953,5.103-2.917,3.118-5.177,6.846-6.615,10.87-1.489,4.166-2.093,8.616-2.079,13.04,0.01337,4.137,0.5691,8.302,1.984,12.19,1.003,2.754,2.434,5.355,4.252,7.654,2.496,3.156,5.674,5.698,8.882,8.126,1.437,1.087,2.886,2.158,4.347,3.213"/>
			<path stroke-width="0.25px" d="m124.4,251.5c1.822,1.006,3.589,2.111,5.292,3.307,1.668,1.172,3.279,2.436,4.725,3.874,2.178,2.165,3.959,4.703,5.481,7.371,1.653,2.898,3.02,5.991,3.685,9.26,0.5486,2.697,0.6116,5.469,0.567,8.221-0.0401,2.47-0.1667,4.95-0.6615,7.371-0.7788,3.81-2.457,7.392-4.536,10.68-2.206,3.487-4.892,6.698-8.126,9.26-3.594,2.848-7.831,4.86-12.28,5.953-4.035,0.9905-8.241,1.233-12.38,0.8504-5.836-0.5398-11.61-2.356-16.44-5.67-4.079-2.795-7.417-6.604-9.922-10.87-2.434-4.142-4.107-8.749-4.725-13.51-0.6128-4.728-0.1817-9.566,1.039-14.17,0.9946-3.753,2.521-7.387,4.725-10.58,2.019-2.93,4.589-5.465,7.465-7.56,1.977-1.44,4.102-2.677,6.331-3.685"/>
		</g>
	</g>
</svg>
