<svg width="285mm" xmlns="http://www.w3.org/2000/svg" viewBox="0 0 285 375" version="1.1" height="375mm">
	<g stroke="#000" stroke-width="0.25px" fill-opacity="0.01">
		<path d="m152.7,203.7c0.8465-1.063,1.839-2.01,2.94-2.806,0.841-0.608,1.777-1.139,2.806-1.27,0.9631-0.122,1.978,0.1334,2.74,0.735,0.7819,0.6172,1.254,1.535,1.737,2.405,0.7445,1.34,1.571,2.635,2.472,3.875"/>
		<path d="m165.4,206.6c-0.4491,1.231-0.8504,2.48-1.203,3.742-0.9629,3.45-1.557,6.995-1.938,10.56-0.4271,3.999-0.5862,8.021-0.9354,12.03-0.4433,5.085-1.193,10.14-1.537,15.23-0.347,5.135-0.2805,10.29-0.3341,15.43-0.0566,5.437-0.2471,10.88,0.2004,16.3,0.2306,2.792,0.6299,5.567,0.9354,8.352,0.4207,3.835,0.6642,7.694,1.336,11.49,0.3128,1.768,0.7177,3.518,1.069,5.279,0.4267,2.138,0.7753,4.301,0.8018,6.481,0.008,0.6558-0.0132,1.313,0.0334,1.967,0.0466,0.6542,0.1634,1.311,0.4344,1.908,0.0728,0.1605,0.1566,0.3164,0.2145,0.4828s0.0892,0.347,0.0527,0.5194c-0.0416,0.1968-0.1672,0.3656-0.3073,0.51s-0.298,0.2716-0.4277,0.4254c-0.1135,0.1347-0.2043,0.2886-0.3294,0.4126-0.0626,0.062-0.1339,0.1162-0.2145,0.1517s-0.171,0.0515-0.2579,0.037c-0.0689-0.0115-0.1339-0.0419-0.1903-0.0832-0.0563-0.0413-0.1042-0.0934-0.1452-0.15-0.0819-0.1132-0.136-0.2436-0.1991-0.3682-0.3556-0.7014-1.002-1.226-1.336-1.938-0.2724-0.5798-0.3159-1.236-0.4009-1.871-0.1652-1.234-0.502-2.441-0.9354-3.608-1.019-2.744-2.571-5.28-3.408-8.085-0.5425-1.818-0.774-3.715-1.27-5.546-0.4824-1.783-1.21-3.487-1.871-5.212-1.238-3.231-2.243-6.547-3.14-9.889-0.5388-2.005-1.04-4.025-1.336-6.08-0.3819-2.651-0.4191-5.34-0.4009-8.018,0.0195-2.876,0.1015-5.76-0.2004-8.619-0.2431-2.303-0.734-4.575-0.9354-6.882-0.2501-2.864-0.0517-5.745,0-8.619,0.0597-3.318-0.0765-6.64,0.0668-9.956,0.17-3.936,0.7341-7.851,1.604-11.69,0.7905-3.493,1.832-6.926,2.606-10.42,0.5268-2.382,0.9285-4.792,1.203-7.216"/>
		<path d="m218,175.4c-0.0258-1.243,0.2698-2.491,0.8504-3.591,0.2804-0.531,0.6268-1.028,1.039-1.465,0.547-0.5784,1.21-1.047,1.937-1.37"/>
		<path d="m218,175.4c0.7083,0.0674,1.417,0.1304,2.126,0.189,0.871,0.072,1.746,0.1378,2.599,0.3307,0.6181,0.1399,1.221,0.3462,1.795,0.6142"/>
		<path d="m221.8,169c0.5834,0.0541,1.141,0.3501,1.512,0.8032,0.2603,0.3175,0.4273,0.7006,0.567,1.087,0.3996,1.105,0.6,2.276,0.6615,3.449,0.0388,0.74,0.023,1.483-0.0472,2.221"/>
		<path d="m204.5,176.4c0.8804,0.1969,1.698,0.6643,2.315,1.323,0.5584,0.5963,0.9447,1.332,1.276,2.079,0.5474,1.235,0.9615,2.525,1.323,3.827,0.406,1.462,0.747,2.944,0.9922,4.441,0.0871,0.532,0.1617,1.08,0.0473,1.606-0.1306,0.6012-0.515,1.143-1.039,1.465"/>
		<path d="m210.7,189.7c0.2403-0.2613,0.59-0.4186,0.9449-0.4252,0.3749-0.007,0.7348,0.1458,1.06,0.3322,0.3253,0.1864,0.6305,0.4096,0.9715,0.5655,0.5539,0.2534,1.179,0.3173,1.787,0.2825,0.6081-0.0348,1.206-0.1642,1.804-0.2825,1.938-0.3838,3.897-0.6549,5.859-0.8977,2.514-0.3111,5.033-0.5761,7.56-0.756,2.008-0.1429,4.051-0.238,5.953-0.8977,0.9748-0.3381,1.898-0.8214,2.74-1.417,1.207-0.8545,2.263-1.964,2.882-3.307,0.5869-1.274,0.7597-2.711,0.6615-4.11-0.0698-0.9943-0.2723-1.977-0.567-2.929-0.1758-0.5679-0.387-1.131-0.7114-1.629-0.3244-0.4981-0.7711-0.931-1.32-1.159-0.4226-0.1752-0.8849-0.2225-1.333-0.3162-0.2239-0.0468-0.4462-0.1059-0.6558-0.1976-0.2095-0.0917-0.4066-0.217-0.5629-0.384-0.1316-0.1406-0.2316-0.3073-0.3307-0.4725-0.9151-1.525-1.847-3.042-2.882-4.488-0.9974-1.393-2.09-2.718-3.26-3.969-1.533-1.639-3.215-3.163-5.15-4.299-1.986-1.167-4.206-1.905-6.473-2.315-0.7205-0.1304-1.477-0.2261-2.173,0-0.3563,0.1157-0.681,0.3112-0.9922,0.5197-1.18,0.7904-2.209,1.786-3.166,2.835-0.952,1.044-1.839,2.147-2.646,3.307-0.7793,1.121-1.487,2.3-2.41,3.307-0.3492,0.3812-0.7274,0.7358-1.063,1.129-0.3353,0.3934-0.6304,0.8328-0.7799,1.328-0.1607,0.5318-0.1458,1.098-0.1417,1.654,0.006,0.8566-0.018,1.723-0.2362,2.551-0.1396,0.5299-0.3564,1.036-0.5197,1.559-0.1679,0.5376-0.2789,1.093-0.3307,1.654"/>
		<path d="m129.9,209.5c0.5898,0.2739,1.3,0.2739,1.89,0,0.2017-0.0937,0.3884-0.2169,0.588-0.3152,0.1995-0.0983,0.4185-0.1724,0.6404-0.1573,0.2602,0.0178,0.5019,0.1595,0.6763,0.3535,0.1743,0.194,0.2866,0.4366,0.3632,0.686,0.2396,0.7806,0.134,1.661-0.2835,2.362"/>
		<path d="m129.9,209.5c0.531,0.5426,1.1,1.048,1.701,1.512,0.6855,0.5289,1.413,1.003,2.173,1.417"/>
		<path d="m115.8,207.7c0.5768,0.9104,1.357,1.691,2.268,2.268,0.5855,0.371,1.224,0.6583,1.89,0.8504"/>
		<path d="m119.9,210.8c0.0373,0.8844,0.2644,1.76,0.6614,2.551,0.4552,0.9069,1.127,1.694,1.89,2.362,1.215,1.065,2.67,1.85,3.78,3.024,0.6863,0.7258,1.221,1.581,1.701,2.457,0.7121,1.3,1.313,2.661,1.795,4.063"/>
		<path d="m115.8,207.7c0.3382,1.154,0.8152,2.267,1.417,3.307,0.8247,1.425,1.876,2.703,2.929,3.969,0.8721,1.048,1.749,2.092,2.646,3.118,0.9827,1.125,1.989,2.23,3.024,3.307,1.281,1.334,2.604,2.626,3.969,3.874"/>
		<path d="m117.9,222.7c1.22,0.8675,2.423,1.759,3.608,2.673,1.182,0.9114,2.346,1.846,3.541,2.74,0.981,0.7337,1.983,1.44,2.94,2.205,0.9123,0.729,1.783,1.51,2.606,2.339"/>
		<path d="m129.8,226.9c0.6222,0.8609,1.018,1.884,1.136,2.94,0.1058,0.9445-0.009,1.913-0.3341,2.806"/>
		<path d="m129.8,226.9c0.7784,0.7935,1.415,1.726,1.871,2.74,0.4578,1.018,0.7315,2.11,0.9354,3.207,0.1969,1.06,0.3309,2.131,0.4009,3.207"/>
		<path d="m117.9,222.7c0.1859,0.9998,0.4544,1.984,0.8018,2.94,0.3171,0.8721,0.6997,1.72,1.136,2.539,0.654,1.228,1.426,2.388,2.205,3.541,1.008,1.493,2.033,2.984,2.806,4.61,0.7203,1.514,1.216,3.131,2.005,4.61,0.526,0.9876,1.186,1.925,1.47,3.007,0.2359,0.8985,0.1935,1.87-0.1336,2.74-0.2602,0.6916-0.6889,1.304-1.069,1.938-0.1048,0.1746-0.2064,0.352-0.2818,0.5411s-0.1241,0.3913-0.1191,0.5948c0.008,0.3095,0.139,0.6042,0.3081,0.8635,0.169,0.2593,0.3766,0.4911,0.5606,0.7401,0.6467,0.8752,0.9864,1.94,1.203,3.007,0.2754,1.358,0.37,2.759,0.8018,4.076,0.3233,0.9862,0.8282,1.901,1.336,2.806,0.8146,1.451,1.665,2.952,1.804,4.61,0.1258,1.496-0.341,2.977-0.4009,4.477-0.0444,1.112,0.1386,2.234,0.5345,3.274"/>
		<path d="m132.9,273.6c-0.0611-1.119,0.029-2.246,0.2673-3.341,0.2514-1.155,0.6688-2.292,0.6682-3.475-0.00061-1.081-0.3519-2.129-0.735-3.14-0.5555-1.466-1.186-2.902-1.804-4.343-0.5451-1.271-1.082-2.548-1.47-3.875-0.3994-1.366-0.6391-2.787-0.6014-4.209,0.0397-1.497,0.3851-2.98,0.3341-4.477-0.0705-2.069-0.8898-4.029-1.67-5.947-0.5723-1.406-1.13-2.818-1.737-4.21-0.9312-2.135-1.986-4.235-3.408-6.08-0.9808-1.273-2.149-2.448-2.74-3.942-0.0776-0.1966-0.1446-0.3975-0.2005-0.6014"/>
		<path d="m119.8,225.9c0.4689,0.1097,0.9211,0.2906,1.336,0.5345,0.7181,0.4219,1.312,1.021,1.938,1.57,0.9533,0.8361,1.995,1.566,2.973,2.372,1.114,0.9183,2.144,1.934,3.241,2.873,1.176,1.006,2.428,1.923,3.742,2.74"/>
		<path d="m166.3,182.2c0.4501-0.6541,0.9926-1.244,1.606-1.748,0.6412-0.5262,1.36-0.9575,2.126-1.276"/>
		<path d="m166.3,182.2c0.5817,0.1765,1.14,0.4315,1.654,0.756,0.4461,0.2816,0.8593,0.6153,1.228,0.9922"/>
		<path d="m170,179.2c0.395,0.3605,0.842,0.6638,1.323,0.8977,0.2601,0.1265,0.5299,0.2327,0.7854,0.3681,0.2556,0.1354,0.4996,0.3029,0.6792,0.5296,0.1413,0.1784,0.2394,0.3909,0.2835,0.6142"/>
		<path d="m169.2,183.9c0.4379-0.1816,0.852-0.4205,1.228-0.7087,0.4984-0.3817,0.9316-0.8496,1.465-1.181,0.3747-0.2332,0.794-0.3944,1.228-0.4725"/>
		<path d="m165.4,206.6c0.004-0.4044,0.075-0.808,0.2082-1.19,0.1319-0.378,0.3272-0.7373,0.5981-1.032,0.271-0.2948,0.6202-0.523,1.008-0.6216,0.5751-0.1461,1.19-0.003,1.772-0.1181,0.4966-0.0979,0.9356-0.3755,1.394-0.5906,0.2387-0.1121,0.4851-0.208,0.7191-0.3297s0.4578-0.2716,0.6275-0.4735c0.1639-0.195,0.272-0.4334,0.3302-0.6814s0.0676-0.5057,0.0478-0.7596c-0.0506-0.6488-0.3092-1.301-0.8032-1.725-0.3036-0.2603-0.6769-0.4218-1.039-0.5906-0.3068-0.1428-0.6169-0.2984-0.8504-0.5433-0.185-0.1941-0.3134-0.4364-0.4055-0.6883s-0.1497-0.5148-0.2087-0.7764c-0.1264-0.5608-0.2603-1.12-0.4016-1.677"/>
		<path d="m168.4,194.8c0.3558-0.1991,0.7383-0.3505,1.134-0.4488,0.7383-0.1835,1.508-0.1808,2.268-0.2126,0.8088-0.0339,1.649-0.1189,2.339-0.5433,0.2197-0.1353,0.4194-0.303,0.5906-0.4961"/>
		<path d="m174.8,193.1c0.3669,0.3154,0.7538,0.6075,1.158,0.8741,0.5035,0.3324,1.033,0.625,1.583,0.8741"/>
		<path d="m177.5,194.9c0.025,0.2926,0.00095,0.5893-0.0709,0.8741-0.0315,0.1249-0.0722,0.2477-0.0937,0.3748-0.0215,0.127-0.0229,0.2608,0.0228,0.3812,0.0444,0.1171,0.1297,0.2133,0.2126,0.3071,0.2279,0.2579,0.4534,0.5225,0.6142,0.8268,0.2129,0.4028,0.3046,0.8725,0.2362,1.323-0.051,0.3356-0.1868,0.6512-0.3071,0.9686-0.253,0.6672-0.4418,1.357-0.5906,2.055-0.0508,0.2381-0.0971,0.4792-0.0952,0.7226,0.002,0.2434,0.0552,0.4918,0.1897,0.6948,0.1479,0.2233,0.3873,0.3781,0.6457,0.4486s0.5344,0.0608,0.7953,0.00027c0.4134-0.0959,0.7892-0.3151,1.125-0.5742,0.3362-0.2591,0.638-0.5593,0.9535-0.8432,1.424-1.282,3.122-2.229,4.559-3.496,0.8354-0.7368,1.575-1.575,2.386-2.339,1.174-1.105,2.499-2.056,3.544-3.284,0.2921-0.3433,0.5607-0.7067,0.8032-1.087"/>
		<path d="m192.4,192.2c1.039-0.0731,2.079-0.1439,3.118-0.2126,1.181-0.078,2.363-0.1533,3.544-0.2362,1.654-0.1162,3.307-0.2475,4.961-0.3544,1.778-0.1149,3.558-0.2015,5.339-0.2599"/>
		<path d="m184.2,166.3c-0.1938,0.2362-0.2968,0.5452-0.2835,0.8504,0.0129,0.2952,0.1302,0.5781,0.2899,0.8267s0.3612,0.4671,0.5605,0.6852c0.56,0.6126,1.114,1.236,1.559,1.937,0.215,0.3386,0.4045,0.6966,0.5231,1.08,0.1186,0.3832,0.1644,0.7938,0.0911,1.188-0.0967,0.5201-0.3936,0.9888-0.4725,1.512-0.0775,0.5144,0.0638,1.04,0.2835,1.512,0.4569,0.9808,1.272,1.797,2.268,2.221,1.278,0.5438,2.729,0.4258,4.11,0.2835,1.979-0.2039,3.959-0.4384,5.906-0.8504,1.248-0.2642,2.481-0.601,3.733-0.8504,0.5638-0.1124,1.131-0.2069,1.701-0.2835"/>
		<path d="m173.2,163.3c0.0659,0.6416,0.1776,1.279,0.3341,1.904,0.196,0.7839,0.4659,1.558,0.902,2.238,0.2829,0.4413,0.6354,0.8404,1.054,1.156,0.4185,0.3157,0.904,0.5466,1.418,0.648,0.6702,0.1321,1.378,0.0395,2.005-0.2339,0.7886-0.3443,1.427-0.952,2.138-1.437,0.5779-0.3938,1.209-0.7089,1.871-0.9354,0.4136-0.1416,0.8389-0.2488,1.27-0.3201"/>
		<path d="m158.2,165.8c0.5595-0.1751,1.189-0.1134,1.704,0.167,0.3348,0.1824,0.6165,0.449,0.8686,0.735,0.491,0.5568,0.8818,1.193,1.303,1.804,0.2355,0.3418,0.4828,0.6786,0.7824,0.966,0.2995,0.2874,0.6555,0.5251,1.055,0.6376,0.6211,0.1748,1.299,0.031,1.871-0.2673,0.5481-0.2857,1.016-0.7046,1.44-1.154,0.4238-0.4499,0.8093-0.9347,1.233-1.385,0.859-0.912,1.871-1.677,2.673-2.639,0.2067-0.2482,0.399-0.5091,0.6218-0.743s0.4804-0.4426,0.7814-0.56c0.222-0.0866,0.4642-0.1212,0.7016-0.1002"/>
		<path d="m158.2,165.8c-0.5508,1.123-1.104,2.244-1.661,3.364-0.5525,1.112-1.11,2.227-1.512,3.402-0.4689,1.369-0.7226,2.807-0.8032,4.252-0.0542,0.9717-0.0351,1.971-0.378,2.882-0.2496,0.6631-0.6815,1.246-1.181,1.748-0.9586,0.9636-2.16,1.644-3.213,2.504-1.082,0.8834-2,1.951-2.835,3.071-0.6025,0.8085-1.178,1.662-1.984,2.268-0.8128,0.6113-1.81,0.9323-2.646,1.512-1.129,0.7834-1.917,2.043-2.126,3.402"/>
		<path d="m139.9,194.2c-0.9892,0.102-1.982,0.165-2.977,0.189-1.404,0.0338-2.815-0.01-4.205,0.189-1.312,0.1877-2.592,0.5917-3.78,1.181-1.179,0.5852-2.267,1.353-3.213,2.268"/>
		<path d="m125.7,198.1c-0.962-0.3589-1.923-0.7211-2.882-1.087-1.689-0.6434-3.386-1.303-4.914-2.268-1.266-0.799-2.394-1.794-3.591-2.693-1.077-0.8098-2.238-1.556-3.544-1.89-0.8156-0.2089-1.677-0.2503-2.504-0.0945-1.095,0.2062-2.1,0.7471-3.024,1.37-0.4322,0.2914-0.8531,0.6041-1.219,0.9754-0.3658,0.3714-0.6764,0.8046-0.8599,1.292-0.1705,0.4532-0.2311,0.9504-0.4725,1.37-0.2954,0.5138-0.8212,0.8451-1.228,1.276-0.4358,0.4608-0.7381,1.045-0.8683,1.666-0.1302,0.6208-0.0889,1.276,0.1124,1.877,0.354,1.058,1.169,1.902,1.606,2.929,0.2919,0.6855,0.4065,1.431,0.5128,2.169,0.1063,0.7375,0.2089,1.484,0.4794,2.178,0.2073,0.5322,0.5096,1.024,0.7087,1.559,0.4931,1.326,0.3162,2.79,0.3307,4.205,0.0226,2.197,0.5225,4.356,0.8977,6.52,0.3725,2.149,0.6348,4.356,1.559,6.331,0.4122,0.8807,0.9502,1.7,1.323,2.599,0.7547,1.818,0.7906,3.845,1.228,5.764,0.4776,2.094,1.43,4.044,2.315,6,0.5312,1.174,1.045,2.37,1.276,3.638,0.2261,1.243,0.1731,2.518,0.2362,3.78,0.0605,1.209,0.233,2.43,0.7087,3.544,0.4408,1.032,1.127,1.939,1.654,2.929,0.6611,1.243,1.065,2.606,1.417,3.969,0.5307,2.051,0.9702,4.166,2.032,6,0.3957,0.6838,0.872,1.317,1.302,1.98,0.4302,0.6626,0.8187,1.365,1.013,2.131,0.2567,1.012,0.1608,2.077,0.2362,3.118,0.0813,1.123,0.3707,2.244,0.9449,3.213,0.5787,0.9765,1.423,1.767,2.079,2.693,0.9386,1.326,1.465,2.89,2.079,4.394,0.8738,2.143,1.946,4.206,3.213,6.142,0.9765,1.492,2.078,2.927,2.74,4.583,0.5909,1.477,0.8096,3.077,1.323,4.583,0.4823,1.415,1.217,2.728,1.89,4.063,0.9034,1.794,1.698,3.641,2.504,5.481,0.8707,1.988,1.756,3.972,2.74,5.906,1.023,2.01,2.153,3.963,3.213,5.953,1.639,3.077,3.112,6.241,4.772,9.308,1.358,2.508,2.84,4.949,4.488,7.276,1.355,1.913,2.819,3.746,4.158,5.67,1.143,1.644,2.21,3.372,3.685,4.725,0.2427,0.2226,0.5005,0.4372,0.8032,0.567,0.1345,0.0577,0.2789,0.0982,0.4252,0.0945,0.0914-0.002,0.1827-0.0221,0.265-0.0617,0.0824-0.0396,0.1555-0.0993,0.2074-0.1746,0.0494-0.0716,0.0789-0.156,0.0907-0.2422,0.0119-0.0862,0.007-0.1742-0.01-0.2597-0.0324-0.171-0.107-0.3304-0.1756-0.4903-0.5495-1.282-0.7351-2.684-0.9449-4.063-0.2832-1.861-0.6208-3.717-1.134-5.528-0.8163-2.881-2.068-5.619-3.024-8.457-0.7053-2.094-1.249-4.238-1.795-6.378-0.3135-1.227-0.6294-2.457-1.087-3.638-0.7749-2.001-1.955-3.845-3.449-5.386"/>
		<path d="m151.5,311.2c0.5015-0.8158,0.7518-1.784,0.7087-2.74-0.0384-0.8526-0.3034-1.682-0.6615-2.457-0.6628-1.434-1.648-2.715-2.173-4.205-0.4494-1.275-0.5411-2.643-0.8032-3.969-0.253-1.28-0.6671-2.53-0.8032-3.827-0.1764-1.681,0.1182-3.403-0.2362-5.055-0.1934-0.9016-0.5758-1.754-1.039-2.551-0.7456-1.282-1.708-2.437-2.835-3.402"/>
		<path d="m143.7,283c-0.1411-0.6825-0.1572-1.391-0.0472-2.079,0.1591-0.9951,0.5742-1.928,0.8977-2.882,0.5396-1.592,0.8286-3.288,0.6615-4.961-0.0898-0.8981-0.3124-1.788-0.7087-2.599-0.2314-0.4735-0.5199-0.9166-0.7783-1.376-0.2585-0.4593-0.4894-0.9419-0.5918-1.459-0.1412-0.7124-0.0307-1.454,0.1715-2.151,0.2022-0.6976,0.4941-1.366,0.7262-2.054,0.3966-1.176,0.6162-2.405,0.756-3.638,0.1641-1.449,0.2172-2.934-0.1417-4.347-0.3486-1.372-1.074-2.631-1.37-4.016-0.2018-0.9449-0.1969-1.928-0.0472-2.882,0.2227-1.42,0.7578-2.77,1.134-4.158,0.3256-1.201,0.533-2.441,0.5197-3.685-0.0106-0.9943-0.1617-1.983-0.189-2.977-0.0552-2.01,0.3947-3.995,0.8504-5.953,0.2967-1.275,0.5989-2.566,0.567-3.874-0.0356-1.459-0.4861-2.888-0.4725-4.347,0.0195-2.081,0.9728-4.025,1.465-6.048,0.4606-1.894,0.5153-3.863,0.4725-5.811-0.0253-1.152-0.0834-2.311,0.0945-3.449,0.1361-0.8705,0.4093-1.72,0.4725-2.599,0.0395-0.5502-0.004-1.104,0.0472-1.654,0.0395-0.4237,0.145-0.861,0.4252-1.181,0.1671-0.191,0.3888-0.3298,0.6262-0.4193,0.2374-0.0896,0.4907-0.1315,0.744-0.1477,0.4982-0.0317,1.007,0.0372,1.465,0.2362,0.561,0.2439,1.034,0.6843,1.318,1.226"/>
		<path d="m81.45,211.5c0.95-0.0587,1.888-0.3103,2.74-0.735,0.9145-0.456,1.732-1.115,2.339-1.938,0.4209-0.571,0.7363-1.213,1.002-1.871,0.5327-1.317,0.8894-2.735,1.737-3.875,0.7279-0.9786,1.811-1.699,3.007-1.938,1.318-0.2629,2.712,0.0632,3.875,0.735,0.3662,0.2114,0.717,0.4579,1.116,0.5993,0.1993,0.0707,0.4099,0.1141,0.6213,0.1092,0.2114-0.005,0.4238-0.0599,0.6018-0.174,0.1472-0.0943,0.2681-0.2272,0.3569-0.3779,0.08877-0.1506,0.146-0.3187,0.1776-0.4907,0.06217-0.3381,0.0257-0.69-0.07565-1.018-0.1013-0.3284-0.266-0.6348-0.4589-0.9192-0.2291-0.3379-0.4984-0.6466-0.7362-0.9785-0.2378-0.3318-0.4467-0.6939-0.5333-1.093-0.1281-0.59,0.02654-1.218,0.3341-1.737,0.08117-0.1371,0.1743-0.2698,0.2971-0.3714,0.1228-0.1015,0.2787-0.17,0.4379-0.1632,0.1211,0.005,0.2387,0.0541,0.3331,0.1301,0.09444,0.076,0.1663,0.1782,0.2136,0.2898,0.0947,0.2232,0.09159,0.4763,0.05461,0.7159-0.05875,0.3807-0.1987,0.7507-0.2005,1.136-0.002,0.4316,0.1799,0.8611,0.4913,1.16s0.7479,0.4632,1.179,0.4436"/>
		<path d="m87.46,207.4c-0.1615,1.464-0.2285,2.938-0.2005,4.41,0.084,4.402,1.014,8.74,2.005,13.03,0.926,4.011,1.909,8.012,3.074,11.96,0.9269,3.142,1.969,6.248,3.007,9.354,1.292,3.868,2.58,7.738,3.809,11.63,1.189,3.762,2.324,7.544,3.742,11.23,1.291,3.352,2.813,6.609,4.276,9.889,1.332,2.986,2.617,5.994,4.009,8.954,1.641,3.488,3.428,6.905,5.145,10.36,1.385,2.785,2.729,5.601,4.41,8.219,1.546,2.408,3.372,4.638,4.744,7.149,0.3635,0.6653,0.6947,1.349,1.099,1.99,0.4048,0.641,0.8898,1.244,1.506,1.685,0.2614,0.1868,0.5439,0.3429,0.8018,0.5345,0.1506,0.1118,0.2935,0.2363,0.4596,0.3232,0.0831,0.0435,0.1718,0.0772,0.2643,0.0929s0.1888,0.0128,0.2783-0.0152c0.1172-0.0367,0.2185-0.1153,0.2954-0.211s0.1308-0.208,0.1723-0.3236c0.1983-0.5522,0.1186-1.163,0-1.737-0.3821-1.852-1.136-3.603-1.871-5.345-1.393-3.302-2.745-6.647-3.474-10.16-0.4342-2.088-0.6459-4.222-1.203-6.281-0.6127-2.265-1.635-4.406-2.205-6.682-0.5329-2.128-0.6611-4.339-1.136-6.481-0.4317-1.948-1.146-3.821-1.67-5.746-0.4986-1.83-0.8246-3.702-1.27-5.546-0.992-4.11-2.568-8.052-4.009-12.03-1.51-4.165-2.878-8.382-4.143-12.63-1.057-3.548-2.042-7.117-3.007-10.69-0.4085-1.513-0.8134-3.026-1.203-4.544-0.5034-1.962-0.9808-3.932-1.537-5.88-0.7315-2.563-1.599-5.089-2.205-7.684-0.6378-2.732-0.9812-5.523-1.47-8.285-0.3174-1.794-0.6963-3.577-1.136-5.345"/>
		<path d="M98.82,202.5,98.72,202.3"/>
		<path d="m84.29,125.6c0.08589,1.857,0.08589,3.718,0,5.575-0.08892,1.923-0.2693,3.858,0,5.764,0.2003,1.418,0.6502,2.799,1.323,4.063"/>
		<path d="m85.61,141c1.092-0.1873,2.113-0.7658,2.835-1.606,0.3226-0.3757,0.5851-0.7987,0.887-1.191,0.3019-0.3926,0.6535-0.7624,1.097-0.982,0.2877-0.1424,0.6119-0.2174,0.9319-0.1917s0.6346,0.1556,0.8635,0.3807c0.1592,0.1565,0.2743,0.3549,0.3465,0.5661,0.07222,0.2112,0.1027,0.4353,0.1058,0.6585,0.0064,0.4465-0.09428,0.8864-0.1689,1.327-0.2808,1.658-0.1959,3.368-0.567,5.008-0.4317,1.908-1.458,3.626-2.079,5.481-0.7088,2.117-0.8795,4.379-1.512,6.52-0.1831,0.6198-0.4047,1.229-0.5535,1.858-0.1488,0.6289-0.2236,1.286-0.1079,1.922,0.05931,0.3261,0.1702,0.6466,0.3586,0.9193s0.4585,0.4952,0.7753,0.5926c0.2975,0.0914,0.6238,0.0687,0.917-0.0354,0.2933-0.1041,0.5548-0.2863,0.7768-0.5044,0.444-0.4361,0.7285-1.004,1.046-1.539,0.7992-1.345,1.846-2.53,2.646-3.874,1.777-2.987,2.235-6.574,3.685-9.733,0.4901-1.067,1.093-2.083,1.795-3.024"/>
		<path d="m84.29,125.6c-0.1018-0.1992-0.1307-0.4346-0.08028-0.6526,0.05045-0.2179,0.1799-0.4167,0.3589-0.5509s0.406-0.2029,0.6293-0.1903,0.4412,0.1063,0.604,0.2598c0.1953,0.1842,0.3056,0.4445,0.3533,0.7087,0.04773,0.2642,0.0379,0.5351,0.02467,0.8032-0.06369,1.291-0.2021,2.586-0.0945,3.874,0.1039,1.244,0.4353,2.457,0.6615,3.685,0.09642,0.5235,0.1779,1.063,0.4343,1.529,0.1282,0.2333,0.3005,0.4453,0.5182,0.5985s0.4825,0.245,0.7485,0.2348c0.3343-0.0128,0.6417-0.1807,0.9222-0.363,0.2804-0.1824,0.5543-0.3864,0.8732-0.4874,0.2413-0.0765,0.5006-0.0902,0.7511-0.0538,0.2505,0.0365,0.4925,0.1222,0.7171,0.239,0.4492,0.2335,0.8245,0.5858,1.178,0.9487,0.5402,0.5553,1.054,1.163,1.323,1.89,0.2337,0.6309,0.2701,1.321,0.2037,1.991-0.06636,0.6696-0.2319,1.325-0.3927,1.978-0.356,1.447-0.6913,2.898-1.039,4.347-0.4477,1.863-0.9205,3.731-1.701,5.481-0.4937,1.107-1.118,2.195-1.228,3.402-0.02295,0.2513-0.02295,0.5047,0,0.756"/>
		<path d="m90.05,156.1c0.6542-1.483,1.38-2.934,2.173-4.347,0.7408-1.319,1.54-2.604,2.362-3.874,0.7761-1.199,1.583-2.409,1.984-3.78,0.1049-0.3586,0.1813-0.7264,0.3147-1.075,0.1335-0.349,0.3311-0.685,0.6302-0.909,0.2327-0.1743,0.521-0.2731,0.8116-0.2782,0.2907-0.005,0.5822,0.0836,0.8208,0.2496s0.4231,0.4086,0.5194,0.6828c0.09631,0.2743,0.1039,0.5789,0.02146,0.8577"/>
		<path d="m89.58,185.9c0.2105-2.448,0.5897-4.881,1.134-7.276,0.4194-1.846,0.9389-3.685,1.039-5.575,0.0419-0.7881,0.01022-1.58-0.09449-2.362"/>
		<path d="m91.66,170.7c1.464-0.9236,2.705-2.198,3.591-3.685,1.126-1.893,1.661-4.077,2.646-6.048,0.5545-1.11,1.252-2.151,1.701-3.307,0.7183-1.848,0.7643-3.878,0.8504-5.859,0.0658-1.514,0.1603-3.026,0.2835-4.536"/>
		<path d="m100.7,147.3c0.671-0.8642,1.397-1.685,2.173-2.457,0.6013-0.5978,1.232-1.166,1.89-1.701"/>
		<path d="m104.8,143.1c0.2599,1.112,0.2922,2.277,0.0945,3.402-0.2024,1.151-0.6401,2.248-1.134,3.307-0.6436,1.381-1.389,2.719-1.89,4.158-0.4431,1.273-0.6889,2.621-0.6615,3.969,0.0212,1.042,0.2034,2.096,0,3.118-0.2626,1.32-1.131,2.421-1.795,3.591-0.9287,1.634-1.478,3.451-2.173,5.197-0.892,2.241-2.029,4.377-2.929,6.615-0.5545,1.379-1.018,2.793-1.606,4.158-0.813,1.885-1.863,3.667-3.118,5.292"/>
		<path d="m91.47,113.4c-0.4247,1.907-0.649,3.859-0.6682,5.813-0.0067,0.6823,0.01206,1.369,0.1518,2.037,0.1397,0.6678,0.4066,1.32,0.8505,1.838,0.3956,0.4618,0.9139,0.7995,1.434,1.114,0.5204,0.3145,1.055,0.6158,1.506,1.024,0.6066,0.5499,1.032,1.267,1.435,1.98,0.4037,0.7123,0.8023,1.44,1.371,2.029,0.5543,0.574,1.249,0.9926,1.957,1.36,0.7083,0.3676,1.441,0.6919,2.119,1.112,0.9838,0.6094,1.841,1.415,2.539,2.339,0.8145,1.078,1.418,2.337,1.604,3.675,0.0663,0.4797,0.0811,0.9754,0.2634,1.424,0.0912,0.2243,0.2254,0.4344,0.4096,0.5915s0.4212,0.2583,0.6633,0.2562c0.1903-0.002,0.3771-0.0664,0.5381-0.168,0.161-0.1015,0.2973-0.2387,0.4134-0.3895,0.2321-0.3017,0.3844-0.656,0.5853-0.9793,0.4508-0.7254,1.132-1.275,1.67-1.938,1.179-1.451,1.619-3.421,1.403-5.279-0.1044-0.9003-0.3536-1.784-0.735-2.606"/>
		<path d="m91.47,113.4c-0.242-0.1864-0.4211-0.453-0.5023-0.7474-0.08123-0.2944-0.0641-0.6151,0.04805-0.8993,0.1122-0.2841,0.3187-0.53,0.5791-0.6896,0.2605-0.1596,0.5734-0.2319,0.8774-0.2028,0.2428,0.0232,0.4749,0.1083,0.703,0.1946,0.2282,0.0862,0.4583,0.175,0.7002,0.2063,0.2929,0.0379,0.5909-0.0105,0.8752-0.0904s0.5587-0.1912,0.8394-0.2828c0.2807-0.0917,0.5716-0.1642,0.8669-0.1629,0.2953,0.001,0.5976,0.0819,0.8261,0.2689,0.1535,0.1256,0.2686,0.295,0.3402,0.4799,0.07163,0.1849,0.1007,0.3848,0.09693,0.5831-0.0075,0.3965-0.1433,0.7792-0.3035,1.142-0.3518,0.7969-0.8332,1.551-1.002,2.405-0.1531,0.774-0.03632,1.582,0.2107,2.331,0.247,0.7493,0.6201,1.45,0.992,2.146,0.6815,1.275,1.397,2.588,2.539,3.474,1.128,0.8761,2.57,1.255,3.742,2.071,1.144,0.7974,1.993,1.987,3.207,2.673,1.164,0.6578,2.616,0.783,3.875,0.3341"/>
		<path d="m42.5,193.8c-0.1433-1.393,0.01738-2.817,0.4677-4.143,0.3726-1.097,0.9636-2.152,1.871-2.873,0.9285-0.7376,2.173-1.077,3.341-0.8686,0.4099,0.073,0.8108,0.2117,1.163,0.4341,0.3519,0.2224,0.6536,0.5309,0.8417,0.9023,0.1894,0.3739,0.259,0.7985,0.269,1.217,0.01,0.419-0.037,0.8369-0.06852,1.255-0.1144,1.517-0.02429,3.05,0.2673,4.544"/>
		<path d="m42.5,193.8c0.5366,0.3793,1.178,0.6086,1.834,0.6554,0.6555,0.0468,1.323-0.089,1.908-0.3882,0.2143-0.1096,0.4203-0.2416,0.652-0.3069,0.1158-0.0326,0.2377-0.0479,0.3571-0.0332,0.1195,0.0147,0.2365,0.0605,0.3272,0.1397,0.0748,0.0653,0.1295,0.151,0.1714,0.241,0.04195,0.09,0.07198,0.185,0.1044,0.2789,0.03243,0.0939,0.06764,0.1875,0.1189,0.2725,0.05126,0.0851,0.1197,0.1618,0.2066,0.2099,0.07305,0.0404,0.157,0.0593,0.2405,0.0605,0.08348,0.001,0.1666-0.0147,0.246-0.0406,0.1588-0.0517,0.3017-0.1418,0.449-0.2204,0.4714-0.2516,1.003-0.3902,1.537-0.4009"/>
		<path d="m81.45,211.5c-0.6967,2.007-1.82,3.864-3.274,5.412-1.996,2.126-4.553,3.627-7.083,5.078-1.524,0.8741-3.054,1.741-4.544,2.673-3.008,1.881-5.853,4.024-8.954,5.746-2.919,1.622-6.041,2.856-9.221,3.875-1.556,0.4989-3.129,0.9473-4.677,1.47-1.832,0.6182-3.68,1.349-5.613,1.336-0.5362-0.004-1.076-0.066-1.585-0.2335-0.5094-0.1675-0.9889-0.4437-1.355-0.8356-0.2651-0.2838-0.4695-0.6304-0.5532-1.01-0.08371-0.3792-0.04056-0.7915,0.1523-1.129,0.208-0.3636,0.5707-0.6154,0.9528-0.7871,0.3821-0.1716,0.791-0.2743,1.185-0.4156,1.495-0.5358,2.727-1.602,4.009-2.539,3.116-2.278,6.678-3.871,9.889-6.014,2.455-1.638,4.686-3.584,6.949-5.479,2.905-2.433,5.879-4.798,8.553-7.484,2.237-2.247,4.254-4.713,6.014-7.35"/>
		<path d="m72.3,203.8c-1.977-0.0125-3.956,0.2124-5.88,0.6682-2.274,0.5387-4.487,1.401-6.815,1.604-2.134,0.1857-4.273-0.1914-6.414-0.2673-2.143-0.076-4.285,0.1502-6.414,0.4009-2.459,0.2895-4.916,0.6123-7.35,1.069-1.024,0.1922-2.047,0.4085-3.087,0.4682s-2.108-0.044-3.06-0.4682c-0.9054-0.4037-1.67-1.083-2.272-1.871-1.572-2.056-2.038-4.762-2.005-7.35,0.04505-3.434,0.8828-6.825,2.138-10.02,1.415-3.604,3.394-7.033,6.147-9.755,1.54-1.523,3.371-2.84,5.479-3.341,2.506-0.5953,5.126,0.0128,7.617,0.6682,1.095,0.288,2.192,0.5872,3.23,1.038,1.038,0.4514,2.023,1.063,2.783,1.901,1.213,1.336,1.764,3.124,2.405,4.811,0.539,1.417,1.164,2.801,1.871,4.143"/>
		<path d="m60.67,187.5c0.8035-0.026,1.606-0.0846,2.405-0.1756,0.3263-0.0372,0.6547-0.0798,0.9822-0.0547,0.3275,0.025,0.659,0.1237,0.9077,0.3382,0.1565,0.135,0.2737,0.3097,0.3736,0.4905,0.09997,0.1808,0.1847,0.3699,0.2878,0.5489,0.464,0.8052,1.283,1.362,2.163,1.662,0.8795,0.3001,1.821,0.3656,2.751,0.3694,1.144,0.005,2.3-0.0828,3.39-0.4293s2.116-0.9692,2.8-1.886c0.5469-0.7329,0.8539-1.621,1.027-2.519,0.1733-0.8979,0.2204-1.814,0.2956-2.726,0.1549-1.876,0.4285-3.789,0-5.622-0.3463-1.482-1.139-2.843-1.37-4.347-0.274-1.782,0.2634-3.584,0.2835-5.386,0.0127-1.14-0.1819-2.271-0.3307-3.402-0.27-2.052-0.4035-4.171-1.276-6.048-0.7115-1.531-1.884-2.824-2.504-4.394-0.6571-1.663-0.645-3.503-0.6615-5.292-0.02416-2.633-0.13-5.265-0.3307-7.89-0.1913-2.502-0.4691-5.005-0.378-7.512,0.06561-1.806,0.3245-3.61,0.8504-5.339,0.5224-1.717,1.302-3.343,2.079-4.961,1.349-2.809,2.733-5.666,4.866-7.938,2.345-2.497,5.445-4.129,8.504-5.67,2.944-1.482,5.933-2.932,9.119-3.78,1.77-0.4711,3.607-0.7533,5.433-0.6142,0.5615,0.0428,1.123,0.1252,1.685,0.1002,0.5626-0.025,1.14-0.1681,1.575-0.5255,0.4234-0.3476,0.6765-0.8653,1.087-1.228,0.4161-0.3683,0.9631-0.5509,1.504-0.6768,0.5412-0.126,1.097-0.2058,1.614-0.4098,0.7542-0.2977,1.38-0.8404,2.032-1.323,0.9551-0.7071,1.999-1.303,3.118-1.701,1.282-0.4561,2.674-0.6481,4.016-0.4252,0.7255,0.1204,1.431,0.3609,2.079,0.7087"/>
		<path d="m121,99.46c0.0611,0.5961,0.0769,1.197,0.0473,1.795-0.0503,1.018-0.2314,2.024-0.4252,3.024-0.1939,1.001-0.4019,2.005-0.4252,3.024-0.0257,1.121,0.1741,2.241,0.5197,3.307,0.3852,1.189,0.948,2.311,1.465,3.449,0.4905,1.08,0.9486,2.215,0.9449,3.402-0.004,1.309-0.6072,2.604-1.606,3.449"/>
		<path d="m121.6,120.9c-0.1344,0.5586-0.2433,1.123-0.3265,1.692-0.1601,1.094-0.2243,2.201-0.2339,3.307-0.013,1.506,0.0815,3.043,0.6348,4.443,0.333,0.8428,0.8245,1.615,1.37,2.339,0.6603,0.8764,1.403,1.69,2.205,2.439,1.053,0.9842,2.208,1.859,3.441,2.606"/>
		<path d="m133.2,137.8c-0.5994-0.1596-1.217-0.2495-1.837-0.2673-0.9173-0.0263-1.831,0.1045-2.74,0.2339-1.421,0.2024-2.844,0.4022-4.276,0.5011-1.144,0.0791-2.326,0.1011-3.374,0.5679-0.8755,0.3901-1.616,1.095-2.005,1.971-0.4268,0.9624-0.4176,2.055-0.3675,3.107,0.095,1.994,0.3096,3.992,0.1336,5.98-0.113,1.276-0.3861,2.533-0.7016,3.775-0.5521,2.173-1.236,4.315-1.67,6.515-0.3998,2.026-0.587,4.099-1.169,6.08-0.2285,0.7776-0.5196,1.551-0.5495,2.361-0.015,0.405,0.0377,0.8164,0.1918,1.191,0.154,0.3748,0.4136,0.7117,0.7586,0.9244,0.4443,0.2739,1.001,0.3244,1.513,0.2226s0.9856-0.3444,1.427-0.6235c1.307-0.8268,2.391-2.004,3.107-3.374"/>
		<path d="m118.8,147.1c-0.0305,1.007-0.2833,2.006-0.735,2.907-0.5218,1.04-1.304,1.948-1.704,3.04-0.3087,0.8426-0.374,1.751-0.5011,2.639-0.2168,1.515-0.6197,2.995-1.002,4.477-0.3896,1.509-0.7608,3.028-1.336,4.477-0.6975,1.755-1.684,3.378-2.572,5.045-0.7954,1.492-1.515,3.026-2.105,4.61-0.4298,1.156-0.79,2.338-1.27,3.475-0.5819,1.379-1.344,2.691-2.339,3.809-0.4218,0.474-0.8891,0.9184-1.203,1.47-0.1264,0.2222-0.2266,0.4613-0.2743,0.7125-0.0476,0.2512-0.0411,0.5152,0.0404,0.7575,0.0857,0.2545,0.2505,0.4764,0.4421,0.6646,0.1916,0.1881,0.4106,0.3456,0.627,0.5048,0.8688,0.639,1.709,1.316,2.539,2.005,0.869,0.7214,1.727,1.457,2.572,2.205"/>
		<path d="m132,108.1c0.5253-0.6325,0.935-1.361,1.203-2.138,0.412-1.196,0.4823-2.508,0.2004-3.742"/>
		<path d="m133.4,102.2c0.768,0.3602,1.548,0.6946,2.339,1.002,0.7485,0.2913,1.506,0.5588,2.272,0.8018"/>
		<path d="m132,108.1c0.6554,0.1689,1.263,0.5194,1.737,1.002,0.3544,0.3607,0.642,0.7984,1.069,1.069,0.2403,0.1523,0.5182,0.2449,0.8018,0.2673"/>
		<path d="m135.6,110.4c-0.0608-0.8253-0.0158-1.658,0.1336-2.472,0.1191-0.6489,0.304-1.285,0.4009-1.938,0.0679-0.4575,0.0978-0.9388,0.3341-1.336,0.1524-0.2564,0.387-0.4632,0.6606-0.5821,0.2736-0.119,0.5848-0.1495,0.8762-0.0861"/>
		<path d="m122.4,99.58c-0.001-0.1337-0.006-0.2674,0-0.4009,0.0367-0.7893,0.4583-1.508,0.9354-2.138,1.581-2.086,3.853-3.547,6.214-4.677,1.942-0.9294,4.003-1.67,6.147-1.871,1.808-0.169,3.661,0.05692,5.345,0.735,2.231,0.8981,4.089,2.549,5.613,4.41,1.406,1.717,2.578,3.666,3.14,5.813,0.4495,1.715,0.5,3.521,0.2673,5.279-0.3095,2.337-1.113,4.592-2.205,6.682-0.9407,1.8-2.136,3.526-3.809,4.677-1.743,1.199-3.867,1.687-5.947,2.071-2.184,0.4039-4.44,0.7204-6.615,0.2673-2.159-0.4498-4.119-1.649-5.679-3.207-2.106-2.103-3.522-4.882-4.009-7.818-0.3481-2.098-0.2319-4.253,0.1336-6.348,0.2012-1.153,0.4784-2.304,0.4677-3.474z"/>
		<path d="m121.7,166.9c-0.1378,0.8001-0.1662,1.619-0.0842,2.427,0.1213,1.195,0.4817,2.355,0.9213,3.473,0.1354,0.3443,0.2807,0.6896,0.5024,0.9857s0.5298,0.5424,0.8914,0.6207c0.2451,0.0531,0.5051,0.0261,0.7389-0.0646s0.4416-0.2435,0.6076-0.4315c0.2471-0.2798,0.3991-0.6289,0.543-0.9734s0.2867-0.696,0.5201-0.9874c0.3817-0.4764,0.9666-0.7451,1.394-1.181,0.349-0.3562,0.5831-0.8144,0.9449-1.158,0.5123-0.4858,1.272-0.6962,1.961-0.5433"/>
		<path d="m130.6,169.1c0.2944,0.2625,0.5105,0.6117,0.6142,0.9922,0.1542,0.5658,0.0607,1.171,0.1654,1.748,0.0421,0.2321,0.1171,0.4599,0.2378,0.6626s0.2887,0.3797,0.4945,0.495c0.2221,0.1244,0.4827,0.1733,0.7368,0.1572s0.5019-0.0952,0.7281-0.2122c0.4523-0.2339,0.8122-0.6102,1.157-0.9845,0.6353-0.6889,1.252-1.395,1.866-2.102,0.4026-0.4638,0.8042-0.9284,1.205-1.394"/>
		<path d="m137.8,168.5c0.1573,0.4799,0.4566,0.9123,0.8504,1.228,0.3724,0.2989,0.8236,0.4921,1.291,0.5897s0.9512,0.102,1.426,0.0481c1.045-0.1187,2.06-0.5255,2.882-1.181,0.9048-0.7212,1.553-1.712,2.126-2.717,0.1659-0.291,0.3277-0.5865,0.4392-0.9024s0.1714-0.6553,0.1278-0.9875c-0.0282-0.2149-0.0986-0.4216-0.1477-0.6327-0.049-0.2111-0.0762-0.4343-0.0177-0.643,0.0607-0.2164,0.2075-0.3968,0.3544-0.567,0.4115-0.4766,0.8537-0.9267,1.323-1.347"/>
		<path d="m148.5,161.3c0.0916,0.6471,0.0346,1.315-0.1654,1.937-0.1703,0.5298-0.4435,1.032-0.5197,1.583-0.0843,0.6099,0.0798,1.224,0.2362,1.819,0.2364,0.8998,0.4586,1.804,0.6378,2.717,0.137,0.6978,0.255,1.418,0.6142,2.032,0.1247,0.2131,0.2785,0.4114,0.4693,0.5682,0.1908,0.1567,0.4202,0.2707,0.6646,0.3059,0.2974,0.0428,0.603-0.0326,0.8722-0.1661s0.5066-0.3227,0.7342-0.519c0.8295-0.7153,1.564-1.55,2.102-2.504,0.2955-0.5232,0.5309-1.08,0.7087-1.654,0.2339-0.755,0.3698-1.543,0.6851-2.268,0.3607-0.8293,0.9416-1.542,1.37-2.339,0.914-1.698,1.097-3.692,1.819-5.481,0.4342-1.076,1.065-2.082,1.323-3.213,0.1941-0.8502,0.1687-1.734,0.2835-2.599,0.0931-0.7014,0.2781-1.387,0.4252-2.079,0.1586-0.7464,0.2727-1.526,0.0945-2.268-0.1181-0.4918-0.3647-0.9521-0.7087-1.323"/>
		<path d="m160.1,145.9c0.1899-0.1442,0.3661-0.3064,0.5255-0.4837,0.1442-0.1603,0.2788-0.3365,0.4648-0.4457,0.093-0.0546,0.1983-0.091,0.3061-0.093s0.218,0.0323,0.2982,0.1044c0.0492,0.0442,0.086,0.1013,0.1105,0.1627,0.0246,0.0614,0.0373,0.1271,0.0423,0.1931,0.0101,0.1319-0.01,0.264-0.0193,0.3959-0.0519,0.7233,0.2092,1.427,0.3508,2.138,0.1825,0.9169,0.1665,1.867,0.0167,2.79-0.1783,1.098-0.5433,2.16-1.002,3.174-0.3289,0.7264-0.7066,1.431-1.002,2.172-0.4323,1.083-0.6834,2.227-0.9689,3.358-0.2465,0.9759-0.5201,1.947-0.6849,2.94-0.1802,1.086-0.2286,2.197-0.1002,3.291,0.007,0.0555,0.0135,0.1109,0.0209,0.1663"/>
		<path d="m172.7,163.2c0.4698-0.4824,0.869-1.033,1.181-1.63,0.804-1.537,1.007-3.321,0.9686-5.055-0.0159-0.7198-0.0709-1.44-0.0403-2.159,0.0306-0.7193,0.1504-1.446,0.4655-2.093,0.2691-0.5529,0.6723-1.032,0.9449-1.583,0.3459-0.6991,0.4687-1.49,0.4864-2.27,0.0177-0.7798-0.065-1.558-0.1084-2.337-0.1716-3.08,0.2714-6.156,0.6851-9.213,0.1808-1.336,0.3563-2.673,0.4725-4.016,0.1503-1.738,0.2011-3.483,0.3544-5.221,0.0991-1.123,0.241-2.242,0.4252-3.355"/>
		<path d="m178.5,124.3c0.3873-0.1378,0.7732-0.2796,1.158-0.4252,1.151-0.4364,2.309-0.9191,3.26-1.701,1.022-0.8395,1.747-1.974,2.551-3.024,0.367-0.4789,0.7568-0.9467,1.228-1.323,0.3626-0.2893,0.7708-0.5214,1.205-0.6851"/>
		<path d="m187.9,117.1c-0.0671,1.219-0.0828,2.441-0.0472,3.662,0.0377,1.292,0.133,2.582,0.1181,3.874-0.0132,1.147-0.1132,2.292-0.2835,3.425-0.2028,1.35-0.505,2.683-0.8032,4.016-0.2553,1.141-0.5083,2.284-0.8504,3.402-0.4223,1.38-0.9781,2.714-1.488,4.063-0.4484,1.186-0.862,2.386-1.323,3.567-0.513,1.315-1.084,2.606-1.654,3.898-0.7699,1.746-1.556,3.524-2.811,4.961-0.5882,0.6732-1.29,1.29-1.606,2.126-0.2656,0.7021-0.2263,1.477-0.3307,2.221-0.1221,0.8693-0.448,1.71-0.9449,2.433-0.353,0.514-0.7928,0.9736-1.063,1.536-0.2813,0.585-0.361,1.243-0.5433,1.866-0.1828,0.6249-0.4717,1.219-0.8504,1.748"/>
		<path d="m133.2,137.8c0.2984,0.1304,0.5623,0.3386,0.7587,0.5984,0.2397,0.3171,0.3739,0.6989,0.5215,1.068,0.1476,0.369,0.3196,0.7423,0.6125,1.011,0.2819,0.2586,0.6548,0.399,1.031,0.469,0.376,0.07,0.7606,0.0753,1.142,0.098,0.4142,0.0246,0.8278,0.0698,1.243,0.0653,0.4149-0.005,0.8356-0.061,1.214-0.2306,0.5925-0.2654,1.03-0.7807,1.559-1.158,1.024-0.7298,2.327-0.9063,3.567-1.11,1.085-0.1784,2.167-0.3946,3.213-0.7323,1.017-0.3282,2.004-0.7753,2.858-1.417,1.298-0.9758,2.228-2.351,3.118-3.709,0.7072-1.078,1.407-2.166,1.961-3.331,0.357-0.7512,0.653-1.535,1.087-2.244,0.7194-1.177,1.804-2.13,2.339-3.402,0.4633-1.102,0.47-2.347,0.8741-3.473,0.3228-0.899,0.8882-1.692,1.252-2.575,0.6403-1.554,0.621-3.314,0.2835-4.961-0.2944-1.436-0.8184-2.814-1.347-4.181-0.5626-1.457-1.132-2.911-1.748-4.347-0.8444-1.969-1.775-3.9-2.788-5.788"/>
		<path d="m156,98.42c0.1606-0.2495,0.4055-0.4437,0.6851-0.5433,0.1431-0.05098,0.2936-0.07753,0.4403-0.1168,0.1467-0.03931,0.2932-0.09329,0.4102-0.1903,0.157-0.1302,0.2462-0.3268,0.2903-0.526s0.0479-0.4046,0.0641-0.608c0.0704-0.8862,0.3756-1.737,0.7323-2.551,0.2065-0.4713,0.4325-0.9368,0.7249-1.36,0.2924-0.4234,0.6545-0.8054,1.094-1.073,0.4371-0.266,0.9388-0.4119,1.445-0.4861,0.5062-0.07419,1.02-0.07924,1.531-0.08082,0.7821-0.0024,1.569,0.0034,2.339,0.1417,1.179,0.2119,2.286,0.731,3.284,1.394,1.09,0.7246,2.057,1.619,2.977,2.551,0.7591,0.7693,1.494,1.572,2.079,2.48,0.3503,0.5438,0.6468,1.127,0.8268,1.748,0.2434,0.8399,0.2685,1.725,0.3071,2.599,0.0279,0.6313,0.0637,1.263,0.1418,1.89,0.0836,0.6708,0.2154,1.335,0.2835,2.008,0.0795,0.7851,0.0716,1.579-0.0236,2.362"/>
		<path d="m175.6,108.1c0.5687-0.68,1.168-1.335,1.795-1.961,1.589-1.586,3.357-2.99,4.89-4.63,1.091-1.168,2.055-2.447,3.095-3.662,0.656-0.7663,1.343-1.507,2.079-2.197,1.379-1.292,3.003-2.43,4.866-2.74,1.349-0.2242,2.739,0.0026,4.04,0.4252,1.057,0.3437,2.081,0.822,2.953,1.512,1.268,1.004,2.155,2.401,3,3.78,1.041,1.698,2.076,3.455,2.457,5.41,0.2584,1.328,0.2038,2.695,0.3544,4.04,0.1775,1.585,0.6387,3.124,0.8741,4.701,0.1574,1.055,0.2133,2.123,0.2126,3.189-0.001,1.763-0.1563,3.525-0.4252,5.268-0.3481,2.256-0.886,4.478-1.465,6.685-0.4408,1.682-0.9056,3.357-1.37,5.032-0.5377,1.939-1.082,3.896-2.032,5.67-0.6048,1.13-1.366,2.171-1.961,3.307-0.669,1.279-1.117,2.659-1.606,4.016-0.5728,1.587-1.208,3.155-1.984,4.654-0.9797,1.891-2.178,3.66-3.425,5.386-0.8662,1.199-1.758,2.379-2.669,3.544-0.8819,1.126-1.783,2.237-2.646,3.378-0.8489,1.122-1.661,2.273-2.433,3.449"/>
		<path d="m117.7,64.7c0.166-0.04801,0.355-0.0074,0.4866,0.1045,0.1317,0.1119,0.2022,0.2919,0.1815,0.4635-0.0138,0.1144-0.0651,0.2218-0.1324,0.3153-0.0674,0.09349-0.1505,0.1743-0.2351,0.2526-0.4875,0.4517-1.033,0.8358-1.537,1.27-0.3705,0.3191-0.7198,0.6671-1.001,1.067-0.281,0.4002-0.4926,0.8552-0.5694,1.338-0.112,0.7037,0.0717,1.439,0.4472,2.044,0.3754,0.6057,0.9331,1.086,1.557,1.43,1.042,0.5735,2.262,0.7789,3.274,1.403,0.4489,0.2768,0.8456,0.6295,1.275,0.9356s0.9075,0.571,1.431,0.6346c0.4781,0.05812,0.9664-0.05734,1.4-0.2672,0.4335-0.2098,0.817-0.5106,1.173-0.8353,1.019-0.9304,1.829-2.066,2.806-3.04,0.4009-0.3998,0.8344-0.7755,1.335-1.039,0.5011-0.2635,1.077-0.4098,1.638-0.3307,0.551,0.07771,1.049,0.3635,1.516,0.6649,0.4678,0.3014,0.9293,0.6281,1.457,0.8051,0.5842,0.1959,1.215,0.1962,1.83,0.1541,0.6148-0.04215,1.23-0.1247,1.845-0.08727,1.572,0.0958,3.069,1.033,3.842,2.405"/>
		<path d="m117.7,64.7c-0.4352,0.2162-0.8497,0.4739-1.236,0.7684-0.8453,0.6442-1.559,1.474-2.005,2.439-0.5441,1.179-0.6712,2.512-0.6014,3.809,0.0653,1.212,0.2986,2.422,0.7684,3.541,0.3746,0.8926,0.9232,1.748,1.737,2.272,0.7998,0.5146,1.791,0.664,2.74,0.6014,1.167-0.07702,2.291-0.4514,3.408-0.8018,1.946-0.6111,3.914-1.158,5.908-1.591,2.213-0.4803,4.456-0.8188,6.709-1.039,2.191-0.2145,4.392-0.3178,6.593-0.3093"/>
		<path d="m118.3,98.46c0.9497-0.4516,1.796-1.119,2.457-1.937,0.5386-0.6669,0.953-1.429,1.512-2.079,1.208-1.404,2.974-2.169,4.536-3.166,1.079-0.6891,2.075-1.502,3.024-2.362,0.8468-0.7681,1.685-1.593,2.74-2.032,1.3-0.5402,2.779-0.428,4.158-0.1417,1.616,0.3355,3.176,0.8944,4.725,1.465,1.941,0.7148,3.886,1.456,5.67,2.504,1.957,1.151,3.684,2.651,5.339,4.205,1.206,1.132,2.379,2.298,3.52,3.496"/>
		<path d="m174.5,97.67c-0.1878-1.014-0.5029-2.004-0.9354-2.94-0.6725-1.455-1.619-2.763-2.539-4.076-1.44-2.055-2.83-4.146-4.343-6.147-0.6358-0.8407-1.293-1.665-1.971-2.472"/>
		<path d="m164.7,82.04c0.5585-0.07794,1.115-0.1671,1.67-0.2673,2.274-0.4107,4.512-1.007,6.715-1.704,2.098-0.663,4.168-1.417,6.181-2.305,3.419-1.508,6.668-3.402,9.655-5.646,2.105-1.581,4.076-3.332,6.047-5.078,1.434-1.27,2.874-2.545,4.109-4.009,0.8539-1.012,1.604-2.106,2.339-3.207,0.3418-0.5122,0.6866-1.039,0.8352-1.637,0.1377-0.5537,0.0984-1.133,0.1002-1.704,0.00056-0.1748,0.005-0.3521-0.0382-0.5215-0.0215-0.08472-0.0549-0.167-0.104-0.2393-0.0491-0.07231-0.1143-0.1345-0.1919-0.1747-0.1059-0.05483-0.2296-0.0664-0.3486-0.05752-0.119,0.0089-0.2355,0.037-0.353,0.05752-0.4304,0.07517-0.8744,0.04855-1.303,0.1336-0.7264,0.1442-1.348,0.5937-2.005,0.9354-0.9109,0.4738-1.91,0.7467-2.873,1.102-1.987,0.734-3.821,1.821-5.713,2.773-2.688,1.353-5.504,2.437-8.352,3.408-1.747,0.5954-3.508,1.149-5.279,1.67-1.439,0.424-2.89,0.8281-4.377,1.036-2.44,0.3409-4.92,0.1454-7.383,0.2004-1.75,0.03907-3.507,0.2045-5.245,0-1.707-0.2008-3.353-0.7543-4.944-1.403-1.644-0.6703-3.249-1.448-4.744-2.405-1.73-1.108-3.299-2.445-4.944-3.675-1.172-0.8756-2.394-1.703-3.742-2.272-0.6079-0.2565-1.238-0.4591-1.837-0.735-1.167-0.537-2.19-1.339-3.307-1.971-1.728-0.9776-3.655-1.536-5.512-2.238-1.906-0.7212-3.756-1.602-5.713-2.172-1.882-0.5478-3.863-0.801-5.813-0.6014-2.017,0.2064-3.949,0.8868-5.88,1.503-1.586,0.5065-3.196,0.977-4.677,1.737-1.555,0.798-2.942,1.904-4.143,3.174-1.19,1.259-2.203,2.679-3.074,4.176-1.063,1.828-1.923,3.787-2.405,5.847-0.6986,2.983-0.5845,6.144,0.2673,9.087,0.7181,2.481,1.948,4.799,3.475,6.882,0.9338,1.275,1.983,2.47,3.174,3.508,0.5694,0.4965,1.191,0.9825,1.503,1.67,0.156,0.3435,0.2255,0.7366,0.1336,1.102-0.0852,0.3395-0.3056,0.6365-0.5837,0.849-0.2781,0.2124-0.6114,0.3446-0.9531,0.4206-0.6545,0.1455-1.334,0.09145-2.005,0.1002-1.394,0.01824-2.767,0.3106-4.143,0.5345-1.962,0.3193-3.944,0.5007-5.913,0.7684-1.495,0.2032-2.983,0.456-4.477,0.6682-2.846,0.4043-5.713,0.6609-8.586,0.7684"/>
		<path d="m79.95,92.13c-0.3337-0.1045-0.6959-0.1162-1.036-0.03341-0.2232,0.05438-0.4372,0.1493-0.6226,0.285s-0.3417,0.3124-0.4465,0.5168c-0.1326,0.2586-0.1802,0.5587-0.1421,0.8469,0.03805,0.2882,0.1605,0.5636,0.3426,0.7901,0.2016,0.2509,0.472,0.44,0.7615,0.5807,0.2894,0.1407,0.5988,0.2354,0.909,0.3214,1.026,0.2844,2.074,0.4798,3.107,0.735,1.991,0.4917,3.919,1.204,5.88,1.804,1.965,0.6014,3.963,1.091,5.913,1.737,1.327,0.4399,2.631,0.9521,3.976,1.336,1.19,0.34,2.406,0.5781,3.608,0.8686,1.446,0.3493,2.874,0.7745,4.276,1.27,0.0563,0.0199,0.1127,0.0399,0.1689,0.06"/>
	</g>
</svg>
