<svg width="285mm" xmlns="http://www.w3.org/2000/svg" viewBox="0 0 285 375" version="1.1" height="375mm">
	<g stroke="#000" stroke-width="0.25px" fill-opacity="0.01">
		<g>
			<path d="m108.2,163.4c0.3636-0.1805,0.8043-0.1982,1.181-0.0473,0.3806,0.1524,0.6797,0.4598,0.9154,0.7952s0.419,0.7047,0.6437,1.047c0.5696,0.8685,1.386,1.54,2.126,2.268,1.989,1.955,3.463,4.359,5.103,6.615,1.466,2.018,3.076,3.932,4.819,5.717,1.203,1.232,2.483,2.418,3.402,3.874,0.2204,0.3493,0.4202,0.7142,0.6862,1.03,0.266,0.3159,0.6106,0.585,1.015,0.6707,0.3479,0.0738,0.7156,0.005,1.039-0.1417,0.4649-0.211,0.8458-0.5753,1.157-0.98,0.3113-0.4047,0.5604-0.8527,0.8274-1.288,1.214-1.979,2.802-3.696,4.394-5.386,2.017-2.141,4.068-4.273,5.717-6.709,1.009-1.491,1.859-3.082,2.693-4.677,0.7634-1.46,1.526-2.957,1.795-4.583,0.0402-0.2423,0.0694-0.4872,0.1344-0.724s0.1686-0.4684,0.3381-0.6462c0.1268-0.1329,0.2868-0.2316,0.4575-0.2992,0.1707-0.0677,0.3522-0.1052,0.5347-0.126,0.6166-0.0702,1.238,0.0483,1.843,0.189,1.268,0.2949,2.536,0.7016,3.591,1.465,0.4481,0.3243,0.8615,0.7232,1.087,1.228,0.147,0.33,0.2078,0.6916,0.2473,1.051,0.0396,0.3591,0.0594,0.7213,0.1307,1.075,0.1768,0.8788,0.6622,1.667,1.228,2.362,1.574,1.932,3.767,3.234,5.764,4.725,1.715,1.28,3.307,2.718,5.008,4.016,1.858,1.418,3.841,2.664,5.811,3.922,1.834,1.17,3.666,2.355,5.622,3.307,0.9914,0.4825,2.026,0.912,2.882,1.606,0.1934,0.1568,0.3826,0.3349,0.4725,0.567,0.0766,0.1976,0.0735,0.4207,0.0156,0.6246s-0.168,0.39-0.2991,0.5565c-0.2505,0.3182-0.5772,0.5689-0.9216,0.7819-0.3444,0.2131-0.7089,0.3914-1.063,0.5882-1.934,1.076-3.511,2.676-5.197,4.11-0.9799,0.8337-2.003,1.616-2.977,2.457-0.8268,0.7143-1.63,1.479-2.599,1.984-0.8072,0.4208-1.715,0.6529-2.457,1.181-0.9486,0.6759-1.512,1.751-2.126,2.74-0.6888,1.109-1.481,2.155-2.362,3.118"/>
			<path d="m160.9,203.4c0.9352,0.3267,1.96,0.3928,2.929,0.189,0.7483-0.1573,1.462-0.471,2.221-0.567,0.8202-0.1038,1.66,0.0546,2.425,0.3669,0.7654,0.3123,1.462,0.774,2.11,1.287,1.342,1.061,2.519,2.384,3.166,3.969,0.4256,1.044,0.6111,2.181,0.567,3.307-0.0369,0.9425-0.2359,1.886-0.6494,2.733-0.4134,0.8478-1.048,1.597-1.855,2.086-0.6861,0.4154-1.479,0.6338-2.277,0.7166-0.7978,0.0827-1.604,0.0341-2.401-0.0551-1.655-0.1853-3.296-0.5457-4.961-0.567-2.149-0.0274-4.261,0.5101-6.331,1.087-4.102,1.143-8.189,2.461-12.43,2.882-2.091,0.2078-4.201,0.195-6.284,0.4725-1.9,0.2532-3.763,0.7467-5.575,1.37-1.536,0.5284-3.046,1.152-4.63,1.512-1.715,0.3891-3.486,0.4611-5.244,0.4252-1.768-0.0361-3.595-0.1969-5.15-1.039-1.461-0.7918-2.552-2.115-3.544-3.449-1.21-1.628-2.332-3.323-3.591-4.914-0.5337-0.6741-1.092-1.33-1.701-1.937-0.1952-0.1948-0.3979-0.3877-0.5382-0.6252-0.0702-0.1187-0.1239-0.2481-0.1484-0.3838-0.0246-0.1357-0.0192-0.2779,0.0252-0.4085,0.06-0.1764,0.1896-0.3247,0.3468-0.4249,0.1572-0.1001,0.3405-0.1543,0.5256-0.176,0.3702-0.0432,0.7417,0.0394,1.112,0.0811,1.512,0.1701,3.007-0.3424,4.441-0.8504,0.5571-0.1974,1.117-0.3962,1.7-0.4943,0.5828-0.0981,1.195-0.091,1.749,0.1163,0.591,0.2213,1.075,0.6522,1.606,0.9922,1.565,1.001,3.623,1.183,5.339,0.4725"/>
			<path d="m108.2,163.4c-0.2834,1.769-0.3056,3.579-0.0656,5.354,0.2862,2.117,0.9389,4.163,1.537,6.214,1.045,3.584,1.93,7.212,2.873,10.82,1.186,4.542,2.467,9.061,3.541,13.63,0.3781,1.608,0.7318,3.226,1.28,4.784s1.301,3.065,2.395,4.303c0.7026,0.7946,1.535,1.466,2.405,2.071,0.5417,0.3767,1.1,0.7296,1.673,1.057"/>
			<path d="m126.6,211c0.7403-0.8613,1.498-1.708,2.272-2.539,0.3791-0.4071,0.7728-0.8186,1.27-1.069,0.4474-0.2256,0.9559-0.3087,1.403-0.5345,0.534-0.2697,0.9522-0.7307,1.264-1.241,0.3118-0.5106,0.5265-1.073,0.7406-1.632,0.9112-2.377,1.855-4.768,3.274-6.882,0.6674-0.9942,1.434-1.918,2.107-2.909,0.6726-0.9907,1.257-2.066,1.501-3.238,0.1536-0.7374,0.1732-1.512,0.4677-2.205,0.3676-0.8653,1.116-1.498,1.804-2.138,2.498-2.322,4.512-5.161,5.88-8.285"/>
			<path d="m148.5,178.3c1.041,0.502,2.066,1.037,3.074,1.604,1.702,0.9578,3.354,2.007,4.944,3.14"/>
			<path d="m156.6,183c-0.8086,0.5576-1.569,1.184-2.272,1.871-0.7798,0.7625-1.486,1.598-2.138,2.472-0.8752,1.174-1.652,2.419-2.405,3.675-1.14,1.9-2.231,3.829-3.341,5.746-0.9449,1.632-1.908,3.262-3.074,4.744-0.4465,0.5678-0.9243,1.116-1.285,1.742-0.3605,0.626-0.6004,1.348-0.5192,2.066,0.0345,0.3049,0.1254,0.6,0.204,0.8966s0.1455,0.601,0.1301,0.9074c-0.028,0.5574-0.3419,1.087-0.8018,1.403-0.4335,0.298-0.9708,0.4084-1.496,0.4326-0.5255,0.0241-1.051-0.031-1.577-0.0316-1.779-0.002-3.491,0.6152-5.212,1.069-2.029,0.5354-4.117,0.8496-6.214,0.9354"/>
			<path d="m95.96,224.4c0.4508-0.0989,0.9094-0.1621,1.37-0.189,1.216-0.0709,2.432,0.1118,3.638,0.2835,2.768,0.3939,5.543,0.7326,8.315,1.087,2.984,0.381,5.971,0.7802,8.977,0.8977,2.642,0.1033,5.305-0.0134,7.89-0.567,3.007-0.6439,5.86-1.867,8.835-2.646,2.905-0.7609,5.902-1.093,8.882-1.465,2.493-0.3111,4.983-0.6516,7.465-1.039,2.442-0.3816,4.88-0.8096,7.276-1.417,1.649-0.4184,3.307-0.9257,5.008-0.8977,1.355,0.0223,2.68,0.3845,3.969,0.8032,3.6,1.17,7.033,2.795,10.44,4.441,0.9524,0.4599,1.92,0.9324,2.693,1.654,0.7591,0.7078,1.306,1.632,2.126,2.268,0.8,0.6195,1.795,0.9153,2.74,1.276,1.318,0.5023,2.611,1.159,4.016,1.276,0.2571,0.0213,0.5173,0.0243,0.7686,0.0826,0.1256,0.0291,0.2487,0.0722,0.3608,0.1361,0.1121,0.0638,0.2132,0.1488,0.288,0.2538,0.1152,0.1616,0.1636,0.3653,0.1559,0.5636-0.008,0.1984-0.0688,0.3919-0.1559,0.5703-0.1943,0.3979-0.5132,0.7208-0.8479,1.011-0.3347,0.2899-0.6921,0.5559-0.9948,0.8792-0.2458,0.2625-0.452,0.5591-0.6849,0.833-0.233,0.2739-0.4998,0.5298-0.827,0.6789-0.4271,0.1946-0.9166,0.1901-1.384,0.1481-0.4675-0.0421-0.9386-0.118-1.404-0.0536-0.4843,0.0671-0.935,0.2831-1.36,0.5245-0.4252,0.2414-0.836,0.5119-1.286,0.7039-0.2254,0.0962-0.4596,0.1723-0.678,0.2834s-0.4245,0.2624-0.5504,0.4726c-0.1544,0.2579-0.1719,0.5774-0.1265,0.8745s0.1484,0.582,0.221,0.8736c0.1018,0.4086,0.144,0.8351,0.09,1.253-0.054,0.4176-0.2071,0.8263-0.4679,1.157-0.2219,0.2813-0.5145,0.499-0.8194,0.6872-0.305,0.1882-0.6256,0.3502-0.9287,0.5412-0.6304,0.3974-1.191,0.9337-1.512,1.606-0.2652,0.5563-0.3556,1.179-0.3964,1.794-0.0408,0.6149-0.0353,1.234-0.1233,1.844-0.2011,1.393-0.8762,2.666-1.512,3.922-0.693,1.369-1.359,2.768-2.315,3.969-0.8487,1.066-1.917,1.956-3.118,2.599"/>
			<path d="m170,258.4c0.6657-0.4004,1.407-0.6745,2.173-0.8032,1.215-0.2041,2.457-0.0437,3.685,0.0472,2.451,0.1813,4.913,0.0833,7.371,0.1417,2.481,0.059,4.992,0.2852,7.323,1.134,2.233,0.8126,4.221,2.166,6.189,3.496,2.186,1.478,4.379,2.945,6.615,4.347,2.197,1.378,4.432,2.692,6.662,4.016,2.751,1.634,5.495,3.284,8.126,5.103,1.503,1.039,2.968,2.132,4.441,3.213,0.5497,0.4035,1.103,0.8067,1.701,1.134,0.1504,0.0823,0.3044,0.1601,0.441,0.2638,0.1366,0.1036,0.2568,0.2364,0.3149,0.3977,0.0611,0.1695,0.0489,0.3596-0.009,0.5301-0.0581,0.1705-0.1595,0.3233-0.2743,0.4621-0.4122,0.4983-0.9915,0.8241-1.559,1.134-1.256,0.6853-2.523,1.349-3.78,2.032-1.223,0.6644-2.437,1.348-3.591,2.126-1.634,1.101-3.142,2.388-4.488,3.827-1.282,1.37-2.416,2.874-3.449,4.441-1.42,2.154-2.651,4.426-4.016,6.615-0.9947,1.595-2.061,3.145-3.213,4.63-1.628,2.099-3.426,4.066-5.386,5.859-1.81,1.656-3.753,3.159-5.717,4.63-2.506,1.877-5.061,3.712-7.843,5.15-2.994,1.548-6.218,2.618-9.497,3.402-3.373,0.8065-6.838,1.323-10.06,2.599-0.5167,0.2044-1.029,0.4289-1.57,0.5566-0.5408,0.1277-1.121,0.1537-1.643-0.0369-0.2396-0.0875-0.4621-0.2189-0.6615-0.378-0.5356-0.4274-0.8937-1.044-1.126-1.689-0.2322-0.6447-0.349-1.324-0.4805-1.997-0.6214-3.178-1.593-6.28-2.74-9.308-1.342-3.542-2.927-6.992-4.772-10.3-1.354-2.428-2.85-4.781-4.536-6.993-0.9658-1.267-2.011-2.517-2.551-4.016-0.2028-0.5625-0.3302-1.152-0.378-1.748"/>
			<path d="m141.7,292.4c-0.4008,0.251-0.8295,0.4574-1.276,0.6143-1.106,0.3888-2.293,0.4664-3.449,0.6615-1.93,0.3256-3.786,0.9818-5.67,1.512-2.044,0.5752-4.13,1.004-6.237,1.276-2.007,0.2592-4.101,0.3671-6-0.3307-1.79-0.6576-3.247-1.97-4.866-2.977-0.9576-0.595-1.978-1.086-2.919-1.708-0.9404-0.6218-1.815-1.398-2.326-2.403-0.3666-0.7218-0.5308-1.544-0.4783-2.352,0.0524-0.8079,0.3204-1.6,0.7618-2.278,0.6527-1.003,1.684-1.748,2.835-2.079,0.7346-0.2112,1.521-0.2579,2.268-0.0945,0.7218,0.1579,1.386,0.5036,2.064,0.7965,0.6783,0.2929,1.404,0.5391,2.141,0.4792,0.5851-0.0476,1.138-0.2861,1.654-0.567,0.9443-0.5145,1.8-1.179,2.74-1.701,1.553-0.8625,3.327-1.322,5.103-1.323"/>
			<path d="m128,279.9v-2.173"/>
			<path d="m128,277.8c-0.8004,0.2635-1.589,0.5631-2.362,0.8977-1.008,0.4362-2,0.9351-3.071,1.181-1.218,0.2799-2.484,0.221-3.733,0.189-1.716-0.044-3.433-0.0342-5.15,0-1.276,0.0254-2.553,0.0644-3.827,0-1.104-0.0557-2.218-0.1883-3.307,0-0.5313,0.0919-1.046,0.2588-1.559,0.4252-0.3508,0.1138-0.7043,0.2289-1.025,0.4109-0.3208,0.182-0.6104,0.4379-0.7703,0.7702-0.1371,0.285-0.1716,0.6116-0.1404,0.9262,0.0312,0.3147,0.1252,0.6198,0.2349,0.9164,0.3962,1.071,0.9994,2.051,1.512,3.071,0.8491,1.691,1.451,3.499,1.89,5.339,0.3114,1.304,0.5428,2.628,0.8977,3.922,0.5012,1.826,1.246,3.584,1.654,5.433,0.439,1.994,0.4759,4.053,0.4725,6.095-0.006,3.609-0.1321,7.219-0.378,10.82"/>
			<path d="m109.4,318.2c-0.8744-0.4448-1.726-0.9338-2.551-1.465-3.153-2.029-5.894-4.657-8.268-7.56-1.847-2.258-3.482-4.687-4.914-7.229-2.154-3.826-3.84-7.893-5.622-11.91-0.7237-1.63-1.464-3.252-2.221-4.866"/>
			<path d="m85.8,285.1c-1.012,0.351-2.058,0.6045-3.118,0.756-1.523,0.2175-3.073,0.225-4.583,0.5197-1.952,0.3811-3.777,1.23-5.575,2.079-2.036,0.9607-4.071,1.932-6.189,2.693-2.182,0.7835-4.491,1.344-6.804,1.181-2.361-0.1658-4.636-1.089-6.567-2.457-1.204-0.8525-2.285-1.877-3.213-3.024-1.402-1.733-2.442-3.725-3.685-5.575-0.6264-0.932-1.307-1.831-2.079-2.646-0.1959-0.2068-0.3985-0.4091-0.5655-0.64-0.167-0.2308-0.2986-0.4945-0.3322-0.7774-0.0361-0.3037,0.044-0.6147,0.1941-0.8812s0.3672-0.4908,0.6091-0.678c0.5305-0.4106,1.181-0.6481,1.843-0.7559,1.556-0.2535,3.128,0.1808,4.677,0.4725,2.099,0.3952,4.243,0.5309,6.378,0.4725,3.617-0.099,7.198-0.7514,10.73-1.559,3.169-0.7256,6.318-1.58,9.544-1.984,4.375-0.5487,8.834-0.263,13.18-0.9922,2.499-0.4191,4.943-1.171,7.465-1.417,2.536-0.248,5.137,0.016,7.607-0.6142,1.11-0.2834,2.167-0.7419,3.26-1.087,1.422-0.4486,2.904-0.7037,4.394-0.7559"/>
			<path d="m113,267.5c-0.5218-0.4416-0.9972-0.938-1.416-1.478-1.01-1.303-1.673-2.835-2.339-4.343-1.066-2.418-2.164-4.822-3.207-7.25-0.7208-1.678-1.415-3.368-2.138-5.045-0.7844-1.82-1.603-3.626-2.305-5.479-0.9907-2.613-1.748-5.313-2.305-8.051-0.4563-2.243-0.7894-4.547-1.771-6.615-0.3975-0.8377-0.8986-1.63-1.203-2.506-0.2528-0.7282-0.3639-1.505-0.3251-2.275"/>
			<path d="m149.5,230.8c1.244,0.2355,2.515,0.3308,3.78,0.2835,1.277-0.0478,2.55-0.2402,3.827-0.189,1.407,0.0565,2.802,0.4132,4.063,1.039"/>
			<path d="m149.5,230.8c-0.1347,0.7018-0.3083,1.396-0.5197,2.079-0.2138,0.6906-0.4664,1.369-0.756,2.032"/>
			<path d="m148.2,234.9c0.7732,0.2593,1.595,0.3721,2.41,0.3307,1.106-0.0562,2.175-0.3911,3.26-0.6142,2.428-0.4995,4.971-0.4343,7.371,0.189"/>
			<path d="m161.2,231.9,0.0945,2.882"/>
			<path d="m147,248.5c0.5214-0.411,0.8952-1.006,1.039-1.654,0.0723-0.3248,0.0883-0.662,0.0472-0.9922"/>
			<path d="m148.1,245.9c0.4301-0.5124,1.013-0.8952,1.654-1.087,0.5796-0.1731,1.192-0.1907,1.795-0.2362,0.7625-0.0576,1.522-0.162,2.268-0.3307,0.3018-0.0683,0.6013-0.1471,0.8977-0.2362"/>
			<path d="m147,248.5c0.6154,0.0869,1.23,0.1814,1.843,0.2835,0.9886,0.1647,2.02,0.3468,2.977,0.0472,0.818-0.2563,1.491-0.8406,2.079-1.465,0.2296-0.2438,0.4503-0.496,0.6615-0.756"/>
			<path d="m154.7,244-0.1417,2.646"/>
			<path d="m121.1,238.7,0.9449,1.701"/>
			<path d="m122.1,240.4c0.4153-0.3224,0.9036-0.5503,1.417-0.6615,0.7938-0.1718,1.624-0.0645,2.41,0.1417,0.9526,0.2501,1.9,0.6481,2.882,0.567,0.8787-0.0727,1.715-0.5532,2.221-1.276"/>
			<path d="m121.1,238.7c1.005-0.5107,2.03-0.9836,3.071-1.417,2.084-0.8686,4.234-1.58,6.426-2.126"/>
			<path d="m130.6,235.1,0.378,4.016"/>
			<path d="m123.9,251.3c0.9788-0.7874,2.042-1.47,3.166-2.032,0.7625-0.3813,1.552-0.7068,2.315-1.087,0.2712-0.135,0.5391-0.2768,0.8032-0.4252"/>
			<path d="m123.9,251.3c0.4304,0.53,0.9422,0.9938,1.512,1.37,0.4681,0.3092,0.9981,0.5652,1.559,0.567,0.3135,0.00096,0.6222-0.0778,0.918-0.1817,0.2958-0.1038,0.5821-0.233,0.8774-0.338,0.3822-0.136,0.7789-0.2312,1.181-0.2835"/>
			<path d="m130.2,247.7-0.2362,4.677"/>
			<path d="m146.2,263.9c0.1848-1.157,0.2954-2.325,0.3307-3.496,0.0166-0.551,0.0166-1.103,0-1.654"/>
			<path d="m146.5,258.7c1-0.0563,1.985-0.3681,2.835-0.8977,0.5329-0.3319,1.013-0.7482,1.417-1.228"/>
			<path d="m150.8,256.6c0.3814,1.017,0.8234,2.012,1.323,2.977,0.1815,0.3505,0.3705,0.6971,0.567,1.039"/>
			<path d="m146.2,263.9c0.3926-0.0457,0.7969,0.0137,1.16,0.1703,0.3628,0.1567,0.6833,0.4102,0.9192,0.7274,0.1148,0.1543,0.2096,0.3228,0.3247,0.4769s0.255,0.2964,0.4312,0.3736c0.1471,0.0644,0.3119,0.0798,0.4721,0.0688,0.1602-0.0109,0.3175-0.047,0.4743-0.0819s0.3147-0.0688,0.4752-0.0753c0.1605-0.006,0.325,0.0159,0.4683,0.0883,0.175,0.0885,0.3081,0.2479,0.388,0.427s0.1097,0.3772,0.1127,0.5733c0.006,0.3922-0.092,0.7813-0.0754,1.173,0.009,0.2021,0.0492,0.4066,0.1498,0.582,0.0503,0.0877,0.1154,0.1674,0.1942,0.2308s0.1714,0.1103,0.2702,0.1321c0.1129,0.0249,0.2317,0.0165,0.343-0.0147s0.2154-0.0848,0.3114-0.1493c0.1919-0.1289,0.3511-0.3,0.5268-0.4502,0.4628-0.3958,1.048-0.6466,1.654-0.7087"/>
			<path d="m152.7,260.6c-0.3694,0.4956-0.5419,1.134-0.4725,1.748,0.0769,0.6806,0.4336,1.299,0.8504,1.843,0.4667,0.6086,1.023,1.159,1.37,1.843,0.2161,0.4252,0.3455,0.8943,0.378,1.37"/>
			<path d="m144.5,275.2c0.5076-0.4074,0.9418-0.9059,1.276-1.465,0.1234-0.2065,0.2336-0.4218,0.378-0.6142,0.2814-0.375,0.681-0.6467,1.103-0.852,0.4215-0.2054,0.8692-0.3504,1.307-0.5181,0.9825-0.3762,1.92-0.869,2.788-1.465"/>
			<path d="m144.5,275.2c1.166-0.3289,2.379-0.4886,3.591-0.4725,0.5486,0.007,1.099,0.0503,1.645-0.003,0.5461-0.0537,1.098-0.2131,1.521-0.5636,0.387-0.3213,0.6397-0.7863,0.756-1.276,0.2148-0.9043-0.0404-1.907-0.6615-2.599"/>
			<path d="m125.4,264.3c0.7184-0.5385,1.427-1.09,2.126-1.654,0.948-0.7648,1.878-1.553,2.788-2.362"/>
			<path d="m125.4,264.3c0.8968-0.0856,1.819,0.1156,2.599,0.567,0.6242,0.3614,1.158,0.8832,1.512,1.512,0.206,0.3665,0.3504,0.7675,0.4252,1.181"/>
			<path d="m130.4,260.3c-0.2173,1.07-0.2812,2.172-0.189,3.26,0.0974,1.15,0.3692,2.285,0.8032,3.355"/>
			<path d="m130,267.6,0.9922-0.6615"/>
			<path d="m145.7,289.8c0.8038-0.5996,1.535-1.297,2.172-2.071,0.7706-0.9371,1.403-1.988,1.871-3.107"/>
			<path d="m149.7,284.7c1.487-0.2632,2.924-0.8105,4.21-1.604,0.4421-0.2728,0.8665-0.5743,1.27-0.902"/>
			<path d="m155.2,282.2c0.8136,1.011,1.638,2.013,2.472,3.007,1.577,1.878,3.196,3.731,4.544,5.78,0.4558,0.6931,0.88,1.408,1.375,2.074,0.4952,0.6655,1.068,1.286,1.765,1.735,0.7031,0.4527,1.518,0.7192,2.347,0.8258,0.8294,0.1066,1.674,0.0567,2.497-0.0908,2.484-0.4452,4.801-1.815,6.348-3.809,0.6992-0.9013,1.245-1.928,1.545-3.029,0.3005-1.1,0.3514-2.275,0.0917-3.386-0.3024-1.293-1.007-2.454-1.771-3.541-0.7327-1.043-1.543-2.055-2.572-2.806-0.2248-0.1641-0.4594-0.3151-0.6767-0.489s-0.419-0.3732-0.5594-0.6135c-0.2235-0.3823-0.2761-0.8363-0.3675-1.27-0.1359-0.6443-0.3679-1.27-0.7016-1.837-0.6278-1.068-1.62-1.917-2.773-2.372"/>
			<path d="m168.7,272.3c1.159-0.0834,2.317-0.1725,3.475-0.2672,2.184-0.1787,4.408-0.3752,6.548,0.1002,1.461,0.3247,2.88,0.9613,4.377,0.9354,0.2924-0.005,0.584-0.0356,0.8764-0.037,0.2924-0.001,0.5896,0.0278,0.8608,0.1372,0.2842,0.1146,0.5276,0.3123,0.744,0.5293s0.4103,0.4555,0.6258,0.6734c0.4047,0.4092,0.8809,0.7409,1.301,1.135,0.4197,0.3939,0.7926,0.8731,0.9044,1.438,0.0595,0.3004,0.042,0.6117-0.011,0.9133s-0.141,0.5957-0.2228,0.8908c-0.5371,1.935-0.8194,3.93-1.136,5.913-0.2954,1.851-0.6242,3.707-1.236,5.479-0.5448,1.578-1.312,3.078-2.272,4.443-1.123,1.598-2.498,2.999-3.775,4.477-0.8428,0.9752-1.644,1.985-2.472,2.973-0.847,1.011-1.732,2.008-2.806,2.773-0.7752,0.5522-1.637,0.975-2.405,1.537-0.2937,0.2148-0.573,0.4493-0.8352,0.7016"/>
			<path d="m171.3,307.1c-0.4533-0.6726-1.065-1.238-1.771-1.637-0.8578-0.485-1.832-0.7188-2.74-1.102-0.9764-0.4128-1.87-0.9969-2.74-1.604-1.593-1.112-3.123-2.31-4.677-3.474-1.82-1.364-3.675-2.684-5.613-3.875-1.319-0.8115-2.676-1.563-3.976-2.405-1.448-0.9388-2.823-1.99-4.109-3.14"/>
		</g>
		<path d="m127.4,46.96c1.95,1.216,3.989,2.291,6.095,3.213,2.262,0.99,4.608,1.807,6.756,3.024,1.637,0.9267,3.167,2.102,4.252,3.638,1.148,1.624,1.748,3.575,2.126,5.528,0.3399,1.757,0.515,3.544,0.8977,5.292,0.3171,1.448,0.7774,2.868,1.417,4.205,0.9122,1.906,2.175,3.619,3.402,5.339,1.964,2.753,3.854,5.558,5.811,8.315,2.014,2.838,4.102,5.631,6.426,8.221,1.919,2.139,3.994,4.134,5.953,6.237,2.85,3.059,5.458,6.35,8.504,9.213,2.272,2.134,4.783,4.022,7.512,5.528,2.333,1.287,4.809,2.287,7.229,3.402,3.389,1.561,6.701,3.361,10.3,4.347,2.02,0.5533,4.11,0.8441,6.095,1.512,1.46,0.4914,2.854,1.186,4.11,2.079,1.794,1.275,3.301,2.945,5.197,4.063,1.057,0.6228,2.215,1.061,3.402,1.37,1.051,0.2738,2.129,0.4481,3.213,0.5197"/>
		<path d="m226.1,132c0.3624-0.0292,0.7334,0.0636,1.039,0.2598,0.378,0.2425,0.6448,0.6289,0.8268,1.039,0.1013,0.2285,0.18,0.4698,0.1994,0.719,0.0193,0.2492-0.0238,0.5076-0.1522,0.722-0.097,0.1622-0.2391,0.2939-0.3959,0.3994-0.1568,0.1054-0.3288,0.186-0.5018,0.2621-1.095,0.4818-2.253,0.801-3.402,1.134-2.428,0.7037-4.841,1.478-7.317,1.989-2.365,0.4885-4.774,0.7343-7.183,0.902-2.701,0.188-5.416,0.2797-8.085,0.735-1.905,0.3249-3.779,0.8348-5.579,1.537-1.662,0.6482-3.257,1.458-4.844,2.272-1.128,0.5787-2.263,1.164-3.474,1.537-1.624,0.5001-3.362,0.6055-5.045,0.3675-1.528-0.2161-3.014-0.7124-4.377-1.437-1.333-0.7081-2.54-1.626-3.742-2.539-1.54-1.17-3.121-2.38-4.109-4.042-0.6444-1.084-1.005-2.311-1.306-3.536-0.3011-1.225-0.5508-2.468-0.9991-3.647-0.8798-2.314-2.478-4.269-4.009-6.214-1.942-2.466-3.817-4.986-5.579-7.584-1.993-2.938-3.841-5.974-5.546-9.087-1.897-3.464-3.626-7.037-5.913-10.26-1.377-1.938-2.965-3.764-3.909-5.947-0.5733-1.326-0.8925-2.751-1.47-4.076-0.5214-1.196-1.245-2.291-1.971-3.374-1.086-1.621-2.191-3.238-3.508-4.677-1.319-1.442-2.86-2.72-3.842-4.41-0.7399-1.274-1.123-2.717-1.604-4.109-0.5933-1.718-1.345-3.377-2.138-5.011-0.505-1.04-1.032-2.083-1.303-3.207-0.1897-0.7866-0.2502-1.598-0.3007-2.405-0.1341-2.146-0.2016-4.298-0.167-6.448,0.017-1.06,0.0585-2.126-0.1002-3.174-0.0778-0.514-0.2042-1.022-0.4009-1.503-0.1037-0.2536-0.2268-0.4997-0.3096-0.7609-0.0827-0.2611-0.1236-0.5434-0.0579-0.8093,0.0422-0.1707,0.1278-0.33,0.2441-0.4619s0.2629-0.2363,0.4241-0.3065c0.3859-0.1682,0.8557-0.1277,1.207,0.1041"/>
		<path d="m105.6,74.86c0.6613-0.07432,1.346,0.07782,1.914,0.4252,0.6888,0.4216,1.177,1.096,1.654,1.748,0.938,1.282,1.916,2.556,3.142,3.567,1.326,1.094,2.939,1.878,3.992,3.236,0.5813,0.7498,0.9579,1.634,1.33,2.507,0.372,0.8727,0.7524,1.756,1.339,2.501,0.7945,1.009,1.916,1.701,2.835,2.599,0.8982,0.8775,1.59,1.939,2.362,2.929,0.9706,1.245,2.071,2.382,3.166,3.52,1.383,1.439,2.761,2.885,4.04,4.418,0.8238,0.9875,1.627,2.054,1.914,3.307,0.1886,0.8244,0.1397,1.699-0.1181,2.504-0.3097,0.9674-0.9291,1.842-1.772,2.41-0.8961,0.6032-2.006,0.8479-2.858,1.512-0.6899,0.5377-1.154,1.306-1.606,2.055-0.5998,0.9937-1.208,1.988-1.955,2.877-0.7467,0.8887-1.642,1.674-2.699,2.155-1.178,0.5364-2.513,0.6781-3.662,1.276-0.6764,0.352-1.264,0.8501-1.843,1.347-1.352,1.159-2.691,2.333-4.04,3.496-1.409,1.215-2.827,2.419-4.252,3.614-1.539,1.291-3.089,2.575-4.748,3.709-1.343,0.9176-2.752,1.733-4.158,2.551-1.712,0.9965-3.43,2.002-5.268,2.74-2.199,0.8833-4.532,1.37-6.827,1.961-1.926,0.4959-3.831,1.068-5.764,1.536-1.571,0.3802-3.195,0.6928-4.796,0.4725-1.375-0.1892-2.671-0.764-4.04-0.9922-0.1964-0.0327-0.3966-0.059-0.5798-0.1369-0.09161-0.0389-0.1784-0.0909-0.251-0.159-0.07264-0.0681-0.1308-0.1528-0.1614-0.2475-0.02928-0.0908-0.03257-0.189-0.01546-0.2829s0.05418-0.1834,0.1031-0.2653c0.0979-0.1638,0.2409-0.2951,0.3848-0.4204,0.8283-0.7212,1.751-1.324,2.646-1.961,2.599-1.85,4.97-3.997,7.394-6.071,2.679-2.292,5.441-4.511,7.796-7.134,1.878-2.091,3.475-4.416,5.032-6.756,1.358-2.041,2.698-4.114,3.638-6.378,0.6344-1.528,1.08-3.126,1.654-4.677,0.6774-1.833,1.533-3.6,2.551-5.268"/>
		<path d="m103,101.1c-0.2418-0.5511-0.4366-1.123-0.5813-1.707-0.1759-0.7099-0.278-1.44-0.2673-2.172,0.004-0.2951,0.027-0.5904,0.0117-0.8852s-0.0706-0.593-0.2122-0.852c-0.1787-0.3271-0.4792-0.5667-0.7684-0.8018-0.8708-0.7078-1.709-1.455-2.572-2.172-0.7888-0.6544-1.599-1.283-2.439-1.871-0.7516-0.5261-1.526-1.019-2.305-1.503-0.1818-0.113-0.365-0.2265-0.5228-0.3712-0.1578-0.1446-0.2903-0.3241-0.3458-0.5309-0.05452-0.2033-0.03084-0.4232,0.04609-0.6191,0.07692-0.1959,0.2049-0.369,0.3548-0.5168,0.4582-0.4514,1.096-0.6581,1.704-0.8686,1.253-0.4338,2.478-0.9431,3.708-1.437,0.9098-0.3649,1.823-0.7212,2.74-1.069"/>
		<path d="m101.6,83.71c0.2397-0.1014,0.445-0.2823,0.5759-0.5072,0.1809-0.311,0.2144-0.6826,0.2599-1.039,0.1231-0.9657,0.3629-1.912,0.5906-2.858,0.2631-1.094,0.5108-2.191,0.7796-3.284,0.0542-0.2203,0.1098-0.4418,0.2028-0.6488,0.0931-0.207,0.2266-0.4006,0.4114-0.5324,0.1684-0.1201,0.3759-0.1842,0.5827-0.18s0.4115,0.07675,0.5749,0.2036"/>
	</g>
</svg>
