<?xml version="1.0" encoding="UTF-8" standalone="no"?>
<!-- Created with Inkscape (http://www.inkscape.org/) -->

<svg
   xmlns:dc="http://purl.org/dc/elements/1.1/"
   xmlns:cc="http://creativecommons.org/ns#"
   xmlns:rdf="http://www.w3.org/1999/02/22-rdf-syntax-ns#"
   xmlns:svg="http://www.w3.org/2000/svg"
   xmlns="http://www.w3.org/2000/svg"
   xmlns:sodipodi="http://sodipodi.sourceforge.net/DTD/sodipodi-0.dtd"
   xmlns:inkscape="http://www.inkscape.org/namespaces/inkscape"
   width="285mm"
   height="375mm"
   viewBox="0 0 285 375"
   version="1.1"
   id="svg8"
   inkscape:version="0.92.3 (2405546, 2018-03-11)"
   sodipodi:docname="mahjong4characters.svg">
  <defs
     id="defs2">
    <inkscape:path-effect
       effect="spiro"
       id="path-effect1035"
       is_visible="true" />
    <inkscape:path-effect
       effect="spiro"
       id="path-effect1031"
       is_visible="true" />
    <inkscape:path-effect
       effect="spiro"
       id="path-effect1027"
       is_visible="true" />
    <inkscape:path-effect
       effect="spiro"
       id="path-effect1023"
       is_visible="true" />
    <inkscape:path-effect
       effect="spiro"
       id="path-effect1019"
       is_visible="true" />
    <inkscape:path-effect
       effect="spiro"
       id="path-effect1015"
       is_visible="true" />
    <inkscape:path-effect
       effect="spiro"
       id="path-effect1011"
       is_visible="true" />
    <inkscape:path-effect
       effect="spiro"
       id="path-effect1007"
       is_visible="true" />
    <inkscape:path-effect
       effect="spiro"
       id="path-effect1003"
       is_visible="true" />
    <inkscape:path-effect
       effect="spiro"
       id="path-effect999"
       is_visible="true" />
    <inkscape:path-effect
       effect="spiro"
       id="path-effect995"
       is_visible="true" />
    <inkscape:path-effect
       effect="spiro"
       id="path-effect991"
       is_visible="true" />
    <inkscape:path-effect
       effect="spiro"
       id="path-effect987"
       is_visible="true" />
    <inkscape:path-effect
       effect="spiro"
       id="path-effect983"
       is_visible="true" />
    <inkscape:path-effect
       effect="spiro"
       id="path-effect979"
       is_visible="true" />
    <inkscape:path-effect
       effect="spiro"
       id="path-effect975"
       is_visible="true" />
    <inkscape:path-effect
       effect="spiro"
       id="path-effect971"
       is_visible="true" />
    <inkscape:path-effect
       effect="spiro"
       id="path-effect967"
       is_visible="true" />
    <inkscape:path-effect
       effect="spiro"
       id="path-effect963"
       is_visible="true" />
    <inkscape:path-effect
       effect="spiro"
       id="path-effect948"
       is_visible="true" />
    <inkscape:path-effect
       effect="spiro"
       id="path-effect944"
       is_visible="true" />
    <inkscape:path-effect
       effect="spiro"
       id="path-effect940"
       is_visible="true" />
    <inkscape:path-effect
       effect="spiro"
       id="path-effect936"
       is_visible="true" />
    <inkscape:path-effect
       effect="spiro"
       id="path-effect932"
       is_visible="true" />
    <inkscape:path-effect
       effect="spiro"
       id="path-effect928"
       is_visible="true" />
    <inkscape:path-effect
       effect="spiro"
       id="path-effect980"
       is_visible="true" />
    <inkscape:path-effect
       effect="spiro"
       id="path-effect976"
       is_visible="true" />
    <inkscape:path-effect
       effect="spiro"
       id="path-effect972"
       is_visible="true" />
    <inkscape:path-effect
       effect="spiro"
       id="path-effect968"
       is_visible="true" />
    <inkscape:path-effect
       effect="spiro"
       id="path-effect1013"
       is_visible="true" />
    <inkscape:path-effect
       effect="spiro"
       id="path-effect1009"
       is_visible="true" />
    <inkscape:path-effect
       effect="spiro"
       id="path-effect1005"
       is_visible="true" />
    <inkscape:path-effect
       effect="spiro"
       id="path-effect1001"
       is_visible="true" />
    <inkscape:path-effect
       effect="spiro"
       id="path-effect997"
       is_visible="true" />
    <inkscape:path-effect
       effect="spiro"
       id="path-effect993"
       is_visible="true" />
    <inkscape:path-effect
       effect="spiro"
       id="path-effect989"
       is_visible="true" />
    <inkscape:path-effect
       effect="spiro"
       id="path-effect985"
       is_visible="true" />
    <inkscape:path-effect
       effect="spiro"
       id="path-effect981"
       is_visible="true" />
    <inkscape:path-effect
       effect="spiro"
       id="path-effect977"
       is_visible="true" />
    <inkscape:path-effect
       effect="spiro"
       id="path-effect973"
       is_visible="true" />
    <inkscape:path-effect
       effect="spiro"
       id="path-effect969"
       is_visible="true" />
    <inkscape:path-effect
       effect="spiro"
       id="path-effect965"
       is_visible="true" />
    <inkscape:path-effect
       effect="spiro"
       id="path-effect961"
       is_visible="true" />
    <inkscape:path-effect
       effect="spiro"
       id="path-effect957"
       is_visible="true" />
    <inkscape:path-effect
       effect="spiro"
       id="path-effect953"
       is_visible="true" />
    <inkscape:path-effect
       effect="spiro"
       id="path-effect949"
       is_visible="true" />
    <inkscape:path-effect
       effect="spiro"
       id="path-effect945"
       is_visible="true" />
    <inkscape:path-effect
       effect="spiro"
       id="path-effect941"
       is_visible="true" />
    <inkscape:path-effect
       effect="spiro"
       id="path-effect937"
       is_visible="true" />
    <inkscape:path-effect
       effect="spiro"
       id="path-effect933"
       is_visible="true" />
    <inkscape:path-effect
       effect="spiro"
       id="path-effect929"
       is_visible="true" />
    <inkscape:path-effect
       effect="spiro"
       id="path-effect925"
       is_visible="true" />
    <inkscape:path-effect
       effect="spiro"
       id="path-effect921"
       is_visible="true" />
    <inkscape:path-effect
       effect="spiro"
       id="path-effect917"
       is_visible="true" />
    <inkscape:path-effect
       effect="spiro"
       id="path-effect913"
       is_visible="true" />
    <inkscape:path-effect
       effect="spiro"
       id="path-effect909"
       is_visible="true" />
    <inkscape:path-effect
       effect="spiro"
       id="path-effect905"
       is_visible="true" />
    <inkscape:path-effect
       effect="spiro"
       id="path-effect901"
       is_visible="true" />
    <inkscape:path-effect
       effect="spiro"
       id="path-effect897"
       is_visible="true" />
    <inkscape:path-effect
       effect="spiro"
       id="path-effect893"
       is_visible="true" />
    <inkscape:path-effect
       effect="spiro"
       id="path-effect889"
       is_visible="true" />
    <inkscape:path-effect
       effect="spiro"
       id="path-effect885"
       is_visible="true" />
    <inkscape:path-effect
       effect="spiro"
       id="path-effect881"
       is_visible="true" />
    <inkscape:path-effect
       effect="spiro"
       id="path-effect877"
       is_visible="true" />
    <inkscape:path-effect
       effect="spiro"
       id="path-effect873"
       is_visible="true" />
    <inkscape:path-effect
       effect="spiro"
       id="path-effect869"
       is_visible="true" />
    <inkscape:path-effect
       effect="spiro"
       id="path-effect865"
       is_visible="true" />
    <inkscape:path-effect
       effect="spiro"
       id="path-effect861"
       is_visible="true" />
    <inkscape:path-effect
       effect="spiro"
       id="path-effect857"
       is_visible="true" />
    <inkscape:path-effect
       effect="spiro"
       id="path-effect853"
       is_visible="true" />
    <inkscape:path-effect
       effect="spiro"
       id="path-effect849"
       is_visible="true" />
    <inkscape:path-effect
       effect="spiro"
       id="path-effect845"
       is_visible="true" />
    <inkscape:path-effect
       effect="spiro"
       id="path-effect841"
       is_visible="true" />
    <inkscape:path-effect
       effect="spiro"
       id="path-effect837"
       is_visible="true" />
    <inkscape:path-effect
       effect="spiro"
       id="path-effect833"
       is_visible="true" />
    <inkscape:path-effect
       effect="spiro"
       id="path-effect829"
       is_visible="true" />
  </defs>
  <sodipodi:namedview
     id="base"
     pagecolor="#ffffff"
     bordercolor="#666666"
     borderopacity="1.0"
     inkscape:pageopacity="0.0"
     inkscape:pageshadow="2"
     inkscape:zoom="0.7"
     inkscape:cx="166.88912"
     inkscape:cy="693.35041"
     inkscape:document-units="mm"
     inkscape:current-layer="layer1"
     showgrid="false"
     inkscape:window-width="1920"
     inkscape:window-height="1027"
     inkscape:window-x="-8"
     inkscape:window-y="-8"
     inkscape:window-maximized="1" />
  <metadata
     id="metadata5">
    <rdf:RDF>
      <cc:Work
         rdf:about="">
        <dc:format>image/svg+xml</dc:format>
        <dc:type
           rdf:resource="http://purl.org/dc/dcmitype/StillImage" />
        <dc:title />
      </cc:Work>
    </rdf:RDF>
  </metadata>
  <g
     inkscape:groupmode="layer"
     id="layer2"
     inkscape:label="the-line">
    <path
       style="opacity:1;vector-effect:none;fill:none;fill-opacity:1;fill-rule:evenodd;stroke:#000000;stroke-width:0.26458332px;stroke-linecap:butt;stroke-linejoin:miter;stroke-miterlimit:4;stroke-dasharray:none;stroke-dashoffset:0;stroke-opacity:1"
       d="m 67.090773,74.414435 c 2.077307,-0.603871 4.156186,-1.202336 6.236608,-1.795386 2.095428,-0.597328 4.274074,-1.194802 6.425594,-0.850448 2.000027,0.320108 3.791873,1.428627 5.764136,1.889882 0.434403,0.101594 0.877137,0.171431 1.322916,0.188987 1.002052,0.03946 2.000054,-0.186373 2.941532,-0.531748 0.941478,-0.345375 1.834296,-0.808934 2.728113,-1.263638 2.443879,-1.243252 4.930192,-2.435065 7.559518,-3.212798 3.64512,-1.078197 7.48951,-1.338618 11.1503,-2.362351 2.47675,-0.692618 4.85545,-1.730921 7.37054,-2.267858 1.98786,-0.42438 4.02775,-0.528379 6.04762,-0.755951 3.08981,-0.348118 6.1397,-0.986679 9.16592,-1.700893 3.36876,-0.795056 6.71642,-1.685258 10.11086,-2.362351 2.50397,-0.499469 5.02981,-0.882231 7.55953,-1.228423 3.17425,-0.434397 6.35632,-0.811513 9.5439,-1.133927 3.45544,-0.349508 6.92137,-0.634927 10.39434,-0.661459 3.21064,-0.02453 6.45111,0.177188 9.5439,1.039434 4.45411,1.241773 8.42533,3.801592 12.09523,6.614584 2.82677,2.166728 5.51936,4.502938 8.31548,6.709076 2.1284,1.679308 4.31928,3.285328 6.3311,5.102678 1.67172,1.510128 3.2141,3.161613 4.63021,4.91369 2.07975,2.573169 3.88834,5.365372 5.38616,8.315476"
       id="path961"
       inkscape:connector-curvature="0"
       inkscape:path-effect="#path-effect963"
       inkscape:original-d="m 67.090773,74.414435 c 2.079133,-0.598726 4.158001,-1.19719 6.236608,-1.795386 2.078603,-0.598199 4.283993,-0.56723 6.425594,-0.850448 2.141601,-0.283218 3.843022,1.259658 5.764136,1.889882 1.921115,0.630224 0.88221,0.125727 1.322916,0.188987 0.440709,0.06326 3.780028,-1.197187 5.669645,-1.795386 1.889615,-0.598197 5.039945,-2.14213 7.559518,-3.212798 2.51958,-1.070669 7.4338,-1.575166 11.1503,-2.362351 3.7165,-0.787186 4.91396,-1.512168 7.37054,-2.267858 2.45658,-0.755687 4.03201,-0.504232 6.04762,-0.755951 2.0156,-0.25172 6.11088,-1.134192 9.16592,-1.700893 3.05504,-0.5667 6.74084,-1.575165 10.11086,-2.362351 3.37002,-0.787185 5.03995,-0.819213 7.55953,-1.228423 2.51957,-0.40921 6.36286,-0.756216 9.5439,-1.133927 3.18103,-0.377712 6.92982,-0.441238 10.39434,-0.661459 3.46452,-0.220223 6.36286,0.69269 9.5439,1.039434 3.18103,0.346742 8.06375,4.409456 12.09523,6.614584 4.03149,2.205124 5.54392,4.472453 8.31548,6.709076 2.77156,2.236624 4.221,3.401521 6.3311,5.102678 2.11011,1.701159 3.08707,3.275531 4.63021,4.91369 1.54314,1.638163 3.59104,5.543386 5.38616,8.315476" />
    <path
       style="opacity:1;vector-effect:none;fill:none;fill-opacity:1;fill-rule:evenodd;stroke:#000000;stroke-width:0.26458332px;stroke-linecap:butt;stroke-linejoin:miter;stroke-miterlimit:4;stroke-dasharray:none;stroke-dashoffset:0;stroke-opacity:1"
       d="m 217.71428,89.061011 c -0.19896,0.715019 -0.50027,1.401476 -0.89188,2.031934 -0.56058,0.902477 -1.29714,1.679568 -2.00452,2.472243 -2.16117,2.421779 -4.08885,5.04061 -6.1472,7.550362 -3.36991,4.10893 -7.08481,7.91927 -10.7576,11.75986 -2.88488,3.01669 -5.74797,6.05659 -8.75308,8.95353 -2.32577,2.24205 -4.73445,4.39636 -7.08264,6.61492 -1.95902,1.85087 -3.89928,3.76454 -6.21401,5.14494 -1.21836,0.72658 -2.52718,1.29611 -3.87541,1.73725 -1.73415,0.56741 -3.5332,0.92332 -5.34539,1.1359 -1.88352,0.22095 -3.78507,0.28806 -5.67948,0.20045"
       id="path965"
       inkscape:connector-curvature="0"
       inkscape:path-effect="#path-effect967"
       inkscape:original-d="m 217.71428,89.061011 c -0.25248,0.677045 -0.59432,1.354357 -0.89188,2.031934 -0.29756,0.677577 -1.33608,1.647896 -2.00452,2.472243 -0.66844,0.824346 -4.09787,5.033311 -6.1472,7.550362 -2.04933,2.51705 -7.17147,7.83964 -10.7576,11.75986 -3.58613,3.92022 -5.83512,5.96875 -8.75308,8.95353 -2.91795,2.98477 -4.72149,4.40968 -7.08264,6.61492 -2.36114,2.20524 -4.14241,3.42969 -6.21401,5.14494 -2.07161,1.71524 -2.58335,1.1579 -3.87541,1.73725 -1.29207,0.57935 -3.56333,0.757 -5.34539,1.1359 -1.78206,0.37889 -3.78606,0.13337 -5.67948,0.20045" />
    <path
       style="opacity:1;vector-effect:none;fill:none;fill-opacity:1;fill-rule:evenodd;stroke:#000000;stroke-width:0.26458332px;stroke-linecap:butt;stroke-linejoin:miter;stroke-miterlimit:4;stroke-dasharray:none;stroke-dashoffset:0;stroke-opacity:1"
       d="m 160.96307,136.6624 c -0.77416,0.50289 -1.63834,0.86676 -2.53906,1.06908 -1.16083,0.26075 -2.37846,0.25153 -3.54132,0 -1.37778,-0.29801 -2.68379,-0.93935 -3.74178,-1.87089 -1.05154,-0.92586 -1.85281,-2.13756 -2.27179,-3.4745 -0.47423,-1.51325 -0.45046,-3.17813 0.0668,-4.67722"
       id="path969"
       inkscape:connector-curvature="0"
       inkscape:path-effect="#path-effect971"
       inkscape:original-d="m 160.96307,136.6624 c -0.84609,0.35609 -1.69244,0.71245 -2.53906,1.06908 -0.84662,0.35662 -2.36062,-2.7e-4 -3.54132,0 -1.18071,2.6e-4 -2.49425,-1.24753 -3.74178,-1.87089 -1.24752,-0.62336 -1.51426,-2.3166 -2.27179,-3.4745 -0.75752,-1.15791 0.0448,-3.11841 0.0668,-4.67722" />
    <path
       style="opacity:1;vector-effect:none;fill:none;fill-opacity:1;fill-rule:evenodd;stroke:#000000;stroke-width:0.26458332px;stroke-linecap:butt;stroke-linejoin:miter;stroke-miterlimit:4;stroke-dasharray:none;stroke-dashoffset:0;stroke-opacity:1"
       d="m 148.93592,127.70887 c -0.74907,-0.88728 -1.65922,-1.63815 -2.67267,-2.20497 -0.26089,-0.14592 -0.52854,-0.27974 -0.80181,-0.40091"
       id="path973"
       inkscape:connector-curvature="0"
       inkscape:path-effect="#path-effect975"
       inkscape:original-d="m 148.93592,127.70887 c -0.89063,-0.69071 -1.78152,-1.47025 -2.67267,-2.20497 -0.89116,-0.73473 -0.53428,-0.26754 -0.80181,-0.40091" />
    <path
       style="opacity:1;vector-effect:none;fill:none;fill-opacity:1;fill-rule:evenodd;stroke:#000000;stroke-width:0.26458332px;stroke-linecap:butt;stroke-linejoin:miter;stroke-miterlimit:4;stroke-dasharray:none;stroke-dashoffset:0;stroke-opacity:1"
       d="m 145.46144,125.10299 c -0.49402,0.81013 -1.25645,1.45343 -2.13816,1.80407 -0.71823,0.28563 -1.49919,0.3779 -2.27179,0.40091 -2.32114,0.0691 -4.67291,-0.46023 -6.94901,0 -1.14997,0.23252 -2.24483,0.71284 -3.40768,0.86862 -1.50344,0.2014 -3.02903,-0.15072 -4.54358,-0.0668 -1.69858,0.0941 -3.32236,0.73183 -5.01131,0.93545 -1.28413,0.15482 -2.5832,0.0563 -3.87541,0 -1.7139,-0.0747 -3.43104,-0.0747 -5.14494,0"
       id="path977"
       inkscape:connector-curvature="0"
       inkscape:path-effect="#path-effect979"
       inkscape:original-d="m 145.46144,125.10299 c -0.69018,0.60109 -1.42517,1.20245 -2.13816,1.80407 -0.71298,0.60162 -1.51426,0.26701 -2.27179,0.40091 -0.75753,0.13389 -4.63241,-2.7e-4 -6.94901,0 -2.3166,2.6e-4 -2.27152,0.57881 -3.40768,0.86862 -1.13616,0.28981 -3.02879,-0.0448 -4.54358,-0.0668 -1.5148,-0.022 -3.34061,0.62337 -5.01131,0.93545 -1.6707,0.31208 -2.58334,-2.7e-4 -3.87541,0 -1.29206,2.6e-4 -3.42969,-2.7e-4 -5.14494,0" />
    <path
       style="opacity:1;vector-effect:none;fill:none;fill-opacity:1;fill-rule:evenodd;stroke:#000000;stroke-width:0.26458332px;stroke-linecap:butt;stroke-linejoin:miter;stroke-miterlimit:4;stroke-dasharray:none;stroke-dashoffset:0;stroke-opacity:1"
       d="m 112.11956,129.04524 c 0.20998,0.433 0.23469,0.95215 0.0668,1.40314 -0.12574,0.33777 -0.35178,0.63106 -0.61338,0.87897 -0.2616,0.24791 -0.55935,0.45402 -0.8566,0.65783 -0.86608,0.59381 -1.75082,1.18299 -2.73951,1.5368 -1.46809,0.52537 -3.09429,0.49796 -4.6104,0.13364 -1.44835,-0.34804 -2.83621,-1.00673 -3.942229,-2.00452 -1.034737,-0.93348 -1.791781,-2.1274 -2.672694,-3.20724 -1.366212,-1.67473 -3.031599,-3.07561 -4.677216,-4.47676 -1.536962,-1.30863 -3.071147,-2.63193 -4.409948,-4.14268 -1.703413,-1.9222 -3.0655,-4.11962 -4.34313,-6.34765 -0.927039,-1.61664 -1.815003,-3.25705 -2.605876,-4.94449 -2.157952,-4.6043 -3.580182,-9.530059 -5.813113,-14.098465 C 74.47793,93.56566 74.02467,92.71119 73.632732,91.827936 72.529249,89.341177 71.928408,86.666503 71.093694,84.077121 70.58073,82.485846 69.978103,80.92348 69.289625,79.399904"
       id="path981"
       inkscape:connector-curvature="0"
       inkscape:path-effect="#path-effect983"
       inkscape:original-d="m 112.11956,129.04524 c 0.0225,0.46745 0.0448,0.93516 0.0668,1.40314 0.022,0.46798 -0.97972,1.02427 -1.46998,1.5368 -0.49026,0.51253 -1.82608,1.02427 -2.73951,1.5368 -0.91344,0.51253 -3.07334,0.0888 -4.6104,0.13364 -1.53707,0.0448 -2.62789,-1.33662 -3.942229,-2.00452 -1.314339,-0.66791 -1.781532,-2.13843 -2.672694,-3.20724 -0.891164,-1.06881 -3.117879,-2.98477 -4.677216,-4.47676 -1.559338,-1.492 -2.939701,-2.76205 -4.409948,-4.14268 -1.470248,-1.38063 -2.895156,-4.23203 -4.34313,-6.34765 -1.447975,-2.11562 -1.736987,-3.29659 -2.605876,-4.94449 -0.868892,-1.6479 -3.875143,-9.399243 -5.813113,-14.098465 -1.93797,-4.699225 -0.84609,-1.737519 -1.269532,-2.605879 C 73.209313,90.959574 71.940311,86.66046 71.093694,84.077121 70.247075,81.49378 69.891245,80.95871 69.289625,79.399904" />
    <path
       style="opacity:1;vector-effect:none;fill:none;fill-opacity:1;fill-rule:evenodd;stroke:#000000;stroke-width:0.26458332px;stroke-linecap:butt;stroke-linejoin:miter;stroke-miterlimit:4;stroke-dasharray:none;stroke-dashoffset:0;stroke-opacity:1"
       d="m 69.289625,79.399904 c -0.420325,0.132204 -0.897712,0.06939 -1.269532,-0.167044 -0.370874,-0.235832 -0.620424,-0.618819 -0.835218,-1.002261 -0.256812,-0.45845 -0.482559,-0.939423 -0.603065,-1.450899 -0.120506,-0.511475 -0.131445,-1.057501 0.03512,-1.555884 0.09981,-0.298637 0.262285,-0.576168 0.473845,-0.809381"
       id="path985"
       inkscape:connector-curvature="0"
       inkscape:path-effect="#path-effect987"
       inkscape:original-d="m 69.289625,79.399904 c -0.422913,-0.05595 -0.84609,-0.111627 -1.269532,-0.167044 -0.423442,-0.05542 -0.556546,-0.668438 -0.835218,-1.002261 -0.27867,-0.333822 -0.378365,-2.004787 -0.567947,-3.006783 -0.189579,-1.001995 0.316162,-0.539853 0.473845,-0.809381" />
    <path
       style="opacity:1;vector-effect:none;fill:none;fill-opacity:1;fill-rule:evenodd;stroke:#000000;stroke-width:0.26458332px;stroke-linecap:butt;stroke-linejoin:miter;stroke-miterlimit:4;stroke-dasharray:none;stroke-dashoffset:0;stroke-opacity:1"
       d="m 100.56016,86.549364 c 0.98015,0.243319 2.00891,0.289042 3.00678,0.133633 0.83902,-0.13067 1.65581,-0.402933 2.40543,-0.801809"
       id="path989"
       inkscape:connector-curvature="0"
       inkscape:path-effect="#path-effect991"
       inkscape:original-d="m 100.56016,86.549364 c 0.98025,0.04428 2.00478,0.08882 3.00678,0.133633 1.002,0.04481 1.60388,-0.534802 2.40543,-0.801809" />
    <path
       style="opacity:1;vector-effect:none;fill:none;fill-opacity:1;fill-rule:evenodd;stroke:#000000;stroke-width:0.26458332px;stroke-linecap:butt;stroke-linejoin:miter;stroke-miterlimit:4;stroke-dasharray:none;stroke-dashoffset:0;stroke-opacity:1"
       d="m 105.97237,85.881188 c 0.315,1.651511 0.73942,3.282146 1.26953,4.87767 1.04998,3.160209 2.50884,6.168387 3.67495,9.287612 1.11607,2.98538 1.96631,6.078 3.34087,8.95353 0.72921,1.52549 1.60302,2.98183 2.60588,4.34313"
       id="path993"
       inkscape:connector-curvature="0"
       inkscape:path-effect="#path-effect995"
       inkscape:original-d="m 105.97237,85.881188 c 0.42344,1.625624 0.84661,3.251515 1.26953,4.87767 0.42291,1.626156 2.45023,6.19148 3.67495,9.287612 1.22472,3.09614 2.22751,5.96876 3.34087,8.95353 1.11336,2.98478 1.73752,2.89516 2.60588,4.34313" />
    <path
       style="opacity:1;vector-effect:none;fill:none;fill-opacity:1;fill-rule:evenodd;stroke:#000000;stroke-width:0.26458332px;stroke-linecap:butt;stroke-linejoin:miter;stroke-miterlimit:4;stroke-dasharray:none;stroke-dashoffset:0;stroke-opacity:1"
       d="m 100.56016,86.549364 c 0.12591,0.888999 0.23729,1.780056 0.33408,2.672694 0.26043,2.401686 0.41517,4.813799 0.66818,7.216277 0.13628,1.294051 0.30103,2.584918 0.46772,3.875405 0.29137,2.25575 0.58889,4.51195 1.00226,6.74856 0.34306,1.85621 0.77254,3.71736 1.60362,5.41221 0.59314,1.20962 1.38674,2.32066 2.33861,3.27405"
       id="path997"
       inkscape:connector-curvature="0"
       inkscape:path-effect="#path-effect999"
       inkscape:original-d="m 100.56016,86.549364 c 0.0894,0.86836 0.22299,1.781532 0.33408,2.672694 0.1111,0.891164 0.44572,4.810588 0.66818,7.216277 0.22246,2.40569 0.31208,2.583342 0.46772,3.875405 0.15564,1.29207 0.66844,4.49878 1.00226,6.74856 0.33382,2.24978 1.06934,3.60787 1.60362,5.41221 0.53427,1.80433 1.55934,2.18243 2.33861,3.27405" />
    <path
       style="opacity:1;vector-effect:none;fill:none;fill-opacity:1;fill-rule:evenodd;stroke:#000000;stroke-width:0.26458332px;stroke-linecap:butt;stroke-linejoin:miter;stroke-miterlimit:4;stroke-dasharray:none;stroke-dashoffset:0;stroke-opacity:1"
       d="m 106.97463,115.74856 c 1.01496,-0.37282 2.03999,-0.71821 3.0736,-1.03567 1.18824,-0.36495 2.38895,-0.69324 3.60814,-0.93544 1.05882,-0.21034 2.1306,-0.35548 3.20723,-0.43432"
       id="path1001"
       inkscape:connector-curvature="0"
       inkscape:path-effect="#path-effect1003"
       inkscape:original-d="m 106.97463,115.74856 c 1.0248,-0.34549 2.04933,-0.69071 3.0736,-1.03567 1.02426,-0.34496 2.40569,-0.62389 3.60814,-0.93544 1.20244,-0.31156 2.13842,-0.28981 3.20723,-0.43432" />
    <path
       style="opacity:1;vector-effect:none;fill:none;fill-opacity:1;fill-rule:evenodd;stroke:#000000;stroke-width:0.26458332px;stroke-linecap:butt;stroke-linejoin:miter;stroke-miterlimit:4;stroke-dasharray:none;stroke-dashoffset:0;stroke-opacity:1"
       d="m 125.34635,80.084077 c 1.93406,-0.469599 3.87124,-0.926334 5.81138,-1.370163 2.65525,-0.607419 5.31781,-1.19112 7.9375,-1.937129 2.07965,-0.592222 4.13029,-1.286284 6.14212,-2.078868"
       id="path1005"
       inkscape:connector-curvature="0"
       inkscape:path-effect="#path-effect1007"
       inkscape:original-d="m 125.34635,80.084077 c 1.9374,-0.456986 3.87452,-0.913707 5.81138,-1.370163 1.93687,-0.456457 5.29194,-1.291683 7.9375,-1.937129 2.64557,-0.645443 4.09501,-1.386175 6.14212,-2.078868" />
    <path
       style="opacity:1;vector-effect:none;fill:none;fill-opacity:1;fill-rule:evenodd;stroke:#000000;stroke-width:0.26458332px;stroke-linecap:butt;stroke-linejoin:miter;stroke-miterlimit:4;stroke-dasharray:none;stroke-dashoffset:0;stroke-opacity:1"
       d="m 145.23735,74.697917 c 0.0806,0.849021 0.14361,1.69971 0.18899,2.55134 0.0295,0.553788 0.0505,1.118358 -0.0945,1.653646 -0.15506,0.572493 -0.49001,1.076244 -0.75595,1.606399 -0.72849,1.452224 -0.93757,3.099116 -1.32292,4.677455 -0.23472,0.961369 -0.53808,1.907279 -0.7087,2.882067 -0.24562,1.403299 -0.21723,2.867816 -0.70871,4.204985 -0.18253,0.496598 -0.4337,0.965413 -0.7087,1.41741 -0.86768,1.426158 -1.97727,2.69822 -2.78758,4.15774 -0.68166,1.227797 -1.13949,2.567451 -1.5119,3.921501 -0.48951,1.77983 -0.83745,3.59858 -1.03944,5.43341"
       id="path1009"
       inkscape:connector-curvature="0"
       inkscape:path-effect="#path-effect1011"
       inkscape:original-d="m 145.23735,74.697917 c 0.0633,0.834432 0.12626,1.700628 0.18899,2.55134 0.0627,0.85071 -0.0627,1.102164 -0.0945,1.653646 -0.0318,0.551479 -0.5037,1.070668 -0.75595,1.606399 -0.25225,0.535728 -0.88168,3.118038 -1.32292,4.677455 -0.44123,1.559415 -0.4722,1.921113 -0.7087,2.882067 -0.2365,0.960956 -0.47221,2.803059 -0.70871,4.204985 -0.2365,1.401927 -0.4722,0.944677 -0.7087,1.41741 -0.2365,0.472737 -1.85812,2.771561 -2.78758,4.15774 -0.92945,1.386175 -1.00767,2.614071 -1.5119,3.921501 -0.50423,1.30743 -0.69269,3.62201 -1.03944,5.43341" />
    <path
       style="opacity:1;vector-effect:none;fill:none;fill-opacity:1;fill-rule:evenodd;stroke:#000000;stroke-width:0.26458332px;stroke-linecap:butt;stroke-linejoin:miter;stroke-miterlimit:4;stroke-dasharray:none;stroke-dashoffset:0;stroke-opacity:1"
       d="m 125.34635,80.084077 c 0.90735,0.720528 1.62946,1.672396 2.07887,2.740329 0.19916,0.473268 0.34515,0.967225 0.47247,1.464657 0.51575,2.015013 0.7292,4.093093 1.08668,6.142114 0.31008,1.777328 0.72873,3.533586 1.13393,5.291667 0.52318,2.269926 1.02477,4.547126 1.37016,6.850816 0.22313,1.48827 0.38083,2.98636 0.47248,4.48847"
       id="path1013"
       inkscape:connector-curvature="0"
       inkscape:path-effect="#path-effect1015"
       inkscape:original-d="m 125.34635,80.084077 c 0.69322,0.913178 1.38618,1.82662 2.07887,2.740329 0.69269,0.913707 0.31525,0.976173 0.47247,1.464657 0.15723,0.488484 0.72472,4.094477 1.08668,6.142114 0.36197,2.047634 0.75622,3.527512 1.13393,5.291667 0.37771,1.764151 0.91371,4.566946 1.37016,6.850816 0.45646,2.28387 0.31525,2.99205 0.47248,4.48847" />
    <path
       style="opacity:1;vector-effect:none;fill:none;fill-opacity:1;fill-rule:evenodd;stroke:#000000;stroke-width:0.26458332px;stroke-linecap:butt;stroke-linejoin:miter;stroke-miterlimit:4;stroke-dasharray:none;stroke-dashoffset:0;stroke-opacity:1"
       d="m 131.96094,107.06213 c 0.70626,-0.0679 1.41753,-0.0837 2.12611,-0.0472 0.57003,0.0293 1.13832,0.0925 1.70089,0.18899"
       id="path1017"
       inkscape:connector-curvature="0"
       inkscape:path-effect="#path-effect1019"
       inkscape:original-d="m 131.96094,107.06213 c 0.69322,-0.016 1.41767,-0.0318 2.12611,-0.0472 0.70844,-0.0155 1.13419,0.12573 1.70089,0.18899" />
    <path
       style="opacity:1;vector-effect:none;fill:none;fill-opacity:1;fill-rule:evenodd;stroke:#000000;stroke-width:0.26458332px;stroke-linecap:butt;stroke-linejoin:miter;stroke-miterlimit:4;stroke-dasharray:none;stroke-dashoffset:0;stroke-opacity:1"
       d="m 154.92299,108.76302 c 0.90888,0.64225 1.6732,1.48787 2.22061,2.45684 0.49166,0.87029 0.80571,1.82832 1.08668,2.78758 0.32178,1.09856 0.60547,2.21449 0.7087,3.35454 0.10012,1.10569 0.0316,2.23814 0.33073,3.30729 0.30122,1.07664 0.97985,2.04368 1.88989,2.69308"
       id="path1021"
       inkscape:connector-curvature="0"
       inkscape:path-effect="#path-effect1023"
       inkscape:original-d="m 154.92299,108.76302 c 0.74047,0.81869 1.48067,1.63763 2.22061,2.45684 0.73994,0.81922 0.72472,1.85812 1.08668,2.78758 0.36196,0.92946 0.47274,2.2361 0.7087,3.35454 0.23598,1.11844 0.22076,2.20459 0.33073,3.30729 0.10998,1.1027 1.26019,1.79512 1.88989,2.69308" />
    <path
       style="opacity:1;vector-effect:none;fill:none;fill-opacity:1;fill-rule:evenodd;stroke:#000000;stroke-width:0.26458332px;stroke-linecap:butt;stroke-linejoin:miter;stroke-miterlimit:4;stroke-dasharray:none;stroke-dashoffset:0;stroke-opacity:1"
       d="m 161.1596,123.36235 c 0.87408,-0.82637 1.72497,-1.67726 2.55134,-2.55134 1.90588,-2.0159 3.68052,-4.1544 5.33891,-6.37835 1.99278,-2.67239 3.81661,-5.46609 5.62239,-8.26823 1.81769,-2.82062 3.6187,-5.6521 5.38616,-8.504461 1.14477,-1.847444 2.27768,-3.707731 3.2128,-5.669642 0.33786,-0.708847 0.65293,-1.442147 0.75595,-2.220608 0.0647,-0.488636 0.0442,-0.983904 0.0534,-1.476714 0.009,-0.492809 0.0502,-0.993715 0.2301,-1.452602 0.208,-0.530528 0.58778,-0.971976 0.94667,-1.41461 0.35889,-0.442635 0.71181,-0.914303 0.84871,-1.467459 0.0799,-0.323048 0.0822,-0.661241 0.0472,-0.992188 -0.0569,-0.537752 -0.21095,-1.062657 -0.42522,-1.559152 -0.64014,-1.483312 -1.79511,-2.683567 -3.02381,-3.732514 -1.32797,-1.133693 -2.7709,-2.132646 -4.29948,-2.976563"
       id="path1025"
       inkscape:connector-curvature="0"
       inkscape:path-effect="#path-effect1027"
       inkscape:original-d="m 161.1596,123.36235 c 0.86646,-0.85071 1.70115,-1.70116 2.55134,-2.55134 0.85018,-0.85018 3.55954,-4.2525 5.33891,-6.37835 1.77937,-2.12585 3.74853,-5.51241 5.62239,-8.26823 1.87387,-2.75581 3.59104,-5.6699 5.38616,-8.504461 1.79513,-2.834555 2.14213,-3.780025 3.2128,-5.669642 1.07067,-1.889615 0.50423,-1.480672 0.75595,-2.220608 0.25172,-0.739939 0.18926,-1.953144 0.28349,-2.929316 0.0942,-0.976175 1.19719,-1.921645 1.79538,-2.882069 0.5982,-0.960425 0.0318,-0.661723 0.0472,-0.992188 0.0155,-0.330464 -0.28322,-1.039699 -0.42522,-1.559152 -0.14201,-0.519451 -2.01561,-2.488608 -3.02381,-3.732514 -1.0082,-1.243907 -2.86606,-1.98464 -4.29948,-2.976563" />
    <path
       style="opacity:1;vector-effect:none;fill:none;fill-opacity:1;fill-rule:evenodd;stroke:#000000;stroke-width:0.26458332px;stroke-linecap:butt;stroke-linejoin:miter;stroke-miterlimit:4;stroke-dasharray:none;stroke-dashoffset:0;stroke-opacity:1"
       d="m 178.40471,74.697917 c -0.89251,0.225131 -1.82532,0.289464 -2.74028,0.188989 -0.97369,-0.106924 -1.91737,-0.397109 -2.88207,-0.566965 -1.91699,-0.337526 -3.91742,-0.189953 -5.76413,0.425223"
       id="path1029"
       inkscape:connector-curvature="0"
       inkscape:path-effect="#path-effect1031"
       inkscape:original-d="m 178.40471,74.697917 c -0.91316,0.06273 -1.82659,0.125727 -2.74028,0.188989 -0.91369,0.06326 -1.92111,-0.378243 -2.88207,-0.566965 -0.96095,-0.188724 -3.84249,0.283218 -5.76413,0.425223" />
    <path
       style="opacity:1;vector-effect:none;fill:none;fill-opacity:1;fill-rule:evenodd;stroke:#000000;stroke-width:0.26458332px;stroke-linecap:butt;stroke-linejoin:miter;stroke-miterlimit:4;stroke-dasharray:none;stroke-dashoffset:0;stroke-opacity:1"
       d="m 167.01823,74.745164 c 1.02049,0.812047 2.06032,1.599795 3.1183,2.362351 1.74357,1.256703 3.54135,2.448843 5.14993,3.874256 0.72805,0.645147 1.41875,1.339146 2.2206,1.889882 0.24096,0.165497 0.49835,0.324379 0.66146,0.566962 0.1275,0.189633 0.18768,0.419461 0.19521,0.647849 0.008,0.228388 -0.0354,0.456079 -0.10071,0.675068 -0.11005,0.369159 -0.28904,0.725462 -0.56697,0.992187 -0.37915,0.363859 -0.90571,0.530928 -1.32291,0.850448 -0.51039,0.390892 -0.82169,0.978936 -1.18118,1.511906 -0.85585,1.268837 -2.03632,2.279723 -3.02381,3.449031 -0.59832,0.708485 -1.12544,1.475003 -1.6064,2.267858 -0.68264,1.125328 -1.29237,2.329165 -2.26785,3.212798 -0.90766,0.8222 -2.07119,1.309211 -3.02381,2.078869 -0.56382,0.455535 -1.04648,1.004331 -1.6064,1.464661 -0.58963,0.48476 -1.26325,0.87016 -1.79539,1.41741 -0.49119,0.50514 -0.84733,1.13408 -1.37016,1.60639 -0.31739,0.28672 -0.68733,0.50751 -1.04141,0.74745 -0.35407,0.23994 -0.70026,0.50677 -0.94297,0.85895 -0.32837,0.47649 -0.44272,1.07258 -0.75595,1.55916 -0.20257,0.31468 -0.48259,0.57353 -0.78685,0.79144 -0.30426,0.21791 -0.63393,0.39735 -0.96129,0.57872 -0.36396,0.20165 -0.7262,0.4064 -1.08668,0.61421"
       id="path1033"
       inkscape:connector-curvature="0"
       inkscape:path-effect="#path-effect1035"
       inkscape:original-d="m 167.01823,74.745164 c 1.0082,0.787185 2.07913,1.574636 3.1183,2.362351 1.03917,0.787714 3.43355,2.582574 5.14993,3.874256 1.71637,1.291683 1.48067,1.259655 2.2206,1.889882 0.73994,0.630224 0.44124,0.377711 0.66146,0.566962 0.22023,0.189254 0.0633,0.881682 0.0945,1.322917 0.0312,0.441238 -0.37771,0.661194 -0.56697,0.992187 -0.18925,0.330994 -0.88168,0.566701 -1.32291,0.850448 -0.44124,0.283747 -0.78719,1.007671 -1.18118,1.511906 -0.39399,0.504232 -2.01561,2.299089 -3.02381,3.449031 -1.0082,1.149943 -1.07067,1.511642 -1.6064,2.267858 -0.53573,0.756216 -1.51164,2.141601 -2.26785,3.212798 -0.75622,1.071195 -2.01561,1.385647 -3.02381,2.078869 -1.0082,0.693221 -1.07067,0.976171 -1.6064,1.464661 -0.53573,0.48848 -1.19666,0.94467 -1.79539,1.41741 -0.59873,0.47273 -0.91318,1.07066 -1.37016,1.60639 -0.45699,0.53574 -1.32265,1.07067 -1.98438,1.6064 -0.66172,0.53573 -0.5037,1.03917 -0.75595,1.55916 -0.25225,0.51998 -1.16516,0.91317 -1.74814,1.37016 -0.58298,0.45698 -0.72419,0.40921 -1.08668,0.61421" />
  </g>
  <g
     inkscape:groupmode="layer"
     id="layer1"
     inkscape:label="color">
    <g
       style="display:inline"
       transform="translate(-0.24,0.37546937)"
       id="g879">
      <g
         id="g868-3"
         transform="translate(-4.3213816e-6,127.87936)">
        <g
           id="g867-6"
           transform="translate(-5.2916669,-23.813257)">
          <circle
             r="5.4393101"
             cy="115.89004"
             cx="181.70808"
             id="path827-1-81"
             style="opacity:1;vector-effect:none;fill:none;fill-opacity:1;fill-rule:evenodd;stroke:#000000;stroke-width:0.25079238;stroke-linecap:butt;stroke-linejoin:miter;stroke-miterlimit:4;stroke-dasharray:none;stroke-dashoffset:0;stroke-opacity:1" />
          <circle
             r="9.7710209"
             cy="116.0905"
             cx="181.50229"
             id="path829-5-0"
             style="opacity:1;vector-effect:none;fill:none;fill-opacity:1;fill-rule:evenodd;stroke:#000000;stroke-width:0.27362648;stroke-linecap:butt;stroke-linejoin:miter;stroke-miterlimit:4;stroke-dasharray:none;stroke-dashoffset:0;stroke-opacity:1" />
          <circle
             r="17.722456"
             cy="115.49453"
             cx="181.56371"
             id="path831-9-7"
             style="opacity:1;vector-effect:none;fill:none;fill-opacity:1;fill-rule:evenodd;stroke:#000000;stroke-width:0.27329892;stroke-linecap:butt;stroke-linejoin:miter;stroke-miterlimit:4;stroke-dasharray:none;stroke-dashoffset:0;stroke-opacity:1" />
          <circle
             r="22.006632"
             cy="115.75645"
             cx="181.4193"
             id="path833-3-6"
             style="opacity:1;vector-effect:none;fill:none;fill-opacity:1;fill-rule:evenodd;stroke:#000000;stroke-width:0.25756967;stroke-linecap:butt;stroke-linejoin:miter;stroke-miterlimit:4;stroke-dasharray:none;stroke-dashoffset:0;stroke-opacity:1" />
          <circle
             r="34.418961"
             cy="115.66119"
             cx="181.66968"
             id="path835-5-7"
             style="opacity:1;vector-effect:none;fill:none;fill-opacity:1;fill-rule:evenodd;stroke:#000000;stroke-width:0.31421968;stroke-linecap:butt;stroke-linejoin:miter;stroke-miterlimit:4;stroke-dasharray:none;stroke-dashoffset:0;stroke-opacity:1" />
        </g>
        <g
           transform="translate(-74.853603,-23.812766)"
           id="g867-9-6">
          <circle
             r="5.4393101"
             cy="115.89004"
             cx="181.70808"
             id="path827-1-8-6"
             style="opacity:1;vector-effect:none;fill:none;fill-opacity:1;fill-rule:evenodd;stroke:#000000;stroke-width:0.25079238;stroke-linecap:butt;stroke-linejoin:miter;stroke-miterlimit:4;stroke-dasharray:none;stroke-dashoffset:0;stroke-opacity:1" />
          <circle
             r="9.7710209"
             cy="116.0905"
             cx="181.50229"
             id="path829-5-8-9"
             style="opacity:1;vector-effect:none;fill:none;fill-opacity:1;fill-rule:evenodd;stroke:#000000;stroke-width:0.27362648;stroke-linecap:butt;stroke-linejoin:miter;stroke-miterlimit:4;stroke-dasharray:none;stroke-dashoffset:0;stroke-opacity:1" />
          <circle
             r="17.722456"
             cy="115.49453"
             cx="181.56371"
             id="path831-9-1-1"
             style="opacity:1;vector-effect:none;fill:none;fill-opacity:1;fill-rule:evenodd;stroke:#000000;stroke-width:0.27329892;stroke-linecap:butt;stroke-linejoin:miter;stroke-miterlimit:4;stroke-dasharray:none;stroke-dashoffset:0;stroke-opacity:1" />
          <circle
             r="22.006632"
             cy="115.75645"
             cx="181.4193"
             id="path833-3-1-4"
             style="opacity:1;vector-effect:none;fill:none;fill-opacity:1;fill-rule:evenodd;stroke:#000000;stroke-width:0.25756967;stroke-linecap:butt;stroke-linejoin:miter;stroke-miterlimit:4;stroke-dasharray:none;stroke-dashoffset:0;stroke-opacity:1" />
          <circle
             r="34.418961"
             cy="115.66119"
             cx="181.66968"
             id="path835-5-1-7"
             style="opacity:1;vector-effect:none;fill:none;fill-opacity:1;fill-rule:evenodd;stroke:#000000;stroke-width:0.31421968;stroke-linecap:butt;stroke-linejoin:miter;stroke-miterlimit:4;stroke-dasharray:none;stroke-dashoffset:0;stroke-opacity:1" />
        </g>
      </g>
      <g
         id="g868-3-6"
         transform="translate(-4.3213816e-6,197.20004)">
        <g
           id="g867-6-2"
           transform="translate(-5.2916669,-23.813257)">
          <circle
             r="5.4393101"
             cy="115.89004"
             cx="181.70808"
             id="path827-1-81-1"
             style="opacity:1;vector-effect:none;fill:none;fill-opacity:1;fill-rule:evenodd;stroke:#000000;stroke-width:0.25079238;stroke-linecap:butt;stroke-linejoin:miter;stroke-miterlimit:4;stroke-dasharray:none;stroke-dashoffset:0;stroke-opacity:1" />
          <circle
             r="9.7710209"
             cy="116.0905"
             cx="181.50229"
             id="path829-5-0-0"
             style="opacity:1;vector-effect:none;fill:none;fill-opacity:1;fill-rule:evenodd;stroke:#000000;stroke-width:0.27362648;stroke-linecap:butt;stroke-linejoin:miter;stroke-miterlimit:4;stroke-dasharray:none;stroke-dashoffset:0;stroke-opacity:1" />
          <circle
             r="17.722456"
             cy="115.49453"
             cx="181.56371"
             id="path831-9-7-3"
             style="opacity:1;vector-effect:none;fill:none;fill-opacity:1;fill-rule:evenodd;stroke:#000000;stroke-width:0.27329892;stroke-linecap:butt;stroke-linejoin:miter;stroke-miterlimit:4;stroke-dasharray:none;stroke-dashoffset:0;stroke-opacity:1" />
          <circle
             r="22.006632"
             cy="115.75645"
             cx="181.4193"
             id="path833-3-6-9"
             style="opacity:1;vector-effect:none;fill:none;fill-opacity:1;fill-rule:evenodd;stroke:#000000;stroke-width:0.25756967;stroke-linecap:butt;stroke-linejoin:miter;stroke-miterlimit:4;stroke-dasharray:none;stroke-dashoffset:0;stroke-opacity:1" />
          <circle
             r="34.418961"
             cy="115.66119"
             cx="181.66968"
             id="path835-5-7-9"
             style="opacity:1;vector-effect:none;fill:none;fill-opacity:1;fill-rule:evenodd;stroke:#000000;stroke-width:0.31421968;stroke-linecap:butt;stroke-linejoin:miter;stroke-miterlimit:4;stroke-dasharray:none;stroke-dashoffset:0;stroke-opacity:1" />
        </g>
        <g
           transform="translate(-74.853603,-23.812766)"
           id="g867-9-6-6">
          <circle
             r="5.4393101"
             cy="115.89004"
             cx="181.70808"
             id="path827-1-8-6-7"
             style="opacity:1;vector-effect:none;fill:none;fill-opacity:1;fill-rule:evenodd;stroke:#000000;stroke-width:0.25079238;stroke-linecap:butt;stroke-linejoin:miter;stroke-miterlimit:4;stroke-dasharray:none;stroke-dashoffset:0;stroke-opacity:1" />
          <circle
             r="9.7710209"
             cy="116.0905"
             cx="181.50229"
             id="path829-5-8-9-1"
             style="opacity:1;vector-effect:none;fill:none;fill-opacity:1;fill-rule:evenodd;stroke:#000000;stroke-width:0.27362648;stroke-linecap:butt;stroke-linejoin:miter;stroke-miterlimit:4;stroke-dasharray:none;stroke-dashoffset:0;stroke-opacity:1" />
          <circle
             r="17.722456"
             cy="115.49453"
             cx="181.56371"
             id="path831-9-1-1-4"
             style="opacity:1;vector-effect:none;fill:none;fill-opacity:1;fill-rule:evenodd;stroke:#000000;stroke-width:0.27329892;stroke-linecap:butt;stroke-linejoin:miter;stroke-miterlimit:4;stroke-dasharray:none;stroke-dashoffset:0;stroke-opacity:1" />
          <circle
             r="22.006632"
             cy="115.75645"
             cx="181.4193"
             id="path833-3-1-4-8"
             style="opacity:1;vector-effect:none;fill:none;fill-opacity:1;fill-rule:evenodd;stroke:#000000;stroke-width:0.25756967;stroke-linecap:butt;stroke-linejoin:miter;stroke-miterlimit:4;stroke-dasharray:none;stroke-dashoffset:0;stroke-opacity:1" />
          <circle
             r="34.418961"
             cy="115.66119"
             cx="181.66968"
             id="path835-5-1-7-7"
             style="opacity:1;vector-effect:none;fill:none;fill-opacity:1;fill-rule:evenodd;stroke:#000000;stroke-width:0.31421968;stroke-linecap:butt;stroke-linejoin:miter;stroke-miterlimit:4;stroke-dasharray:none;stroke-dashoffset:0;stroke-opacity:1" />
        </g>
      </g>
    </g>
    <path
       style="opacity:1;vector-effect:none;fill:#f45325;fill-opacity:1;stroke:none;stroke-width:0.40764937;stroke-linecap:butt;stroke-linejoin:miter;stroke-miterlimit:4;stroke-dasharray:none;stroke-dashoffset:0;stroke-opacity:1"
       d="m 102.81386,254.10897 c -11.772336,-1.44293 -21.747445,-8.48947 -26.951603,-19.03892 -3.858411,-7.82147 -4.502272,-17.32312 -1.742427,-25.71353 0.751467,-2.28459 2.691831,-6.22857 4.097708,-8.32898 4.129421,-6.16945 10.414963,-10.94233 17.529559,-13.31093 4.175073,-1.38997 5.609483,-1.6051 10.752033,-1.61256 5.16129,-0.007 6.79543,0.23263 10.91412,1.60364 15.99847,5.32546 25.69092,21.56412 22.82297,38.23744 -2.39427,13.91948 -13.16794,24.92391 -27.14546,27.72688 -1.61534,0.32393 -2.86591,0.42361 -5.83568,0.46516 -2.07887,0.0291 -4.07742,0.0164 -4.44122,-0.0282 z m 7.39303,-12.06532 c 4.4615,-0.78247 8.46917,-2.89463 11.81243,-6.22551 5.05243,-5.03373 7.34928,-12.13847 6.20508,-19.19389 -2.36236,-14.56687 -18.34347,-22.85785 -31.552653,-16.36947 -6.705217,3.29362 -11.18678,9.39171 -12.292447,16.7264 -1.634757,10.84457 5.155893,21.42848 15.71306,24.49037 0.92514,0.26832 2.10729,0.55937 2.62701,0.64678 1.58242,0.26614 5.78313,0.22424 7.48752,-0.0747 z"
       id="path903"
       inkscape:connector-curvature="0" />
    <path
       style="opacity:1;vector-effect:none;fill:#f45325;fill-opacity:1;stroke:none;stroke-width:0.40764937;stroke-linecap:butt;stroke-linejoin:miter;stroke-miterlimit:4;stroke-dasharray:none;stroke-dashoffset:0;stroke-opacity:1"
       d="m 102.81386,237.04186 c -6.38398,-1.34836 -11.386967,-6.09884 -13.269356,-12.59963 -0.369898,-1.27744 -0.432046,-1.92703 -0.432046,-4.51588 0,-2.58319 0.06296,-3.24412 0.432086,-4.53571 1.727618,-6.04506 6.532311,-10.81245 12.513366,-12.41623 1.36035,-0.36477 2.05507,-0.42875 4.53571,-0.41767 2.61416,0.0117 3.10801,0.0675 4.59021,0.51889 2.98337,0.90853 5.22148,2.20315 7.38436,4.27142 2.31362,2.21241 4.0234,5.10023 4.87423,8.23257 0.59039,2.17354 0.59039,6.51992 0,8.69345 -0.86626,3.18917 -2.57147,6.04336 -4.97402,8.32554 -2.46569,2.34217 -5.49695,3.90324 -8.82034,4.54242 -1.86846,0.35936 -4.86945,0.31581 -6.8342,-0.0992 z m 6.45294,-6.99778 c 3.63379,-1.12278 6.1683,-3.96031 6.9128,-7.73931 1.36533,-6.93025 -5.29385,-13.2244 -12.11235,-11.44841 -1.93153,0.5031 -3.15401,1.20805 -4.612461,2.65981 -2.465191,2.45388 -3.46213,5.55523 -2.825122,8.7886 0.736357,3.73763 3.105495,6.43284 6.751163,7.68031 1.63687,0.56011 4.18158,0.58562 5.88597,0.059 z"
       id="path905"
       inkscape:connector-curvature="0" />
    <path
       style="opacity:1;vector-effect:none;fill:#f45325;fill-opacity:1;stroke:none;stroke-width:0.40764937;stroke-linecap:butt;stroke-linejoin:miter;stroke-miterlimit:4;stroke-dasharray:none;stroke-dashoffset:0;stroke-opacity:1"
       d="m 104.42026,225.05033 c -2.63839,-1.24943 -3.752,-4.38358 -2.48076,-6.9819 2.30226,-4.70565 9.16943,-3.51125 9.86277,1.71543 0.51389,3.87388 -3.80948,6.95825 -7.38201,5.26647 z"
       id="path907"
       inkscape:connector-curvature="0" />
    <path
       style="opacity:1;vector-effect:none;fill:#81bd06;fill-opacity:1;stroke:none;stroke-width:0.40764937;stroke-linecap:butt;stroke-linejoin:miter;stroke-miterlimit:4;stroke-dasharray:none;stroke-dashoffset:0;stroke-opacity:1"
       d="m 171.75088,254.02751 c -11.49317,-1.5838 -21.28765,-8.644 -26.33353,-18.98211 -5.30046,-10.85971 -4.43285,-23.77793 2.272,-33.82887 5.09603,-7.63922 12.58446,-12.67269 21.83731,-14.67831 1.76146,-0.38181 2.50449,-0.43013 6.61458,-0.43013 5.24763,0 6.6314,0.20521 10.84653,1.60852 11.36978,3.78525 19.85764,13.22053 22.50285,25.01466 2.40251,10.71204 -0.56181,21.95057 -7.9793,30.25163 -2.88082,3.22398 -6.2117,5.72251 -10.34552,7.76029 -2.81849,1.38938 -5.57941,2.33765 -8.52742,2.92882 -2.32654,0.46655 -8.59607,0.67126 -10.8875,0.3555 z m 8.01214,-11.98377 c 9.19043,-1.60267 16.51279,-9.02234 18.009,-18.24833 1.847,-11.38906 -5.28243,-22.25984 -16.47173,-25.11569 -9.86028,-2.51665 -20.40585,2.21547 -25.0346,11.23377 -1.88266,3.66803 -2.51028,6.28355 -2.49335,10.39083 0.0124,3.0035 0.23469,4.40968 1.10884,7.01375 2.11431,6.29841 7.27431,11.55333 13.51155,13.76009 3.39434,1.20094 7.85059,1.57937 11.37029,0.96558 z"
       id="path909"
       inkscape:connector-curvature="0" />
    <path
       style="opacity:1;vector-effect:none;fill:#05a5ef;fill-opacity:1;stroke:none;stroke-width:0.40764937;stroke-linecap:butt;stroke-linejoin:miter;stroke-miterlimit:4;stroke-dasharray:none;stroke-dashoffset:0;stroke-opacity:1"
       d="m 102.05791,323.31317 c -7.708671,-1.11591 -14.426378,-4.47847 -19.829852,-9.9259 -10.616518,-10.7029 -12.865939,-27.26108 -5.511483,-40.57052 3.333637,-6.0329 8.554887,-10.97744 14.852494,-14.06533 12.363451,-6.06215 27.144671,-4.10596 37.515431,4.96488 10.92833,9.55855 14.60813,24.98283 9.17982,38.47835 -4.37799,10.8843 -14.21908,18.85786 -25.81207,20.91381 -2.44806,0.43413 -8.04756,0.5444 -10.39434,0.20471 z m 9.63839,-12.25334 c 7.54557,-1.98186 13.40303,-7.47593 15.76007,-14.78229 2.17142,-6.73098 0.92018,-14.28398 -3.30186,-19.93136 -2.65015,-3.54483 -6.22995,-6.22588 -10.21441,-7.64997 -2.84128,-1.01553 -4.44092,-1.29202 -7.53546,-1.30249 -6.19915,-0.0209 -11.332575,2.09145 -15.711323,6.46541 -10.272517,10.26128 -8.176416,27.19903 4.299453,34.74222 2.176174,1.31578 4.709819,2.25034 7.55538,2.78691 2.32972,0.43932 6.84188,0.27734 9.14815,-0.32843 z"
       id="path913"
       inkscape:connector-curvature="0" />
    <path
       style="opacity:1;vector-effect:none;fill:#ffba07;fill-opacity:1;stroke:none;stroke-width:0.40764937;stroke-linecap:butt;stroke-linejoin:miter;stroke-miterlimit:4;stroke-dasharray:none;stroke-dashoffset:0;stroke-opacity:1"
       d="M 171.60553,323.31396 C 157.28604,321.26 145.91994,310.84409 142.8083,296.92413 c -3.83402,-17.15146 5.98563,-34.49992 22.61023,-39.94574 14.65033,-4.79909 30.57658,0.68459 39.13628,13.47528 7.35133,10.98503 7.66119,25.41699 0.78803,36.70319 -5.1081,8.38785 -13.62173,14.20651 -23.34297,15.95379 -2.41991,0.43495 -8.01622,0.54441 -10.39434,0.20331 z m 9.69395,-12.2664 c 8.61924,-2.25317 15.07813,-9.29667 16.48629,-17.97855 1.90794,-11.76319 -5.73958,-22.78554 -17.58128,-25.33988 -2.10503,-0.45408 -6.45334,-0.45956 -8.56042,-0.0109 -9.79939,2.08706 -16.76119,9.741 -17.83088,19.60367 -0.78752,7.26096 2.35425,14.79907 8.08934,19.40888 2.83957,2.28243 6.54817,3.9797 10.17547,4.65688 2.3768,0.44373 6.85454,0.27852 9.22148,-0.3402 z"
       id="path915"
       inkscape:connector-curvature="0" />
    <path
       style="opacity:1;vector-effect:none;fill:#81bd06;fill-opacity:1;stroke:none;stroke-width:0.40764937;stroke-linecap:butt;stroke-linejoin:miter;stroke-miterlimit:4;stroke-dasharray:none;stroke-dashoffset:0;stroke-opacity:1"
       d="m 173.96788,225.05033 c -3.50724,-1.66087 -4.04019,-6.50673 -0.97076,-8.8266 2.21875,-1.67694 4.88057,-1.48365 6.86254,0.49832 1.59386,1.59386 1.97619,3.72918 1.03899,5.8027 -1.14587,2.53519 -4.40362,3.72232 -6.93077,2.52558 z"
       id="path917"
       inkscape:connector-curvature="0" />
    <path
       style="opacity:1;vector-effect:none;fill:#81bd06;fill-opacity:1;stroke:none;stroke-width:0.40764937;stroke-linecap:butt;stroke-linejoin:miter;stroke-miterlimit:4;stroke-dasharray:none;stroke-dashoffset:0;stroke-opacity:1"
       d="m 172.36148,237.03747 c -6.30731,-1.34944 -11.46985,-6.21773 -13.2353,-12.48091 -0.60719,-2.15409 -0.70894,-5.80423 -0.22658,-8.12839 0.7122,-3.43165 2.30336,-6.37637 4.78798,-8.86099 2.28741,-2.28741 4.8975,-3.75547 8.35522,-4.69945 1.85333,-0.50597 6.39042,-0.44947 8.31584,0.10356 3.21305,0.92288 5.53565,2.23028 7.75365,4.36458 2.2956,2.20898 3.81413,4.71363 4.77791,7.88069 0.4597,1.51061 0.51442,1.99067 0.52601,4.6153 0.0138,3.13178 -0.20772,4.32731 -1.30019,7.0159 -1.06008,2.60886 -3.74906,5.86503 -6.23266,7.54729 -3.9171,2.65326 -8.9104,3.62904 -13.52188,2.64242 z m 6.14211,-6.87982 c 4.13086,-1.10622 7.08092,-4.68965 7.39873,-8.98724 0.3188,-4.31097 -2.51084,-8.58861 -6.64277,-10.04202 -1.43422,-0.50448 -3.8152,-0.67505 -5.25277,-0.37628 -5.00439,1.04003 -8.61069,6.05715 -7.91087,11.00567 0.56703,4.00961 3.137,7.04812 7.02152,8.30166 1.2688,0.40944 4.03559,0.45989 5.38616,0.0982 z"
       id="path919"
       inkscape:connector-curvature="0" />
    <path
       style="opacity:1;vector-effect:none;fill:#ffba07;fill-opacity:1;stroke:none;stroke-width:0.40764937;stroke-linecap:butt;stroke-linejoin:miter;stroke-miterlimit:4;stroke-dasharray:none;stroke-dashoffset:0;stroke-opacity:1"
       d="m 172.993,306.49966 c -3.63003,-0.69326 -6.40421,-2.13331 -9.11059,-4.72919 -2.3472,-2.25139 -3.92841,-4.92553 -4.80509,-8.12638 -0.60766,-2.21869 -0.59791,-6.72158 0.0192,-8.87498 1.74084,-6.0743 6.06832,-10.49602 12.07494,-12.33794 1.50936,-0.46284 1.94961,-0.51086 4.78075,-0.52144 3.6352,-0.0135 4.96568,0.27323 7.84351,1.69087 4.66192,2.29651 7.94593,6.41072 9.27605,11.62114 0.52931,2.0734 0.48858,6.31991 -0.0807,8.40996 -0.85411,3.13598 -2.56267,6.02107 -4.87534,8.23259 -3.25753,3.11502 -6.95317,4.6627 -11.5021,4.81688 -1.44911,0.0491 -2.75626,-0.0164 -3.62071,-0.18151 z m 5.50274,-7.01521 c 2.44245,-0.63619 4.87533,-2.49098 6.11936,-4.66532 0.71384,-1.24767 1.35352,-3.59519 1.35352,-4.96718 0,-1.372 -0.63968,-3.71952 -1.35352,-4.96719 -1.24403,-2.17434 -3.67691,-4.02912 -6.11936,-4.66531 -5.67372,-1.47781 -11.51738,2.40895 -12.3842,8.23703 -0.70787,4.75938 2.4331,9.63068 7.0641,10.9556 1.46646,0.41958 3.86201,0.45215 5.3201,0.0724 z"
       id="path921"
       inkscape:connector-curvature="0" />
    <path
       style="opacity:1;vector-effect:none;fill:#000000;fill-opacity:0;stroke:none;stroke-width:0.40764937;stroke-linecap:butt;stroke-linejoin:miter;stroke-miterlimit:4;stroke-dasharray:none;stroke-dashoffset:0;stroke-opacity:1"
       d="m 174.32419,294.56595 c -1.96159,-0.72454 -3.30925,-2.70986 -3.30925,-4.87508 0,-2.92278 1.93031,-4.99692 4.82315,-5.18256 1.11468,-0.0715 1.53285,-0.0119 2.33553,0.33346 1.8533,0.79727 3.25929,2.87703 3.25929,4.82118 0,1.7561 -1.30017,3.84525 -2.90509,4.66799 -1.01265,0.51912 -3.11601,0.6367 -4.20363,0.23501 z"
       id="path923"
       inkscape:connector-curvature="0" />
    <path
       style="opacity:1;vector-effect:none;fill:#ffba07;fill-opacity:1;stroke:none;stroke-width:0.40764937;stroke-linecap:butt;stroke-linejoin:miter;stroke-miterlimit:4;stroke-dasharray:none;stroke-dashoffset:0;stroke-opacity:1"
       d="m 174.32419,294.56595 c -1.96159,-0.72454 -3.30925,-2.70986 -3.30925,-4.87508 0,-2.92278 1.93031,-4.99692 4.82315,-5.18256 1.11468,-0.0715 1.53285,-0.0119 2.33553,0.33346 1.8533,0.79727 3.25929,2.87703 3.25929,4.82118 0,1.7561 -1.30017,3.84525 -2.90509,4.66799 -1.01265,0.51912 -3.11601,0.6367 -4.20363,0.23501 z"
       id="path925"
       inkscape:connector-curvature="0" />
    <path
       style="opacity:1;vector-effect:none;fill:#05a5ef;fill-opacity:1;stroke:none;stroke-width:0.40764937;stroke-linecap:butt;stroke-linejoin:miter;stroke-miterlimit:4;stroke-dasharray:none;stroke-dashoffset:0;stroke-opacity:1"
       d="m 103.4489,306.50024 c -5.739235,-1.0964 -10.582007,-4.8487 -12.923993,-10.01384 -1.164312,-2.56783 -1.413844,-3.86728 -1.401027,-7.29591 0.01058,-2.83115 0.0586,-3.27139 0.521441,-4.78076 1.810313,-5.90357 6.074981,-10.16825 11.978559,-11.97856 1.50936,-0.46284 1.94961,-0.51086 4.78076,-0.52144 2.69845,-0.01 3.31648,0.0458 4.59023,0.415 8.07546,2.34066 13.3622,9.62673 12.92339,17.81069 -0.34815,6.49319 -4.07258,12.09347 -9.88717,14.86696 -0.95064,0.45345 -2.3964,0.99939 -3.21279,1.21317 -1.91856,0.50245 -5.50441,0.64098 -7.3694,0.28469 z m 5.46846,-7.02439 c 4.8658,-1.26085 8.14209,-6.18787 7.34087,-11.03948 -0.82916,-5.02071 -4.86681,-8.5063 -9.85359,-8.5063 -4.95781,0 -9.16161,3.66644 -9.859211,8.59896 -0.677026,4.78705 2.435065,9.55135 7.114661,10.89184 1.44651,0.41436 3.77639,0.43873 5.25727,0.055 z"
       id="path927"
       inkscape:connector-curvature="0" />
    <path
       style="opacity:1;vector-effect:none;fill:#05a5ef;fill-opacity:1;stroke:none;stroke-width:0.40764937;stroke-linecap:butt;stroke-linejoin:miter;stroke-miterlimit:4;stroke-dasharray:none;stroke-dashoffset:0;stroke-opacity:1"
       d="m 104.77657,294.56595 c -1.93134,-0.71335 -3.3586,-2.79125 -3.3539,-4.88283 0.006,-2.86139 2.01008,-4.99142 4.8678,-5.17481 1.11884,-0.0718 1.53204,-0.0122 2.34794,0.3388 1.818,0.78209 3.24688,2.90142 3.24688,4.81584 0,1.7561 -1.30017,3.84525 -2.90508,4.66799 -1.01266,0.51912 -3.11602,0.6367 -4.20364,0.23501 z"
       id="path929"
       inkscape:connector-curvature="0" />
    <path
       style="opacity:1;vector-effect:none;fill:#093b9e;fill-opacity:1;stroke:none;stroke-width:3.08144403;stroke-linecap:butt;stroke-linejoin:miter;stroke-miterlimit:4;stroke-dasharray:none;stroke-dashoffset:0;stroke-opacity:1"
       d="m 582.54315,518.41225 c -13.09537,-4.66501 -18.31964,-12.1661 -19.36831,-27.80925 -0.71267,-10.63108 -0.72799,-10.66476 -6.77255,-14.90426 l -6.05825,-4.2491 -3.35585,3.15264 c -4.94278,4.64352 -11.78314,6.12062 -23.81335,5.14224 -6.58695,-0.5357 -13.19069,-0.21634 -17.14286,0.82905 -7.75557,2.0514 -29.95893,3.93155 -60.35714,5.11097 -22.29143,0.86487 -22.5,0.90351 -22.5,4.16773 0,1.96171 -1.87847,4.87868 -4.64286,7.20964 -15.3878,12.97514 -34.90274,9.75843 -48.90226,-8.06073 -3.72072,-4.73587 -12.96304,-14.1284 -20.53848,-20.87226 -7.57545,-6.74385 -17.09967,-16.43457 -21.16494,-21.53491 -9.00509,-11.29793 -22.30483,-36.67617 -31.27229,-59.67304 -3.66556,-9.40027 -9.74147,-23.8451 -13.50201,-32.09963 -3.76054,-8.25453 -7.94679,-18.86168 -9.30277,-23.57143 -5.83493,-20.26651 -10.8702,-32.13463 -13.63371,-32.13463 -4.32498,0 -7.75036,-6.85845 -7.20519,-14.42656 0.1184,-1.64359 4.66928,-3.58334 16.23594,-6.92037 23.85752,-6.88298 28.07598,-7.02947 44.53389,-1.54651 16.82667,5.60581 18.44905,5.40953 40.82325,-4.93879 19.81543,-9.16486 26.03664,-11.16914 46.42857,-14.95782 8.64286,-1.60578 22.99501,-5.16011 31.89369,-7.89851 9.91631,-3.05156 23.31102,-5.85042 34.60247,-7.23028 10.1327,-1.23825 27.92338,-4.50012 39.53488,-7.24859 58.16615,-13.76807 91.78419,-18.24871 137.54039,-18.3315 l 33.57143,-0.0607 10.71428,4.09688 c 18.93746,7.24123 25.25249,11.43427 65.71429,43.63286 37.87566,30.14061 48.383,41.1347 62.8176,65.72763 5.6274,9.58767 5.6628,9.49241 -11.06026,29.76804 -6.8594,8.31659 -16.21607,19.66903 -20.79261,25.22766 -23.32356,28.32863 -98.09905,103.20186 -116.80757,116.96027 -11.25979,8.28055 -28.04042,13.19946 -49.15716,14.40949 -6.28572,0.36018 -14.58432,1.66974 -18.44133,2.91014 -8.45559,2.71927 -11.28001,2.73804 -18.61893,0.12372 z m 39.8329,-64.33991 c 14.73066,-16.55663 23.02709,-28.01479 43.93682,-60.68094 23.65028,-36.9476 29.22295,-47.40996 30.43148,-57.13326 0.59094,-4.75447 2.40984,-9.9692 4.60613,-13.20567 6.73031,-9.91781 1.52471,-21.78391 -14.82256,-33.78782 -8.78517,-6.45101 -10.1736,-6.98356 -21.02261,-8.06335 -16.84324,-1.67639 -31.99604,-1.5633 -33.81169,0.25234 -1.14583,1.14582 2.04582,4.21929 11.7395,11.30485 17.53703,12.81863 29.74172,23.45261 29.74172,25.91407 0,1.09226 -2.46886,4.37086 -5.48636,7.28576 -8.65836,8.36396 -20.88069,23.18139 -25.91941,31.42275 -2.99033,4.89097 -7.47456,9.49205 -12.7278,13.05947 -9.3178,6.32758 -33.00929,28.75797 -33.00929,31.25217 0,0.91984 -2.59947,3.31341 -5.7766,5.31904 l -5.77659,3.64662 4.8328,5.64604 c 5.44666,6.3632 9.09423,17.15743 10.9024,32.26337 1.31573,10.992 4.62259,17.69036 8.73339,17.69036 1.44716,0 7.36327,-5.36854 13.42867,-12.1858 z M 413.03331,435.59378 c 3.2626,-1.1511 10.87837,-3.11463 16.92394,-4.36337 6.04557,-1.24874 11.19154,-2.47003 11.43547,-2.71397 0.24395,-0.24394 -2.11191,-5.19113 -5.23523,-10.99377 -3.1233,-5.80263 -8.84868,-19.22882 -12.72305,-29.83596 -3.87437,-10.60714 -9.70087,-26.16707 -12.94777,-34.57761 -3.2469,-8.41054 -6.65778,-18.5598 -7.57973,-22.55391 -1.33809,-5.79692 -2.12863,-7.05088 -3.91847,-6.21547 -1.23322,0.5756 -6.30695,1.29965 -11.27497,1.60899 l -9.03277,0.56245 0.79936,5.23063 c 0.43964,2.87685 1.81955,15.51635 3.06645,28.08778 4.27176,43.06847 8.32476,60.76095 16.76971,73.20453 3.53926,5.21505 5.27363,5.53871 13.71706,2.55968 z m 102.16348,-36.58363 c 1.66158,-12.52547 6.37999,-24.98294 13.72313,-36.23151 3.94387,-6.0414 7.78645,-13.67643 8.53905,-16.96672 0.7526,-3.29029 2.73154,-12.41092 4.39762,-20.26807 1.6661,-7.85714 4.25143,-17.09957 5.74519,-20.53874 3.30797,-7.61615 3.80831,-23.03269 0.74751,-23.03269 -1.08261,0 -4.45761,1.04789 -7.5,2.32863 -3.04237,1.28074 -19.25751,5.7388 -36.03364,9.9068 -16.77611,4.16799 -30.83478,7.91093 -31.24148,8.31763 -0.40672,0.4067 0.4026,1.88152 1.79845,3.27738 3.9723,3.9723 7.36139,13.06594 9.22066,24.74099 0.93844,5.89286 3.52779,19.07143 5.75409,29.28572 2.2263,10.21428 4.78574,24.03571 5.68762,30.71428 0.9019,6.67857 1.83262,12.78572 2.06826,13.57143 0.23563,0.78572 3.9671,1.54894 8.29214,1.69604 l 7.86372,0.26749 z"
       id="path954"
       inkscape:connector-curvature="0"
       transform="scale(0.26458333)" />
  </g>
</svg>
