<?xml version="1.0" encoding="UTF-8" standalone="no"?>
<!-- Created with Inkscape (http://www.inkscape.org/) -->

<svg
   xmlns:dc="http://purl.org/dc/elements/1.1/"
   xmlns:cc="http://creativecommons.org/ns#"
   xmlns:rdf="http://www.w3.org/1999/02/22-rdf-syntax-ns#"
   xmlns:svg="http://www.w3.org/2000/svg"
   xmlns="http://www.w3.org/2000/svg"
   xmlns:sodipodi="http://sodipodi.sourceforge.net/DTD/sodipodi-0.dtd"
   xmlns:inkscape="http://www.inkscape.org/namespaces/inkscape"
   width="285mm"
   height="375mm"
   viewBox="0 0 285 375"
   version="1.1"
   id="svg8"
   inkscape:version="0.92.3 (2405546, 2018-03-11)"
   sodipodi:docname="mahjong9characters.svg">
  <defs
     id="defs2">
    <inkscape:path-effect
       effect="spiro"
       id="path-effect1163"
       is_visible="true" />
    <inkscape:path-effect
       effect="spiro"
       id="path-effect1159"
       is_visible="true" />
    <inkscape:path-effect
       effect="spiro"
       id="path-effect1155"
       is_visible="true" />
    <inkscape:path-effect
       effect="spiro"
       id="path-effect1151"
       is_visible="true" />
    <inkscape:path-effect
       effect="spiro"
       id="path-effect1147"
       is_visible="true" />
    <inkscape:path-effect
       effect="spiro"
       id="path-effect1139"
       is_visible="true" />
    <inkscape:path-effect
       effect="spiro"
       id="path-effect1135"
       is_visible="true" />
    <inkscape:path-effect
       effect="spiro"
       id="path-effect1131"
       is_visible="true" />
    <inkscape:path-effect
       effect="spiro"
       id="path-effect1127"
       is_visible="true" />
    <inkscape:path-effect
       effect="spiro"
       id="path-effect1123"
       is_visible="true" />
    <inkscape:path-effect
       effect="spiro"
       id="path-effect1108"
       is_visible="true" />
    <inkscape:path-effect
       effect="spiro"
       id="path-effect1104"
       is_visible="true" />
    <inkscape:path-effect
       effect="spiro"
       id="path-effect1100"
       is_visible="true" />
    <inkscape:path-effect
       effect="spiro"
       id="path-effect1096"
       is_visible="true" />
    <inkscape:path-effect
       effect="spiro"
       id="path-effect1092"
       is_visible="true" />
    <inkscape:path-effect
       effect="spiro"
       id="path-effect1077"
       is_visible="true" />
    <inkscape:path-effect
       effect="spiro"
       id="path-effect1073"
       is_visible="true" />
    <inkscape:path-effect
       effect="spiro"
       id="path-effect1069"
       is_visible="true" />
    <inkscape:path-effect
       effect="spiro"
       id="path-effect1065"
       is_visible="true" />
    <inkscape:path-effect
       effect="spiro"
       id="path-effect1061"
       is_visible="true" />
    <inkscape:path-effect
       effect="spiro"
       id="path-effect1057"
       is_visible="true" />
    <inkscape:path-effect
       effect="spiro"
       id="path-effect1053"
       is_visible="true" />
    <inkscape:path-effect
       effect="spiro"
       id="path-effect1038"
       is_visible="true" />
    <inkscape:path-effect
       effect="spiro"
       id="path-effect1034"
       is_visible="true" />
    <inkscape:path-effect
       effect="spiro"
       id="path-effect1030"
       is_visible="true" />
    <inkscape:path-effect
       effect="spiro"
       id="path-effect1026"
       is_visible="true" />
    <inkscape:path-effect
       effect="spiro"
       id="path-effect1022"
       is_visible="true" />
    <inkscape:path-effect
       effect="spiro"
       id="path-effect1018"
       is_visible="true" />
    <inkscape:path-effect
       effect="spiro"
       id="path-effect1014"
       is_visible="true" />
    <inkscape:path-effect
       effect="spiro"
       id="path-effect1010"
       is_visible="true" />
    <inkscape:path-effect
       effect="spiro"
       id="path-effect1006"
       is_visible="true" />
    <inkscape:path-effect
       effect="spiro"
       id="path-effect1002"
       is_visible="true" />
    <inkscape:path-effect
       effect="spiro"
       id="path-effect998"
       is_visible="true" />
    <inkscape:path-effect
       effect="spiro"
       id="path-effect994"
       is_visible="true" />
    <inkscape:path-effect
       effect="spiro"
       id="path-effect1691"
       is_visible="true" />
    <inkscape:path-effect
       effect="spiro"
       id="path-effect1687"
       is_visible="true" />
    <inkscape:path-effect
       effect="spiro"
       id="path-effect1683"
       is_visible="true" />
    <inkscape:path-effect
       effect="spiro"
       id="path-effect1679"
       is_visible="true" />
    <inkscape:path-effect
       effect="spiro"
       id="path-effect1675"
       is_visible="true" />
    <inkscape:path-effect
       effect="spiro"
       id="path-effect1671"
       is_visible="true" />
    <inkscape:path-effect
       effect="spiro"
       id="path-effect1667"
       is_visible="true" />
    <inkscape:path-effect
       effect="spiro"
       id="path-effect1663"
       is_visible="true" />
    <inkscape:path-effect
       effect="spiro"
       id="path-effect1659"
       is_visible="true" />
    <inkscape:path-effect
       effect="spiro"
       id="path-effect1655"
       is_visible="true" />
    <inkscape:path-effect
       effect="spiro"
       id="path-effect1651"
       is_visible="true" />
    <inkscape:path-effect
       effect="spiro"
       id="path-effect1647"
       is_visible="true" />
    <inkscape:path-effect
       effect="spiro"
       id="path-effect1639"
       is_visible="true" />
    <inkscape:path-effect
       effect="spiro"
       id="path-effect1635"
       is_visible="true" />
    <inkscape:path-effect
       effect="spiro"
       id="path-effect1631"
       is_visible="true" />
    <inkscape:path-effect
       effect="spiro"
       id="path-effect1627"
       is_visible="true" />
    <inkscape:path-effect
       effect="spiro"
       id="path-effect1623"
       is_visible="true" />
    <inkscape:path-effect
       effect="spiro"
       id="path-effect1619"
       is_visible="true" />
    <inkscape:path-effect
       effect="spiro"
       id="path-effect1615"
       is_visible="true" />
    <inkscape:path-effect
       effect="spiro"
       id="path-effect1611"
       is_visible="true" />
    <inkscape:path-effect
       effect="spiro"
       id="path-effect1607"
       is_visible="true" />
    <inkscape:path-effect
       effect="spiro"
       id="path-effect1603"
       is_visible="true" />
    <inkscape:path-effect
       effect="spiro"
       id="path-effect1035"
       is_visible="true" />
    <inkscape:path-effect
       effect="spiro"
       id="path-effect1031"
       is_visible="true" />
    <inkscape:path-effect
       effect="spiro"
       id="path-effect1027"
       is_visible="true" />
    <inkscape:path-effect
       effect="spiro"
       id="path-effect1023"
       is_visible="true" />
    <inkscape:path-effect
       effect="spiro"
       id="path-effect1019"
       is_visible="true" />
    <inkscape:path-effect
       effect="spiro"
       id="path-effect1015"
       is_visible="true" />
    <inkscape:path-effect
       effect="spiro"
       id="path-effect1011"
       is_visible="true" />
    <inkscape:path-effect
       effect="spiro"
       id="path-effect1007"
       is_visible="true" />
    <inkscape:path-effect
       effect="spiro"
       id="path-effect1003"
       is_visible="true" />
    <inkscape:path-effect
       effect="spiro"
       id="path-effect999"
       is_visible="true" />
    <inkscape:path-effect
       effect="spiro"
       id="path-effect995"
       is_visible="true" />
    <inkscape:path-effect
       effect="spiro"
       id="path-effect991"
       is_visible="true" />
    <inkscape:path-effect
       effect="spiro"
       id="path-effect987"
       is_visible="true" />
    <inkscape:path-effect
       effect="spiro"
       id="path-effect983"
       is_visible="true" />
    <inkscape:path-effect
       effect="spiro"
       id="path-effect979"
       is_visible="true" />
    <inkscape:path-effect
       effect="spiro"
       id="path-effect975"
       is_visible="true" />
    <inkscape:path-effect
       effect="spiro"
       id="path-effect971"
       is_visible="true" />
    <inkscape:path-effect
       effect="spiro"
       id="path-effect967"
       is_visible="true" />
    <inkscape:path-effect
       effect="spiro"
       id="path-effect963"
       is_visible="true" />
    <inkscape:path-effect
       effect="spiro"
       id="path-effect948"
       is_visible="true" />
    <inkscape:path-effect
       effect="spiro"
       id="path-effect944"
       is_visible="true" />
    <inkscape:path-effect
       effect="spiro"
       id="path-effect940"
       is_visible="true" />
    <inkscape:path-effect
       effect="spiro"
       id="path-effect936"
       is_visible="true" />
    <inkscape:path-effect
       effect="spiro"
       id="path-effect932"
       is_visible="true" />
    <inkscape:path-effect
       effect="spiro"
       id="path-effect928"
       is_visible="true" />
    <inkscape:path-effect
       effect="spiro"
       id="path-effect980"
       is_visible="true" />
    <inkscape:path-effect
       effect="spiro"
       id="path-effect976"
       is_visible="true" />
    <inkscape:path-effect
       effect="spiro"
       id="path-effect972"
       is_visible="true" />
    <inkscape:path-effect
       effect="spiro"
       id="path-effect968"
       is_visible="true" />
    <inkscape:path-effect
       effect="spiro"
       id="path-effect1013"
       is_visible="true" />
    <inkscape:path-effect
       effect="spiro"
       id="path-effect1009"
       is_visible="true" />
    <inkscape:path-effect
       effect="spiro"
       id="path-effect1005"
       is_visible="true" />
    <inkscape:path-effect
       effect="spiro"
       id="path-effect1001"
       is_visible="true" />
    <inkscape:path-effect
       effect="spiro"
       id="path-effect997"
       is_visible="true" />
    <inkscape:path-effect
       effect="spiro"
       id="path-effect993"
       is_visible="true" />
    <inkscape:path-effect
       effect="spiro"
       id="path-effect989"
       is_visible="true" />
    <inkscape:path-effect
       effect="spiro"
       id="path-effect985"
       is_visible="true" />
    <inkscape:path-effect
       effect="spiro"
       id="path-effect981"
       is_visible="true" />
    <inkscape:path-effect
       effect="spiro"
       id="path-effect977"
       is_visible="true" />
    <inkscape:path-effect
       effect="spiro"
       id="path-effect973"
       is_visible="true" />
    <inkscape:path-effect
       effect="spiro"
       id="path-effect969"
       is_visible="true" />
    <inkscape:path-effect
       effect="spiro"
       id="path-effect965"
       is_visible="true" />
    <inkscape:path-effect
       effect="spiro"
       id="path-effect961"
       is_visible="true" />
    <inkscape:path-effect
       effect="spiro"
       id="path-effect957"
       is_visible="true" />
    <inkscape:path-effect
       effect="spiro"
       id="path-effect953"
       is_visible="true" />
    <inkscape:path-effect
       effect="spiro"
       id="path-effect949"
       is_visible="true" />
    <inkscape:path-effect
       effect="spiro"
       id="path-effect945"
       is_visible="true" />
    <inkscape:path-effect
       effect="spiro"
       id="path-effect941"
       is_visible="true" />
    <inkscape:path-effect
       effect="spiro"
       id="path-effect937"
       is_visible="true" />
    <inkscape:path-effect
       effect="spiro"
       id="path-effect933"
       is_visible="true" />
    <inkscape:path-effect
       effect="spiro"
       id="path-effect929"
       is_visible="true" />
    <inkscape:path-effect
       effect="spiro"
       id="path-effect925"
       is_visible="true" />
    <inkscape:path-effect
       effect="spiro"
       id="path-effect921"
       is_visible="true" />
    <inkscape:path-effect
       effect="spiro"
       id="path-effect917"
       is_visible="true" />
    <inkscape:path-effect
       effect="spiro"
       id="path-effect913"
       is_visible="true" />
    <inkscape:path-effect
       effect="spiro"
       id="path-effect909"
       is_visible="true" />
    <inkscape:path-effect
       effect="spiro"
       id="path-effect905"
       is_visible="true" />
    <inkscape:path-effect
       effect="spiro"
       id="path-effect901"
       is_visible="true" />
    <inkscape:path-effect
       effect="spiro"
       id="path-effect897"
       is_visible="true" />
    <inkscape:path-effect
       effect="spiro"
       id="path-effect893"
       is_visible="true" />
    <inkscape:path-effect
       effect="spiro"
       id="path-effect889"
       is_visible="true" />
    <inkscape:path-effect
       effect="spiro"
       id="path-effect885"
       is_visible="true" />
    <inkscape:path-effect
       effect="spiro"
       id="path-effect881"
       is_visible="true" />
    <inkscape:path-effect
       effect="spiro"
       id="path-effect877"
       is_visible="true" />
    <inkscape:path-effect
       effect="spiro"
       id="path-effect873"
       is_visible="true" />
    <inkscape:path-effect
       effect="spiro"
       id="path-effect869"
       is_visible="true" />
    <inkscape:path-effect
       effect="spiro"
       id="path-effect865"
       is_visible="true" />
    <inkscape:path-effect
       effect="spiro"
       id="path-effect861"
       is_visible="true" />
    <inkscape:path-effect
       effect="spiro"
       id="path-effect857"
       is_visible="true" />
    <inkscape:path-effect
       effect="spiro"
       id="path-effect853"
       is_visible="true" />
    <inkscape:path-effect
       effect="spiro"
       id="path-effect849"
       is_visible="true" />
    <inkscape:path-effect
       effect="spiro"
       id="path-effect845"
       is_visible="true" />
    <inkscape:path-effect
       effect="spiro"
       id="path-effect841"
       is_visible="true" />
    <inkscape:path-effect
       effect="spiro"
       id="path-effect837"
       is_visible="true" />
    <inkscape:path-effect
       effect="spiro"
       id="path-effect833"
       is_visible="true" />
    <inkscape:path-effect
       effect="spiro"
       id="path-effect829"
       is_visible="true" />
  </defs>
  <sodipodi:namedview
     id="base"
     pagecolor="#ffffff"
     bordercolor="#666666"
     borderopacity="1.0"
     inkscape:pageopacity="0.0"
     inkscape:pageshadow="2"
     inkscape:zoom="0.7"
     inkscape:cx="456.12273"
     inkscape:cy="795.43666"
     inkscape:document-units="mm"
     inkscape:current-layer="layer1"
     showgrid="false"
     inkscape:window-width="1178"
     inkscape:window-height="868"
     inkscape:window-x="597"
     inkscape:window-y="46"
     inkscape:window-maximized="0" />
  <metadata
     id="metadata5">
    <rdf:RDF>
      <cc:Work
         rdf:about="">
        <dc:format>image/svg+xml</dc:format>
        <dc:type
           rdf:resource="http://purl.org/dc/dcmitype/StillImage" />
        <dc:title />
      </cc:Work>
    </rdf:RDF>
  </metadata>
  <g
     inkscape:groupmode="layer"
     id="layer2"
     inkscape:label="the-line">
    <path
       style="opacity:1;vector-effect:none;fill:none;fill-opacity:1;fill-rule:evenodd;stroke:#000000;stroke-width:0.26458332px;stroke-linecap:butt;stroke-linejoin:miter;stroke-miterlimit:4;stroke-dasharray:none;stroke-dashoffset:0;stroke-opacity:1"
       d="m 75.303189,82.640545 c 2.742395,0.47369 5.481972,0.963696 8.218537,1.469982 2.902254,0.53694 5.809032,1.093239 8.753078,1.302938 3.148028,0.224228 6.311442,0.04998 9.454656,-0.23386 3.91796,-0.353805 7.82055,-0.877866 11.69305,-1.570209"
       id="path1121"
       inkscape:connector-curvature="0"
       inkscape:path-effect="#path-effect1123"
       inkscape:original-d="m 75.303189,82.640545 c 2.739776,0.489728 5.47929,0.979723 8.218537,1.469982 2.739247,0.490257 5.83565,0.86836 8.753078,1.302938 2.917428,0.434578 6.30337,-0.156173 9.454656,-0.23386 3.15129,-0.07769 7.79563,-1.04707 11.69305,-1.570209" />
    <path
       style="opacity:1;vector-effect:none;fill:none;fill-opacity:1;fill-rule:evenodd;stroke:#000000;stroke-width:0.26458332px;stroke-linecap:butt;stroke-linejoin:miter;stroke-miterlimit:4;stroke-dasharray:none;stroke-dashoffset:0;stroke-opacity:1"
       d="m 113.42251,83.609396 c 0.30738,-0.660253 0.59706,-1.328746 0.86862,-2.00452 0.28776,-0.71607 0.55517,-1.440314 0.80181,-2.171565"
       id="path1125"
       inkscape:connector-curvature="0"
       inkscape:path-effect="#path-effect1127"
       inkscape:original-d="m 113.42251,83.609396 c 0.2898,-0.668438 0.57935,-1.336612 0.86862,-2.00452 0.28928,-0.667909 0.5348,-1.447975 0.80181,-2.171565" />
    <path
       style="opacity:1;vector-effect:none;fill:none;fill-opacity:1;fill-rule:evenodd;stroke:#000000;stroke-width:0.26458332px;stroke-linecap:butt;stroke-linejoin:miter;stroke-miterlimit:4;stroke-dasharray:none;stroke-dashoffset:0;stroke-opacity:1"
       d="m 115.09294,79.433311 c -0.48477,-0.421719 -0.90104,-0.921999 -1.22761,-1.475352 -0.34739,-0.588635 -0.59131,-1.231651 -0.8977,-1.842632 -0.55419,-1.105137 -1.35276,-2.136793 -2.45684,-2.693083 -0.9237,-0.465404 -1.9828,-0.563665 -2.97657,-0.850444 -0.99048,-0.285831 -1.93159,-0.769763 -2.69308,-1.46466 -0.33026,-0.30138 -0.63425,-0.656457 -0.75595,-1.08668 -0.10408,-0.367921 -0.0654,-0.76627 0.0582,-1.128105 0.12359,-0.361835 0.32827,-0.690887 0.55603,-0.99801 0.64435,-0.868879 1.47585,-1.577828 2.22061,-2.362351 1.02916,-1.084108 1.89624,-2.318492 2.59859,-3.638021 0.77987,-1.465169 1.35528,-3.028496 1.93713,-4.582962 0.42141,-1.125829 0.84766,-2.250359 1.32291,-3.35454 0.38674,-0.898554 0.80806,-1.789837 1.03944,-2.740327 0.0942,-0.387015 0.15635,-0.781818 0.26604,-1.164734 0.10969,-0.382916 0.2712,-0.759361 0.53716,-1.055877 0.36505,-0.406993 0.9183,-0.634036 1.46466,-0.614209 0.51234,0.01859 1.01065,0.248708 1.37016,0.614209 0.32475,0.330157 0.53441,0.758293 0.67594,1.199239 0.14153,0.440946 0.21974,0.899167 0.31625,1.352101 0.28168,1.321939 0.7267,2.61796 1.41741,3.779763 0.96121,1.616798 2.35944,2.918007 3.68527,4.25223 1.03628,1.042841 2.03869,2.118833 3.07105,3.165552 0.25024,0.25372 0.50223,0.505712 0.75595,0.755952"
       id="path1129"
       inkscape:connector-curvature="0"
       inkscape:path-effect="#path-effect1131"
       inkscape:original-d="m 115.09294,79.433311 c -0.40894,-0.492049 -0.81815,-0.983832 -1.22761,-1.475352 -0.40947,-0.491519 -0.5982,-1.228687 -0.8977,-1.842632 -0.29949,-0.613947 -1.63763,-1.795653 -2.45684,-2.693083 -0.81922,-0.897426 -1.98411,-0.567226 -2.97657,-0.850444 -0.99245,-0.283218 -1.79512,-0.976704 -2.69308,-1.46466 -0.89795,-0.487952 -0.5037,-0.724717 -0.75595,-1.08668 -0.25225,-0.361964 0.40974,-1.417675 0.61421,-2.126115 0.20448,-0.708441 1.48067,-1.575165 2.22061,-2.362351 0.73994,-0.787188 1.73266,-2.425613 2.59859,-3.638021 0.86593,-1.212411 1.29168,-3.055572 1.93713,-4.582962 0.64544,-1.527389 0.88221,-2.236623 1.32291,-3.35454 0.44071,-1.117915 0.69323,-1.827149 1.03944,-2.740327 0.34621,-0.913178 0.53573,-1.480672 0.8032,-2.220611 0.26747,-0.739936 0.9767,-0.409736 1.46466,-0.614209 0.48795,-0.204473 0.9137,0.40921 1.37016,0.614209 0.45646,0.205002 0.66172,1.700631 0.99219,2.55134 0.33046,0.850712 0.9452,2.519577 1.41741,3.779763 0.4722,1.260184 2.45711,2.834556 3.68527,4.25223 1.22815,1.417677 2.04763,2.110105 3.07105,3.165552 1.02342,1.055449 0.50423,0.503703 0.75595,0.755952" />
    <path
       style="opacity:1;vector-effect:none;fill:none;fill-opacity:1;fill-rule:evenodd;stroke:#000000;stroke-width:0.26458332px;stroke-linecap:butt;stroke-linejoin:miter;stroke-miterlimit:4;stroke-dasharray:none;stroke-dashoffset:0;stroke-opacity:1"
       d="m 127.37797,63.50037 c 0.93833,0.146141 1.85979,0.400337 2.74033,0.755954 0.83679,0.337947 1.63451,0.766189 2.4096,1.228421 0.98214,0.585706 1.93476,1.229407 2.97656,1.700895 1.0488,0.474657 2.16914,0.766246 3.26005,1.133927 1.00431,0.338494 1.9872,0.742988 2.92931,1.228423 1.30381,0.671805 2.52779,1.498387 3.63802,2.456845"
       id="path1133"
       inkscape:connector-curvature="0"
       inkscape:path-effect="#path-effect1135"
       inkscape:original-d="m 127.37797,63.50037 c 0.91371,0.251719 1.82715,0.503703 2.74033,0.755954 0.91318,0.252248 1.60666,0.818682 2.4096,1.228421 0.80293,0.409739 1.98464,1.133665 2.97656,1.700895 0.99193,0.567227 2.17363,0.755687 3.26005,1.133927 1.08641,0.378241 1.95314,0.818684 2.92931,1.228423 0.97618,0.40974 2.42561,1.637631 3.63802,2.456845" />
    <path
       style="opacity:1;vector-effect:none;fill:none;fill-opacity:1;fill-rule:evenodd;stroke:#000000;stroke-width:0.26458332px;stroke-linecap:butt;stroke-linejoin:miter;stroke-miterlimit:4;stroke-dasharray:none;stroke-dashoffset:0;stroke-opacity:1"
       d="m 145.33184,72.004835 c 0.50859,-0.193136 0.97265,-0.502508 1.34654,-0.897695 0.57554,-0.60832 0.92063,-1.391636 1.32292,-2.126115 0.22326,-0.407614 0.47138,-0.816524 0.54334,-1.27567 0.0538,-0.34332 0.005,-0.693123 -0.0236,-1.039434 -0.0916,-1.099492 0.0167,-2.204414 0.0473,-3.307291 0.0243,-0.874628 -1.7e-4,-1.752384 0.0945,-2.622212 0.0488,-0.448063 0.12912,-0.899604 0.0709,-1.346538 -0.0104,-0.07975 -0.0252,-0.159208 -0.0269,-0.239613 -0.002,-0.0804 0.0104,-0.163146 0.0505,-0.232859 0.0397,-0.06906 0.10524,-0.121466 0.17869,-0.152311 0.0735,-0.03084 0.15451,-0.04103 0.23409,-0.03725 0.15915,0.0076 0.30997,0.06879 0.46129,0.118694 0.298,0.09828 0.60897,0.154868 0.90368,0.262594 0.29472,0.107727 0.58119,0.276077 0.74997,0.540605 0.12872,0.201747 0.17888,0.442512 0.21993,0.678278 0.0411,0.235767 0.0767,0.476838 0.18167,0.691885 0.14055,0.287836 0.39217,0.503153 0.63783,0.708705 0.87155,0.729245 1.7548,1.444443 2.64584,2.149739 1.57758,1.248724 3.18142,2.467705 4.86644,3.567153 0.55929,0.364926 1.13497,0.720128 1.77176,0.921316 0.79975,0.252674 1.65552,0.250308 2.48047,0.4016 1.62043,0.297178 3.06464,1.171868 4.53572,1.913504 1.18963,0.599744 2.41742,1.119754 3.63802,1.653646 1.51861,0.664238 3.02772,1.350707 4.55933,1.984375 1.82695,0.755854 3.68416,1.435859 5.52791,2.149739 0.78308,0.303201 1.56432,0.612726 2.36235,0.87407 0.77275,0.253064 1.57295,0.462248 2.38597,0.448847 0.27871,-0.0046 0.56841,-0.03363 0.82683,0.07087 0.14002,0.05662 0.26379,0.151029 0.35995,0.267502 0.0961,0.116474 0.16497,0.254596 0.20571,0.400034 0.0815,0.290876 0.0499,0.605148 -0.046,0.891614 -0.17588,0.525767 -0.55219,0.956508 -0.92131,1.370166 -0.75678,0.848087 -1.52223,1.689717 -2.33873,2.480469 -0.78368,0.758962 -1.61456,1.470901 -2.50409,2.10249 -0.94493,0.670919 -1.95401,1.249622 -3.00019,1.748142 -1.28151,0.610657 -2.61999,1.101696 -3.99237,1.464656"
       id="path1137"
       inkscape:connector-curvature="0"
       inkscape:path-effect="#path-effect1139"
       inkscape:original-d="m 145.33184,72.004835 c 0.44911,-0.299496 0.89796,-0.598729 1.34654,-0.897695 0.44859,-0.298966 0.88221,-1.417674 1.32292,-2.126115 0.44071,-0.70844 0.36249,-0.850712 0.54334,-1.27567 0.18085,-0.424957 -0.0155,-0.693221 -0.0236,-1.039434 -0.008,-0.346215 0.0318,-2.205124 0.0473,-3.307291 0.0155,-1.102167 0.0633,-1.748404 0.0945,-2.622212 0.0312,-0.873805 0.0475,-0.897956 0.0709,-1.346538 0.0234,-0.448583 0.016,-0.315246 0.0236,-0.472472 0.008,-0.157223 0.58298,-0.04751 0.87407,-0.07087 0.2911,-0.02336 1.1027,0.535202 1.65365,0.803199 0.55095,0.267999 0.268,0.913177 0.4016,1.370163 0.1336,0.456986 0.42549,0.472207 0.63783,0.708705 0.21235,0.2365 1.76416,1.432896 2.64584,2.149739 0.88168,0.716847 3.24456,2.377837 4.86644,3.567153 1.62188,1.189312 1.18144,0.613947 1.77176,0.921316 0.59033,0.307369 1.65391,0.267467 2.48047,0.4016 0.82656,0.134131 3.02407,1.275406 4.53572,1.913504 1.51164,0.638098 2.42561,1.102167 3.63802,1.653646 1.21241,0.551479 3.03982,1.322652 4.55933,1.984375 1.51952,0.661723 3.68554,1.432896 5.52791,2.149739 1.84237,0.716844 1.57516,0.582449 2.36235,0.87407 0.78718,0.291621 1.59091,0.298966 2.38597,0.448847 0.79506,0.149881 0.55148,0.04698 0.82683,0.07087 0.27534,0.02389 0.34674,1.03917 0.51971,1.55915 0.17298,0.519983 -0.61394,0.91318 -0.92131,1.370166 -0.30737,0.456986 -1.55889,1.653381 -2.33873,2.480469 -0.77984,0.827087 -1.66913,1.401397 -2.50409,2.10249 -0.83497,0.701096 -1.99986,1.165164 -3.00019,1.748142 -1.00033,0.582977 -2.66132,0.976172 -3.99237,1.464656" />
    <path
       style="opacity:1;vector-effect:none;fill:none;fill-opacity:1;fill-rule:evenodd;stroke:#000000;stroke-width:0.26458332px;stroke-linecap:butt;stroke-linejoin:miter;stroke-miterlimit:4;stroke-dasharray:none;stroke-dashoffset:0;stroke-opacity:1"
       d="m 175.68815,88.588537 c -0.18598,0.608402 -0.44009,1.195951 -0.75605,1.748141 -0.54279,0.948626 -1.26077,1.78284 -1.96075,2.622212 -1.07129,1.284622 -2.11061,2.595738 -3.18917,3.874256 -1.03835,1.230848 -2.11349,2.432015 -3.09468,3.708894 -1.38859,1.80706 -2.58093,3.7551 -3.77976,5.69326 -0.61268,0.99052 -1.22878,1.98132 -1.74814,3.02381 -0.89771,1.80194 -1.50369,3.75256 -2.57497,5.45703 -0.60171,0.95736 -1.34675,1.83105 -1.81901,2.85845 -0.56039,1.21913 -0.70439,2.58338 -0.8032,3.9215 -0.0998,1.35198 -0.15818,2.73565 0.21262,4.03962 0.48002,1.68805 1.66129,3.12153 3.09468,4.13412 1.94533,1.37424 4.31294,2.01515 6.66183,2.40959 2.21601,0.37213 4.46245,0.54745 6.70907,0.59059 2.95554,0.0568 5.91066,-0.11455 8.85882,-0.33073 2.67617,-0.19623 5.35114,-0.42968 8.00837,-0.8032 0.80514,-0.11317 1.60848,-0.23919 2.4096,-0.37797"
       id="path1145"
       inkscape:connector-curvature="0"
       inkscape:path-effect="#path-effect1147"
       inkscape:original-d="m 175.68815,88.588537 c -0.25175,0.582448 -0.50377,1.165164 -0.75605,1.748141 -0.25228,0.582981 -1.3069,1.747878 -1.96075,2.622212 -0.65385,0.874334 -2.12585,2.582571 -3.18917,3.874256 -1.06333,1.291683 -2.06286,2.472328 -3.09468,3.708894 -1.03183,1.23656 -2.51958,3.79524 -3.77976,5.69326 -1.26019,1.89802 -1.16516,2.01561 -1.74814,3.02381 -0.58298,1.0082 -1.71638,3.63776 -2.57497,5.45703 -0.85858,1.81928 -1.2124,1.90537 -1.81901,2.85845 -0.6066,0.95308 -0.5352,2.61407 -0.8032,3.9215 -0.26799,1.30743 0.14201,2.69282 0.21262,4.03962 0.0706,1.34681 2.06338,2.75581 3.09468,4.13412 1.03129,1.3783 4.44148,1.60613 6.66183,2.40959 2.22034,0.80347 4.47298,0.39347 6.70907,0.59059 2.2361,0.19713 5.90615,-0.22075 8.85882,-0.33073 2.95267,-0.10997 5.33918,-0.53573 8.00837,-0.8032 2.66919,-0.26746 1.60666,-0.25224 2.4096,-0.37797" />
    <path
       style="opacity:1;vector-effect:none;fill:none;fill-opacity:1;fill-rule:evenodd;stroke:#000000;stroke-width:0.26458332px;stroke-linecap:butt;stroke-linejoin:miter;stroke-miterlimit:4;stroke-dasharray:none;stroke-dashoffset:0;stroke-opacity:1"
       d="m 191.91741,131.15811 c 0.61486,-0.68976 1.14742,-1.45282 1.58277,-2.26786 0.67633,-1.26619 1.11278,-2.64416 1.53553,-4.016 0.87144,-2.82782 1.70096,-5.66885 2.62221,-8.48084 0.82299,-2.51207 1.72181,-5.01081 2.22061,-7.60677 0.30984,-1.61256 0.4629,-3.25131 0.56697,-4.89007 0.11649,-1.83445 0.17217,-3.67298 0.33073,-5.504274 0.0813,-0.939186 0.18964,-1.875844 0.3071,-2.811198 0.0815,-0.648909 0.16754,-1.298188 0.30711,-1.937128 0.0782,-0.357959 0.17517,-0.71733 0.36031,-1.033513 0.18514,-0.316184 0.46913,-0.588378 0.82086,-0.691001 0.19064,-0.05562 0.395,-0.05961 0.58962,-0.02009 0.19462,0.03952 0.37954,0.12184 0.54431,0.232703 0.35627,0.239715 0.61138,0.605348 0.79697,0.992577 0.18558,0.387228 0.30878,0.800697 0.45508,1.204409 0.38233,1.054993 0.92365,2.045978 1.32291,3.09468 0.49532,1.301019 0.76614,2.674587 1.03944,4.039617 0.42317,2.1136 0.85866,4.22968 1.5119,6.28386 0.51575,1.62183 1.16711,3.20493 1.53553,4.86644 0.33641,1.51717 0.43177,3.07744 0.70871,4.60659 0.3123,1.72438 0.85522,3.40335 1.55915,5.00818 0.86747,1.97766 1.97842,3.84347 3.23642,5.59877 0.75111,1.04803 1.55664,2.06026 2.22061,3.16555 0.71582,1.19162 1.25917,2.4785 1.74814,3.77976 0.34235,0.91106 0.66177,1.8425 0.75595,2.8112 0.13315,1.36943 -0.1898,2.74007 -0.56696,4.06325 -0.29479,1.03419 -0.62626,2.06352 -1.11031,3.02381 -0.58841,1.16731 -1.39416,2.21494 -2.29148,3.16555 -1.03336,1.09473 -2.19816,2.07248 -3.49628,2.83482 -1.4764,0.86703 -3.12224,1.44952 -4.81919,1.67727 -1.82045,0.24432 -3.66755,0.0822 -5.50428,0.0945 -1.29499,0.009 -2.5886,0.10446 -3.87426,0.25986 -2.21993,0.26833 -4.41393,0.71381 -6.61458,1.11031 -2.3947,0.43146 -4.8027,0.80565 -7.2288,0.99218 -2.30197,0.17698 -4.61309,0.18452 -6.92168,0.21261 -3.62091,0.0441 -7.26239,0.13764 -10.8432,-0.4016 -1.98322,-0.29866 -3.9396,-0.79163 -5.81138,-1.5119 -2.83122,-1.08946 -5.43566,-2.68321 -8.03199,-4.25223 -2.18212,-1.3187 -4.38849,-2.63912 -6.26024,-4.37035 -2.19053,-2.02608 -3.85312,-4.55076 -5.38616,-7.11068 -1.25562,-2.09667 -2.453,-4.2677 -3.04743,-6.6382 -0.44988,-1.79408 -0.54241,-3.65605 -0.61421,-5.50428 -0.0676,-1.73984 -0.11864,-3.48028 -0.16537,-5.2208 -0.054,-2.00979 -0.10179,-4.02829 0.14175,-6.024 0.2652,-2.17322 0.87307,-4.29184 1.6064,-6.35472 0.38467,-1.08209 0.80435,-2.15157 1.18117,-3.23642 0.77246,-2.2239 1.36273,-4.506251 2.05525,-6.756325 0.50635,-1.645198 1.06771,-3.274252 1.5119,-4.937313 0.1292,-0.483751 0.24855,-0.97074 0.33073,-1.464659 0.13876,-0.833985 0.1706,-1.685698 0.0945,-2.527716"
       id="path1149"
       inkscape:connector-curvature="0"
       inkscape:path-effect="#path-effect1151"
       inkscape:original-d="m 191.91741,131.15811 c 0.52785,-0.75622 1.05545,-1.51217 1.58277,-2.26786 0.52733,-0.75569 1.02396,-2.6776 1.53553,-4.016 0.51158,-1.3384 1.74841,-5.65416 2.62221,-8.48084 0.87381,-2.82668 1.48067,-5.07144 2.22061,-7.60677 0.73994,-2.53532 0.37824,-3.26031 0.56697,-4.89007 0.18872,-1.62975 0.22075,-3.66978 0.33073,-5.504274 0.10997,-1.834494 0.205,-1.874395 0.3071,-2.811198 0.10211,-0.936799 0.205,-1.291682 0.30711,-1.937128 0.1021,-0.645443 0.78771,-1.14994 1.18117,-1.724514 0.39346,-0.574575 0.75622,0.141475 1.13393,0.212611 0.37771,0.07114 0.83496,1.464392 1.25205,2.196986 0.41708,0.732594 0.88221,2.062856 1.32291,3.09468 0.44071,1.031825 0.69323,2.692817 1.03944,4.039617 0.34621,1.34681 1.0082,4.18898 1.5119,6.28386 0.50371,2.09488 1.02395,3.24403 1.53553,4.86644 0.51158,1.62241 0.47274,3.07079 0.70871,4.60659 0.23597,1.53579 1.0397,3.33852 1.55915,5.00818 0.51945,1.66966 2.15788,3.73225 3.23642,5.59877 1.07854,1.86653 1.48067,2.1101 2.22061,3.16555 0.73994,1.05545 1.16569,2.51958 1.74814,3.77976 0.58245,1.26019 0.50423,1.87387 0.75595,2.8112 0.25172,0.93733 -0.37771,2.70857 -0.56696,4.06325 -0.18925,1.35468 -0.73994,2.0156 -1.11031,3.02381 -0.37036,1.0082 -1.52739,2.1101 -2.29148,3.16555 -0.76409,1.05545 -2.33059,1.88961 -3.49628,2.83482 -1.16569,0.9452 -3.21253,1.11791 -4.81919,1.67727 -1.60667,0.55935 -3.66926,0.0627 -5.50428,0.0945 -1.83503,0.0318 -2.58258,0.17298 -3.87426,0.25986 -1.29168,0.0869 -4.40945,0.73994 -6.61458,1.11031 -2.20513,0.37036 -4.81893,0.66119 -7.2288,0.99218 -2.40986,0.331 -4.61419,0.14148 -6.92168,0.21261 -2.3075,0.0711 -7.22854,-0.26799 -10.8432,-0.4016 -3.61466,-0.1336 -3.87399,-1.0082 -5.81138,-1.5119 -1.93739,-0.5037 -5.3544,-2.83509 -8.03199,-4.25223 -2.6776,-1.41715 -4.17323,-2.91383 -6.26024,-4.37035 -2.087,-1.45652 -3.59051,-4.74072 -5.38616,-7.11068 -1.79565,-2.36996 -2.03135,-4.42573 -3.04743,-6.6382 -1.01607,-2.21248 -0.40921,-3.66979 -0.61421,-5.50428 -0.205,-1.8345 -0.10998,-3.4808 -0.16537,-5.2208 -0.0554,-1.74 0.0948,-4.01626 0.14175,-6.024 0.047,-2.00773 1.07119,-4.23674 1.6064,-6.35472 0.5352,-2.11798 0.78771,-2.15788 1.18117,-3.23642 0.39346,-1.07854 1.37043,-4.50448 2.05525,-6.756325 0.68481,-2.251843 1.0082,-3.291809 1.5119,-4.937313 0.50371,-1.645507 0.22075,-0.976704 0.33073,-1.464659 0.10998,-0.487956 0.0633,-1.685409 0.0945,-2.527716" />
    <path
       style="opacity:1;vector-effect:none;fill:none;fill-opacity:1;fill-rule:evenodd;stroke:#000000;stroke-width:0.26458332px;stroke-linecap:butt;stroke-linejoin:miter;stroke-miterlimit:4;stroke-dasharray:none;stroke-dashoffset:0;stroke-opacity:1"
       d="m 144.93025,88.706665 c -0.46834,0.107446 -0.94143,0.194175 -1.41742,0.25985 -0.93843,0.129479 -1.88816,0.176966 -2.83482,0.141743"
       id="path1153"
       inkscape:connector-curvature="0"
       inkscape:path-effect="#path-effect1155"
       inkscape:original-d="m 144.93025,88.706665 c -0.46433,0.0706 -0.94468,0.172969 -1.41742,0.25985 -0.47273,0.08688 -1.88961,0.09423 -2.83482,0.141743" />
    <path
       style="opacity:1;vector-effect:none;fill:none;fill-opacity:1;fill-rule:evenodd;stroke:#000000;stroke-width:0.26458332px;stroke-linecap:butt;stroke-linejoin:miter;stroke-miterlimit:4;stroke-dasharray:none;stroke-dashoffset:0;stroke-opacity:1"
       d="m 140.67801,89.108258 c -0.38419,0.928377 -0.74655,1.865789 -1.08668,2.811198 -0.68908,1.915333 -1.31092,3.908801 -2.57496,5.504277 -0.44173,0.557552 -0.95669,1.058661 -1.34654,1.653646 -0.69417,1.059441 -0.95574,2.360771 -1.67727,3.401781 -0.67593,0.97522 -1.71893,1.66716 -2.31511,2.69308 -0.27889,0.47993 -0.44816,1.01386 -0.63783,1.53553 -0.75998,2.0902 -1.87013,4.03157 -2.85844,6.024 -0.7826,1.57771 -1.49175,3.1938 -2.36236,4.7247 -1.09508,1.92561 -2.43589,3.69943 -3.61439,5.57515 -1.1443,1.82128 -2.13705,3.74085 -3.40179,5.48065 -1.73538,2.38721 -3.943,4.38276 -5.95312,6.54372 -1.74743,1.87857 -3.35081,3.88844 -5.12631,5.74051 -1.74836,1.82376 -3.65648,3.48702 -5.59877,5.10268 -1.79313,1.49159 -3.638422,2.95812 -5.740511,3.96875 -1.668976,0.8024 -3.468914,1.302 -5.149927,2.07887 -1.349965,0.62388 -2.619814,1.42497 -4.015996,1.93713 -1.490632,0.54681 -3.081396,0.74851 -4.653833,0.96856 -0.863309,0.12081 -1.727571,0.24843 -2.598587,0.28348 -1.161837,0.0468 -2.368597,-0.0845 -3.37816,-0.66146 -0.171462,-0.098 -0.340667,-0.21275 -0.448847,-0.37797 -0.100863,-0.15404 -0.141039,-0.3438 -0.127336,-0.52741 0.0137,-0.18362 0.07917,-0.36116 0.174073,-0.51895 0.189799,-0.31557 0.488496,-0.54774 0.780086,-0.77265 1.372126,-1.05836 2.739001,-2.12371 4.086867,-3.2128 1.837633,-1.48483 3.639891,-3.01375 5.504278,-4.46484 1.581324,-1.23078 3.212919,-2.41043 4.630209,-3.82701 2.113816,-2.11275 3.690609,-4.69037 5.268042,-7.2288 1.362264,-2.19218 2.740332,-4.37481 4.063242,-6.59096 1.15288,-1.93131 2.26435,-3.88904 3.26005,-5.90588 1.37979,-2.79484 2.53419,-5.69727 3.54352,-8.6462 0.43783,-1.27919 0.84954,-2.57122 1.11031,-3.89788 0.23679,-1.20468 0.34783,-2.43404 0.33073,-3.66165"
       id="path1157"
       inkscape:connector-curvature="0"
       inkscape:path-effect="#path-effect1159"
       inkscape:original-d="m 140.67801,89.108258 c -0.35409,0.936799 -0.72419,1.873866 -1.08668,2.811198 -0.36249,0.937328 -1.71638,3.669254 -2.57496,5.504277 -0.85859,1.835023 -0.89743,1.102167 -1.34654,1.653646 -0.44911,0.551479 -1.11792,2.267591 -1.67727,3.401781 -0.55936,1.1342 -1.54314,1.79513 -2.31511,2.69308 -0.77196,0.89796 -0.42495,1.02343 -0.63783,1.53553 -0.21288,0.51211 -1.90537,4.01574 -2.85844,6.024 -0.95308,2.00826 -1.57464,3.14953 -2.36236,4.7247 -0.78771,1.57517 -2.40933,3.7165 -3.61439,5.57515 -1.20507,1.85865 -2.2676,3.65351 -3.40179,5.48065 -1.13419,1.82715 -3.96848,4.36221 -5.95312,6.54372 -1.98464,2.1815 -3.41728,3.82674 -5.12631,5.74051 -1.70903,1.91377 -3.73225,3.40152 -5.59877,5.10268 -1.86652,1.70116 -3.826743,2.64557 -5.740511,3.96875 -1.913771,1.32318 -3.433022,1.38565 -5.149927,2.07887 -1.716907,0.69322 -2.677067,1.29115 -4.015996,1.93713 -1.338932,0.64597 -3.10229,0.64544 -4.653833,0.96856 -1.551541,0.32312 -1.732127,0.18872 -2.598587,0.28348 -0.86646,0.0948 -2.251842,-0.44124 -3.37816,-0.66146 -1.126321,-0.22022 -0.298969,-0.25224 -0.448847,-0.37797 -0.149881,-0.12573 0.551479,-1.21294 0.826823,-1.81901 0.275341,-0.60608 2.724843,-2.14213 4.086867,-3.2128 1.362025,-1.07067 3.669782,-2.97683 5.504278,-4.46484 1.834494,-1.48802 3.087069,-2.55161 4.630209,-3.82701 1.543137,-1.27541 3.512293,-4.81946 5.268042,-7.2288 1.755751,-2.40933 2.709095,-4.39424 4.063242,-6.59096 1.35415,-2.19672 2.17363,-3.93751 3.26005,-5.90588 1.08641,-1.96836 2.36261,-5.7644 3.54352,-8.6462 1.18092,-2.88181 0.74047,-2.59885 1.11031,-3.89788 0.36984,-1.29903 0.22075,-2.44136 0.33073,-3.66165" />
    <path
       style="opacity:1;vector-effect:none;fill:none;fill-opacity:1;fill-rule:evenodd;stroke:#000000;stroke-width:0.26458332px;stroke-linecap:butt;stroke-linejoin:miter;stroke-miterlimit:4;stroke-dasharray:none;stroke-dashoffset:0;stroke-opacity:1"
       d="m 108.76265,104.84151 c -1.33894,0.0656 -2.67762,0.13643 -4.016,0.21262 -1.92819,0.10977 -3.86515,0.23046 -5.787759,0.0473 -1.432181,-0.13644 -2.868816,-0.44926 -4.134115,-1.13393 -1.156856,-0.62599 -2.12926,-1.53859 -3.071055,-2.45685 C 90.186506,99.982595 88.66261,98.408187 87.029016,96.951312 84.68633,94.862052 82.123594,93.01947 79.894717,90.8092 78.58397,89.509395 77.397671,88.091181 76.185825,86.698708 c -0.70962,-0.81539 -1.434468,-1.630797 -1.96075,-2.574962 -0.114994,-0.206303 -0.22223,-0.425687 -0.236236,-0.661459 -0.0093,-0.157371 0.02445,-0.317091 0.09674,-0.457188 0.07229,-0.140097 0.182881,-0.260191 0.316557,-0.343761 0.133675,-0.08357 0.290074,-0.130389 0.447681,-0.134017 0.157607,-0.0036 0.315994,0.03594 0.453374,0.113274"
       id="path1161"
       inkscape:connector-curvature="0"
       inkscape:path-effect="#path-effect1163"
       inkscape:original-d="m 108.76265,104.84151 c -1.33053,0.0706 -2.67707,0.14148 -4.016,0.21262 -1.33893,0.0711 -3.85824,0.0312 -5.787759,0.0473 -1.929519,0.016 -2.755813,-0.75622 -4.134115,-1.13393 -1.378304,-0.37772 -2.047107,-1.63816 -3.071055,-2.45685 -1.023951,-0.81868 -3.14954,-3.039823 -4.724705,-4.559338 -1.575165,-1.519513 -4.755935,-4.095007 -7.134299,-6.142112 -2.378366,-2.047108 -2.47233,-2.740591 -3.708892,-4.110492 -1.236562,-1.369899 -1.306904,-1.716905 -1.96075,-2.574962 -0.653849,-0.858057 -0.157226,-0.441235 -0.236236,-0.661459 -0.07901,-0.22022 0.876496,-0.54806 1.31435,-0.821692" />
  </g>
  <g
     inkscape:groupmode="layer"
     id="layer1"
     inkscape:label="color">
    <g
       style="display:inline"
       transform="translate(-0.24,0.37546937)"
       id="g879">
      <g
         id="g868-3"
         transform="translate(-4.3213816e-6,127.87936)">
        <g
           id="g867-6"
           transform="translate(-5.2916669,-23.813257)">
          <circle
             r="5.4393101"
             cy="115.89004"
             cx="181.70808"
             id="path827-1-81"
             style="opacity:1;vector-effect:none;fill:none;fill-opacity:1;fill-rule:evenodd;stroke:#000000;stroke-width:0.25079238;stroke-linecap:butt;stroke-linejoin:miter;stroke-miterlimit:4;stroke-dasharray:none;stroke-dashoffset:0;stroke-opacity:1" />
          <circle
             r="9.7710209"
             cy="116.0905"
             cx="181.50229"
             id="path829-5-0"
             style="opacity:1;vector-effect:none;fill:none;fill-opacity:1;fill-rule:evenodd;stroke:#000000;stroke-width:0.27362648;stroke-linecap:butt;stroke-linejoin:miter;stroke-miterlimit:4;stroke-dasharray:none;stroke-dashoffset:0;stroke-opacity:1" />
          <circle
             r="17.722456"
             cy="115.49453"
             cx="181.56371"
             id="path831-9-7"
             style="opacity:1;vector-effect:none;fill:none;fill-opacity:1;fill-rule:evenodd;stroke:#000000;stroke-width:0.27329892;stroke-linecap:butt;stroke-linejoin:miter;stroke-miterlimit:4;stroke-dasharray:none;stroke-dashoffset:0;stroke-opacity:1" />
          <circle
             r="22.006632"
             cy="115.75645"
             cx="181.4193"
             id="path833-3-6"
             style="opacity:1;vector-effect:none;fill:none;fill-opacity:1;fill-rule:evenodd;stroke:#000000;stroke-width:0.25756967;stroke-linecap:butt;stroke-linejoin:miter;stroke-miterlimit:4;stroke-dasharray:none;stroke-dashoffset:0;stroke-opacity:1" />
          <circle
             r="34.418961"
             cy="115.66119"
             cx="181.66968"
             id="path835-5-7"
             style="opacity:1;vector-effect:none;fill:none;fill-opacity:1;fill-rule:evenodd;stroke:#000000;stroke-width:0.31421968;stroke-linecap:butt;stroke-linejoin:miter;stroke-miterlimit:4;stroke-dasharray:none;stroke-dashoffset:0;stroke-opacity:1" />
        </g>
        <g
           transform="translate(-74.853603,-23.812766)"
           id="g867-9-6">
          <circle
             r="5.4393101"
             cy="115.89004"
             cx="181.70808"
             id="path827-1-8-6"
             style="opacity:1;vector-effect:none;fill:none;fill-opacity:1;fill-rule:evenodd;stroke:#000000;stroke-width:0.25079238;stroke-linecap:butt;stroke-linejoin:miter;stroke-miterlimit:4;stroke-dasharray:none;stroke-dashoffset:0;stroke-opacity:1" />
          <circle
             r="9.7710209"
             cy="116.0905"
             cx="181.50229"
             id="path829-5-8-9"
             style="opacity:1;vector-effect:none;fill:none;fill-opacity:1;fill-rule:evenodd;stroke:#000000;stroke-width:0.27362648;stroke-linecap:butt;stroke-linejoin:miter;stroke-miterlimit:4;stroke-dasharray:none;stroke-dashoffset:0;stroke-opacity:1" />
          <circle
             r="17.722456"
             cy="115.49453"
             cx="181.56371"
             id="path831-9-1-1"
             style="opacity:1;vector-effect:none;fill:none;fill-opacity:1;fill-rule:evenodd;stroke:#000000;stroke-width:0.27329892;stroke-linecap:butt;stroke-linejoin:miter;stroke-miterlimit:4;stroke-dasharray:none;stroke-dashoffset:0;stroke-opacity:1" />
          <circle
             r="22.006632"
             cy="115.75645"
             cx="181.4193"
             id="path833-3-1-4"
             style="opacity:1;vector-effect:none;fill:none;fill-opacity:1;fill-rule:evenodd;stroke:#000000;stroke-width:0.25756967;stroke-linecap:butt;stroke-linejoin:miter;stroke-miterlimit:4;stroke-dasharray:none;stroke-dashoffset:0;stroke-opacity:1" />
          <circle
             r="34.418961"
             cy="115.66119"
             cx="181.66968"
             id="path835-5-1-7"
             style="opacity:1;vector-effect:none;fill:none;fill-opacity:1;fill-rule:evenodd;stroke:#000000;stroke-width:0.31421968;stroke-linecap:butt;stroke-linejoin:miter;stroke-miterlimit:4;stroke-dasharray:none;stroke-dashoffset:0;stroke-opacity:1" />
        </g>
      </g>
      <g
         id="g868-3-6"
         transform="translate(-4.3213816e-6,197.20004)">
        <g
           id="g867-6-2"
           transform="translate(-5.2916669,-23.813257)">
          <circle
             r="5.4393101"
             cy="115.89004"
             cx="181.70808"
             id="path827-1-81-1"
             style="opacity:1;vector-effect:none;fill:none;fill-opacity:1;fill-rule:evenodd;stroke:#000000;stroke-width:0.25079238;stroke-linecap:butt;stroke-linejoin:miter;stroke-miterlimit:4;stroke-dasharray:none;stroke-dashoffset:0;stroke-opacity:1" />
          <circle
             r="9.7710209"
             cy="116.0905"
             cx="181.50229"
             id="path829-5-0-0"
             style="opacity:1;vector-effect:none;fill:none;fill-opacity:1;fill-rule:evenodd;stroke:#000000;stroke-width:0.27362648;stroke-linecap:butt;stroke-linejoin:miter;stroke-miterlimit:4;stroke-dasharray:none;stroke-dashoffset:0;stroke-opacity:1" />
          <circle
             r="17.722456"
             cy="115.49453"
             cx="181.56371"
             id="path831-9-7-3"
             style="opacity:1;vector-effect:none;fill:none;fill-opacity:1;fill-rule:evenodd;stroke:#000000;stroke-width:0.27329892;stroke-linecap:butt;stroke-linejoin:miter;stroke-miterlimit:4;stroke-dasharray:none;stroke-dashoffset:0;stroke-opacity:1" />
          <circle
             r="22.006632"
             cy="115.75645"
             cx="181.4193"
             id="path833-3-6-9"
             style="opacity:1;vector-effect:none;fill:none;fill-opacity:1;fill-rule:evenodd;stroke:#000000;stroke-width:0.25756967;stroke-linecap:butt;stroke-linejoin:miter;stroke-miterlimit:4;stroke-dasharray:none;stroke-dashoffset:0;stroke-opacity:1" />
          <circle
             r="34.418961"
             cy="115.66119"
             cx="181.66968"
             id="path835-5-7-9"
             style="opacity:1;vector-effect:none;fill:none;fill-opacity:1;fill-rule:evenodd;stroke:#000000;stroke-width:0.31421968;stroke-linecap:butt;stroke-linejoin:miter;stroke-miterlimit:4;stroke-dasharray:none;stroke-dashoffset:0;stroke-opacity:1" />
        </g>
        <g
           transform="translate(-74.853603,-23.812766)"
           id="g867-9-6-6">
          <circle
             r="5.4393101"
             cy="115.89004"
             cx="181.70808"
             id="path827-1-8-6-7"
             style="opacity:1;vector-effect:none;fill:none;fill-opacity:1;fill-rule:evenodd;stroke:#000000;stroke-width:0.25079238;stroke-linecap:butt;stroke-linejoin:miter;stroke-miterlimit:4;stroke-dasharray:none;stroke-dashoffset:0;stroke-opacity:1" />
          <circle
             r="9.7710209"
             cy="116.0905"
             cx="181.50229"
             id="path829-5-8-9-1"
             style="opacity:1;vector-effect:none;fill:none;fill-opacity:1;fill-rule:evenodd;stroke:#000000;stroke-width:0.27362648;stroke-linecap:butt;stroke-linejoin:miter;stroke-miterlimit:4;stroke-dasharray:none;stroke-dashoffset:0;stroke-opacity:1" />
          <circle
             r="17.722456"
             cy="115.49453"
             cx="181.56371"
             id="path831-9-1-1-4"
             style="opacity:1;vector-effect:none;fill:none;fill-opacity:1;fill-rule:evenodd;stroke:#000000;stroke-width:0.27329892;stroke-linecap:butt;stroke-linejoin:miter;stroke-miterlimit:4;stroke-dasharray:none;stroke-dashoffset:0;stroke-opacity:1" />
          <circle
             r="22.006632"
             cy="115.75645"
             cx="181.4193"
             id="path833-3-1-4-8"
             style="opacity:1;vector-effect:none;fill:none;fill-opacity:1;fill-rule:evenodd;stroke:#000000;stroke-width:0.25756967;stroke-linecap:butt;stroke-linejoin:miter;stroke-miterlimit:4;stroke-dasharray:none;stroke-dashoffset:0;stroke-opacity:1" />
          <circle
             r="34.418961"
             cy="115.66119"
             cx="181.66968"
             id="path835-5-1-7-7"
             style="opacity:1;vector-effect:none;fill:none;fill-opacity:1;fill-rule:evenodd;stroke:#000000;stroke-width:0.31421968;stroke-linecap:butt;stroke-linejoin:miter;stroke-miterlimit:4;stroke-dasharray:none;stroke-dashoffset:0;stroke-opacity:1" />
        </g>
      </g>
    </g>
    <path
       style="opacity:1;vector-effect:none;fill:#f45325;fill-opacity:1;stroke:none;stroke-width:0.40764937;stroke-linecap:butt;stroke-linejoin:miter;stroke-miterlimit:4;stroke-dasharray:none;stroke-dashoffset:0;stroke-opacity:1"
       d="m 102.81386,254.10897 c -11.77233,-1.44293 -21.74744,-8.48947 -26.9516,-19.03892 -3.85841,-7.82147 -4.50227,-17.32312 -1.74243,-25.71353 0.75147,-2.28459 2.69183,-6.22857 4.09771,-8.32898 4.12942,-6.16945 10.41496,-10.94233 17.52956,-13.31093 4.17507,-1.38997 5.60948,-1.6051 10.75203,-1.61256 5.16129,-0.007 6.79543,0.23263 10.91412,1.60364 15.99847,5.32546 25.69092,21.56412 22.82297,38.23744 -2.39427,13.91948 -13.16794,24.92391 -27.14546,27.72688 -1.61534,0.32393 -2.86591,0.42361 -5.83568,0.46516 -2.07887,0.0291 -4.07742,0.0164 -4.44122,-0.0282 z m 7.39303,-12.06532 c 4.4615,-0.78247 8.46917,-2.89463 11.81243,-6.22551 5.05243,-5.03373 7.34928,-12.13847 6.20508,-19.19389 -2.36236,-14.56687 -18.34347,-22.85785 -31.55265,-16.36947 -6.70522,3.29362 -11.18678,9.39171 -12.29245,16.7264 -1.63475,10.84457 5.1559,21.42848 15.71306,24.49037 0.92514,0.26832 2.10729,0.55937 2.62701,0.64678 1.58242,0.26614 5.78313,0.22424 7.48752,-0.0747 z"
       id="path903"
       inkscape:connector-curvature="0" />
    <path
       style="opacity:1;vector-effect:none;fill:#f45325;fill-opacity:1;stroke:none;stroke-width:0.40764937;stroke-linecap:butt;stroke-linejoin:miter;stroke-miterlimit:4;stroke-dasharray:none;stroke-dashoffset:0;stroke-opacity:1"
       d="m 102.81386,237.04186 c -6.38398,-1.34836 -11.38696,-6.09884 -13.26935,-12.59963 -0.3699,-1.27744 -0.43205,-1.92703 -0.43205,-4.51588 0,-2.58319 0.063,-3.24412 0.43209,-4.53571 1.72761,-6.04506 6.53231,-10.81245 12.51336,-12.41623 1.36035,-0.36477 2.05507,-0.42875 4.53571,-0.41767 2.61416,0.0117 3.10801,0.0675 4.59021,0.51889 2.98337,0.90853 5.22148,2.20315 7.38436,4.27142 2.31362,2.21241 4.0234,5.10023 4.87423,8.23257 0.59039,2.17354 0.59039,6.51992 0,8.69345 -0.86626,3.18917 -2.57147,6.04336 -4.97402,8.32554 -2.46569,2.34217 -5.49695,3.90324 -8.82034,4.54242 -1.86846,0.35936 -4.86945,0.31581 -6.8342,-0.0992 z m 6.45294,-6.99778 c 3.63379,-1.12278 6.1683,-3.96031 6.9128,-7.73931 1.36533,-6.93025 -5.29385,-13.2244 -12.11235,-11.44841 -1.93153,0.5031 -3.15401,1.20805 -4.61246,2.65981 -2.46519,2.45388 -3.46213,5.55523 -2.82512,8.7886 0.73636,3.73763 3.10549,6.43284 6.75116,7.68031 1.63687,0.56011 4.18158,0.58562 5.88597,0.059 z"
       id="path905"
       inkscape:connector-curvature="0" />
    <path
       style="opacity:1;vector-effect:none;fill:#f45325;fill-opacity:1;stroke:none;stroke-width:0.40764937;stroke-linecap:butt;stroke-linejoin:miter;stroke-miterlimit:4;stroke-dasharray:none;stroke-dashoffset:0;stroke-opacity:1"
       d="m 104.42026,225.05033 c -2.63839,-1.24943 -3.752,-4.38358 -2.48076,-6.9819 2.30226,-4.70565 9.16943,-3.51125 9.86277,1.71543 0.51389,3.87388 -3.80948,6.95825 -7.38201,5.26647 z"
       id="path907"
       inkscape:connector-curvature="0" />
    <path
       style="opacity:1;vector-effect:none;fill:#81bd06;fill-opacity:1;stroke:none;stroke-width:0.40764937;stroke-linecap:butt;stroke-linejoin:miter;stroke-miterlimit:4;stroke-dasharray:none;stroke-dashoffset:0;stroke-opacity:1"
       d="m 171.75088,254.02751 c -11.49317,-1.5838 -21.28765,-8.644 -26.33353,-18.98211 -5.30046,-10.85971 -4.43285,-23.77793 2.272,-33.82887 5.09603,-7.63922 12.58446,-12.67269 21.83731,-14.67831 1.76146,-0.38181 2.50449,-0.43013 6.61458,-0.43013 5.24763,0 6.6314,0.20521 10.84653,1.60852 11.36978,3.78525 19.85764,13.22053 22.50285,25.01466 2.40251,10.71204 -0.56181,21.95057 -7.9793,30.25163 -2.88082,3.22398 -6.2117,5.72251 -10.34552,7.76029 -2.81849,1.38938 -5.57941,2.33765 -8.52742,2.92882 -2.32654,0.46655 -8.59607,0.67126 -10.8875,0.3555 z m 8.01214,-11.98377 c 9.19043,-1.60267 16.51279,-9.02234 18.009,-18.24833 1.847,-11.38906 -5.28243,-22.25984 -16.47173,-25.11569 -9.86028,-2.51665 -20.40585,2.21547 -25.0346,11.23377 -1.88266,3.66803 -2.51028,6.28355 -2.49335,10.39083 0.0124,3.0035 0.23469,4.40968 1.10884,7.01375 2.11431,6.29841 7.27431,11.55333 13.51155,13.76009 3.39434,1.20094 7.85059,1.57937 11.37029,0.96558 z"
       id="path909"
       inkscape:connector-curvature="0" />
    <path
       style="opacity:1;vector-effect:none;fill:#05a5ef;fill-opacity:1;stroke:none;stroke-width:0.40764937;stroke-linecap:butt;stroke-linejoin:miter;stroke-miterlimit:4;stroke-dasharray:none;stroke-dashoffset:0;stroke-opacity:1"
       d="m 102.05791,323.31317 c -7.70867,-1.11591 -14.42638,-4.47847 -19.82985,-9.9259 -10.61652,-10.7029 -12.86594,-27.26108 -5.51148,-40.57052 3.33363,-6.0329 8.55488,-10.97744 14.85249,-14.06533 12.36345,-6.06215 27.14467,-4.10596 37.51543,4.96488 10.92833,9.55855 14.60813,24.98283 9.17982,38.47835 -4.37799,10.8843 -14.21908,18.85786 -25.81207,20.91381 -2.44806,0.43413 -8.04756,0.5444 -10.39434,0.20471 z m 9.63839,-12.25334 c 7.54557,-1.98186 13.40303,-7.47593 15.76007,-14.78229 2.17142,-6.73098 0.92018,-14.28398 -3.30186,-19.93136 -2.65015,-3.54483 -6.22995,-6.22588 -10.21441,-7.64997 -2.84128,-1.01553 -4.44092,-1.29202 -7.53546,-1.30249 -6.19915,-0.0209 -11.33257,2.09145 -15.71132,6.46541 -10.27252,10.26128 -8.17642,27.19903 4.29945,34.74222 2.17618,1.31578 4.70982,2.25034 7.55538,2.78691 2.32972,0.43932 6.84188,0.27734 9.14815,-0.32843 z"
       id="path913"
       inkscape:connector-curvature="0" />
    <path
       style="opacity:1;vector-effect:none;fill:#ffba07;fill-opacity:1;stroke:none;stroke-width:0.40764937;stroke-linecap:butt;stroke-linejoin:miter;stroke-miterlimit:4;stroke-dasharray:none;stroke-dashoffset:0;stroke-opacity:1"
       d="M 171.60553,323.31396 C 157.28604,321.26 145.91994,310.84409 142.8083,296.92413 c -3.83402,-17.15146 5.98563,-34.49992 22.61023,-39.94574 14.65033,-4.79909 30.57658,0.68459 39.13628,13.47528 7.35133,10.98503 7.66119,25.41699 0.78803,36.70319 -5.1081,8.38785 -13.62173,14.20651 -23.34297,15.95379 -2.41991,0.43495 -8.01622,0.54441 -10.39434,0.20331 z m 9.69395,-12.2664 c 8.61924,-2.25317 15.07813,-9.29667 16.48629,-17.97855 1.90794,-11.76319 -5.73958,-22.78554 -17.58128,-25.33988 -2.10503,-0.45408 -6.45334,-0.45956 -8.56042,-0.0109 -9.79939,2.08706 -16.76119,9.741 -17.83088,19.60367 -0.78752,7.26096 2.35425,14.79907 8.08934,19.40888 2.83957,2.28243 6.54817,3.9797 10.17547,4.65688 2.3768,0.44373 6.85454,0.27852 9.22148,-0.3402 z"
       id="path915"
       inkscape:connector-curvature="0" />
    <path
       style="opacity:1;vector-effect:none;fill:#81bd06;fill-opacity:1;stroke:none;stroke-width:0.40764937;stroke-linecap:butt;stroke-linejoin:miter;stroke-miterlimit:4;stroke-dasharray:none;stroke-dashoffset:0;stroke-opacity:1"
       d="m 173.96788,225.05033 c -3.50724,-1.66087 -4.04019,-6.50673 -0.97076,-8.8266 2.21875,-1.67694 4.88057,-1.48365 6.86254,0.49832 1.59386,1.59386 1.97619,3.72918 1.03899,5.8027 -1.14587,2.53519 -4.40362,3.72232 -6.93077,2.52558 z"
       id="path917"
       inkscape:connector-curvature="0" />
    <path
       style="opacity:1;vector-effect:none;fill:#81bd06;fill-opacity:1;stroke:none;stroke-width:0.40764937;stroke-linecap:butt;stroke-linejoin:miter;stroke-miterlimit:4;stroke-dasharray:none;stroke-dashoffset:0;stroke-opacity:1"
       d="m 172.36148,237.03747 c -6.30731,-1.34944 -11.46985,-6.21773 -13.2353,-12.48091 -0.60719,-2.15409 -0.70894,-5.80423 -0.22658,-8.12839 0.7122,-3.43165 2.30336,-6.37637 4.78798,-8.86099 2.28741,-2.28741 4.8975,-3.75547 8.35522,-4.69945 1.85333,-0.50597 6.39042,-0.44947 8.31584,0.10356 3.21305,0.92288 5.53565,2.23028 7.75365,4.36458 2.2956,2.20898 3.81413,4.71363 4.77791,7.88069 0.4597,1.51061 0.51442,1.99067 0.52601,4.6153 0.0138,3.13178 -0.20772,4.32731 -1.30019,7.0159 -1.06008,2.60886 -3.74906,5.86503 -6.23266,7.54729 -3.9171,2.65326 -8.9104,3.62904 -13.52188,2.64242 z m 6.14211,-6.87982 c 4.13086,-1.10622 7.08092,-4.68965 7.39873,-8.98724 0.3188,-4.31097 -2.51084,-8.58861 -6.64277,-10.04202 -1.43422,-0.50448 -3.8152,-0.67505 -5.25277,-0.37628 -5.00439,1.04003 -8.61069,6.05715 -7.91087,11.00567 0.56703,4.00961 3.137,7.04812 7.02152,8.30166 1.2688,0.40944 4.03559,0.45989 5.38616,0.0982 z"
       id="path919"
       inkscape:connector-curvature="0" />
    <path
       style="opacity:1;vector-effect:none;fill:#ffba07;fill-opacity:1;stroke:none;stroke-width:0.40764937;stroke-linecap:butt;stroke-linejoin:miter;stroke-miterlimit:4;stroke-dasharray:none;stroke-dashoffset:0;stroke-opacity:1"
       d="m 172.993,306.49966 c -3.63003,-0.69326 -6.40421,-2.13331 -9.11059,-4.72919 -2.3472,-2.25139 -3.92841,-4.92553 -4.80509,-8.12638 -0.60766,-2.21869 -0.59791,-6.72158 0.0192,-8.87498 1.74084,-6.0743 6.06832,-10.49602 12.07494,-12.33794 1.50936,-0.46284 1.94961,-0.51086 4.78075,-0.52144 3.6352,-0.0135 4.96568,0.27323 7.84351,1.69087 4.66192,2.29651 7.94593,6.41072 9.27605,11.62114 0.52931,2.0734 0.48858,6.31991 -0.0807,8.40996 -0.85411,3.13598 -2.56267,6.02107 -4.87534,8.23259 -3.25753,3.11502 -6.95317,4.6627 -11.5021,4.81688 -1.44911,0.0491 -2.75626,-0.0164 -3.62071,-0.18151 z m 5.50274,-7.01521 c 2.44245,-0.63619 4.87533,-2.49098 6.11936,-4.66532 0.71384,-1.24767 1.35352,-3.59519 1.35352,-4.96718 0,-1.372 -0.63968,-3.71952 -1.35352,-4.96719 -1.24403,-2.17434 -3.67691,-4.02912 -6.11936,-4.66531 -5.67372,-1.47781 -11.51738,2.40895 -12.3842,8.23703 -0.70787,4.75938 2.4331,9.63068 7.0641,10.9556 1.46646,0.41958 3.86201,0.45215 5.3201,0.0724 z"
       id="path921"
       inkscape:connector-curvature="0" />
    <path
       style="opacity:1;vector-effect:none;fill:#000000;fill-opacity:0;stroke:none;stroke-width:0.40764937;stroke-linecap:butt;stroke-linejoin:miter;stroke-miterlimit:4;stroke-dasharray:none;stroke-dashoffset:0;stroke-opacity:1"
       d="m 174.32419,294.56595 c -1.96159,-0.72454 -3.30925,-2.70986 -3.30925,-4.87508 0,-2.92278 1.93031,-4.99692 4.82315,-5.18256 1.11468,-0.0715 1.53285,-0.0119 2.33553,0.33346 1.8533,0.79727 3.25929,2.87703 3.25929,4.82118 0,1.7561 -1.30017,3.84525 -2.90509,4.66799 -1.01265,0.51912 -3.11601,0.6367 -4.20363,0.23501 z"
       id="path923"
       inkscape:connector-curvature="0" />
    <path
       style="opacity:1;vector-effect:none;fill:#ffba07;fill-opacity:1;stroke:none;stroke-width:0.40764937;stroke-linecap:butt;stroke-linejoin:miter;stroke-miterlimit:4;stroke-dasharray:none;stroke-dashoffset:0;stroke-opacity:1"
       d="m 174.32419,294.56595 c -1.96159,-0.72454 -3.30925,-2.70986 -3.30925,-4.87508 0,-2.92278 1.93031,-4.99692 4.82315,-5.18256 1.11468,-0.0715 1.53285,-0.0119 2.33553,0.33346 1.8533,0.79727 3.25929,2.87703 3.25929,4.82118 0,1.7561 -1.30017,3.84525 -2.90509,4.66799 -1.01265,0.51912 -3.11601,0.6367 -4.20363,0.23501 z"
       id="path925"
       inkscape:connector-curvature="0" />
    <path
       style="opacity:1;vector-effect:none;fill:#05a5ef;fill-opacity:1;stroke:none;stroke-width:0.40764937;stroke-linecap:butt;stroke-linejoin:miter;stroke-miterlimit:4;stroke-dasharray:none;stroke-dashoffset:0;stroke-opacity:1"
       d="m 103.4489,306.50024 c -5.73923,-1.0964 -10.582,-4.8487 -12.92399,-10.01384 -1.16431,-2.56783 -1.41384,-3.86728 -1.40103,-7.29591 0.0106,-2.83115 0.0586,-3.27139 0.52144,-4.78076 1.81032,-5.90357 6.07498,-10.16825 11.97856,-11.97856 1.50936,-0.46284 1.94961,-0.51086 4.78076,-0.52144 2.69845,-0.01 3.31648,0.0458 4.59023,0.415 8.07546,2.34066 13.3622,9.62673 12.92339,17.81069 -0.34815,6.49319 -4.07258,12.09347 -9.88717,14.86696 -0.95064,0.45345 -2.3964,0.99939 -3.21279,1.21317 -1.91856,0.50245 -5.50441,0.64098 -7.3694,0.28469 z m 5.46846,-7.02439 c 4.8658,-1.26085 8.14209,-6.18787 7.34087,-11.03948 -0.82916,-5.02071 -4.86681,-8.5063 -9.85359,-8.5063 -4.95781,0 -9.16161,3.66644 -9.85921,8.59896 -0.67702,4.78705 2.43507,9.55135 7.11466,10.89184 1.44651,0.41436 3.77639,0.43873 5.25727,0.055 z"
       id="path927"
       inkscape:connector-curvature="0" />
    <path
       style="opacity:1;vector-effect:none;fill:#05a5ef;fill-opacity:1;stroke:none;stroke-width:0.40764937;stroke-linecap:butt;stroke-linejoin:miter;stroke-miterlimit:4;stroke-dasharray:none;stroke-dashoffset:0;stroke-opacity:1"
       d="m 104.77657,294.56595 c -1.93134,-0.71335 -3.3586,-2.79125 -3.3539,-4.88283 0.006,-2.86139 2.01008,-4.99142 4.8678,-5.17481 1.11884,-0.0718 1.53204,-0.0122 2.34794,0.3388 1.818,0.78209 3.24688,2.90142 3.24688,4.81584 0,1.7561 -1.30017,3.84525 -2.90508,4.66799 -1.01266,0.51912 -3.11602,0.6367 -4.20364,0.23501 z"
       id="path929"
       inkscape:connector-curvature="0" />
    <path
       style="opacity:1;vector-effect:none;fill:#093b9e;fill-opacity:1;stroke:none;stroke-width:3.08144403;stroke-linecap:butt;stroke-linejoin:miter;stroke-miterlimit:4;stroke-dasharray:none;stroke-dashoffset:0;stroke-opacity:1"
       d="m 293.62273,584.28792 c -2.97969,-0.86036 -4.61528,-2.2215 -4.56585,-3.79973 0.0451,-1.44004 12.12581,-12.04333 29.15122,-25.58613 32.21215,-25.62301 32.6625,-26.13391 55.16973,-62.58731 21.77014,-35.25956 36.37456,-69.06275 38.11084,-88.21079 l 0.74517,-8.21778 h -21.1041 c -12.37867,0 -23.48918,-0.71459 -26.87287,-1.72838 -4.02254,-1.20517 -10.7508,-6.2863 -22.22711,-16.78571 -9.05209,-8.28154 -21.39504,-19.33639 -27.42878,-24.56631 -18.97812,-16.44989 -35.79449,-35.88908 -33.2489,-38.43468 0.92591,-0.92591 11.16508,0.41349 29.8754,3.90804 24.76989,4.6263 31.24946,5.31849 49.89525,5.33015 19.16583,0.012 53.91205,-3.31433 64.84775,-6.20797 2.86117,-0.75708 4.48346,-2.88337 7.00392,-9.17989 l 3.28024,-8.1946 -3.63739,-4.32279 c -2.00055,-2.37754 -3.63738,-5.01636 -3.63738,-5.86406 0,-2.66669 -7.12174,-11.01237 -11.19464,-13.11855 -2.14725,-1.11038 -6.33854,-2.47559 -9.31397,-3.03378 -6.83691,-1.28261 -13.77711,-7.0031 -13.77711,-11.35585 0,-2.02958 3.29201,-6.93298 8.54957,-12.7345 9.80414,-10.81848 12.67923,-16.12998 22.11409,-40.85398 3.74793,-9.82143 7.36807,-19.30357 8.04476,-21.07143 1.4033,-3.66618 7.0986,-4.40234 9.71053,-1.25516 0.89425,1.07752 2.64997,5.41681 3.90155,9.64286 3.43078,11.58406 5.25368,14.39742 19.34535,29.85643 10.6275,11.65872 14.05275,14.52055 18.87331,15.76887 3.23919,0.8388 10.71084,4.28091 16.6037,7.64914 5.89286,3.36822 14.89286,7.51189 20,9.20815 8.14866,2.70646 18.46053,8.00742 25.95169,13.34081 2.90973,2.07161 5.75535,0.054 10.48027,-7.43075 2.66521,-4.22197 3.35777,-8.02142 4.23527,-23.23526 0.57697,-10.00337 1.26389,-18.18795 1.52647,-18.18795 3.20583,0 7.8063,3.33663 7.8063,5.66174 0,1.8766 3.84553,5.93362 11.07143,11.68032 17.9209,14.25234 24.96786,18.39181 34.83103,20.46015 5.00364,1.04929 13.59754,4.14841 19.09754,6.88696 22.76732,11.33622 61.6257,26.72767 67.56347,26.76128 10.7206,0.0607 9.43655,4.92951 -4.88884,18.53722 -9.83419,9.34151 -23.81511,17.92265 -33.19866,20.3765 -1.54143,0.4031 -3.91015,2.89678 -5.26383,5.5415 -1.35367,2.64475 -9.37715,13.20109 -17.82997,23.45858 -18.14911,22.02392 -29.39713,38.85648 -37.42578,56.00738 -3.21459,6.86703 -7.97277,15.6998 -10.57375,19.62837 -3.52291,5.3211 -5.09931,9.7616 -6.18085,17.41062 -1.61886,11.44901 -0.92452,17.17768 3.04324,25.10853 10.18723,20.3625 52.71793,26.65784 121.4696,17.97982 12.16387,-1.53535 12.51066,-1.68677 16.26224,-7.10031 3.69656,-5.33413 21.22202,-57.53006 25.6578,-76.41643 1.12797,-4.80263 2.69157,-17.9812 3.47465,-29.28571 2.18715,-31.57357 3.42818,-36.98223 8.4857,-36.98223 3.75837,0 11.91558,19.76693 15.91728,38.57143 1.75563,8.25 4.71579,19.48354 6.5781,24.96343 1.86232,5.47988 4.40802,16.08702 5.6571,23.57142 3.09896,18.56858 7.58144,29.31618 20.25447,48.56395 12.24476,18.59731 18.18269,33.2336 16.76356,41.32021 -0.4973,2.83383 -2.21401,9.17899 -3.81491,14.10036 -4.6349,14.24821 -19.79602,28.96567 -34.33023,33.3256 -2.61979,0.78587 -13.18913,1.72153 -23.48743,2.07924 -11.27063,0.39149 -26.90913,2.14413 -39.28572,4.40282 -17.32418,3.16161 -25.98191,3.85874 -54.9883,4.42767 -21.90467,0.42965 -38.20577,0.089 -44.81628,-0.93673 -14.78563,-2.29406 -29.2411,-8.34483 -50.46244,-21.12256 C 559.88528,549.04543 549.087,538.6133 537.95618,520.02289 525.97015,500.0041 524.46723,494.50646 523.3517,466.60046 c -1.21827,-30.47656 0.026,-42.36994 6.32624,-60.47011 8.87883,-25.5082 19.30193,-61.64322 19.30193,-66.91629 v -5.13028 l -5.35714,0.88547 c -2.94643,0.48701 -7.03966,0.89255 -9.09608,0.9012 -3.37727,0.0143 -4.18358,1.19388 -8.33604,12.19597 -2.52843,6.69913 -6.8602,15.53841 -9.62617,19.64286 -2.76596,4.10444 -6.49883,10.35547 -8.29524,13.89118 -1.79643,3.53572 -4.62565,7.65703 -6.28717,9.15849 -1.66152,1.50144 -9.08316,15.00144 -16.49255,30 -13.94698,28.23238 -33.66827,60.60753 -44.09055,72.38057 -44.14119,49.86206 -63.62546,66.844 -87.94494,76.65041 -6.73369,2.71525 -15.33019,6.50117 -19.10334,8.41317 -5.41248,2.7427 -31.21275,8.2468 -35.37078,7.54582 -0.39286,-0.0663 -2.80357,-0.72369 -5.35714,-1.461 z"
       id="path1001"
       inkscape:connector-curvature="0"
       transform="scale(0.26458333)" />
  </g>
</svg>
