<?xml version="1.0" encoding="UTF-8" standalone="no"?>
<!-- Created with Inkscape (http://www.inkscape.org/) -->

<svg
   xmlns:dc="http://purl.org/dc/elements/1.1/"
   xmlns:cc="http://creativecommons.org/ns#"
   xmlns:rdf="http://www.w3.org/1999/02/22-rdf-syntax-ns#"
   xmlns:svg="http://www.w3.org/2000/svg"
   xmlns="http://www.w3.org/2000/svg"
   xmlns:sodipodi="http://sodipodi.sourceforge.net/DTD/sodipodi-0.dtd"
   xmlns:inkscape="http://www.inkscape.org/namespaces/inkscape"
   width="285mm"
   height="375mm"
   viewBox="0 0 285 375"
   version="1.1"
   id="svg8"
   inkscape:version="0.92.3 (2405546, 2018-03-11)"
   sodipodi:docname="mahjong3characters.svg">
  <defs
     id="defs2">
    <inkscape:path-effect
       effect="spiro"
       id="path-effect948"
       is_visible="true" />
    <inkscape:path-effect
       effect="spiro"
       id="path-effect944"
       is_visible="true" />
    <inkscape:path-effect
       effect="spiro"
       id="path-effect940"
       is_visible="true" />
    <inkscape:path-effect
       effect="spiro"
       id="path-effect936"
       is_visible="true" />
    <inkscape:path-effect
       effect="spiro"
       id="path-effect932"
       is_visible="true" />
    <inkscape:path-effect
       effect="spiro"
       id="path-effect928"
       is_visible="true" />
    <inkscape:path-effect
       effect="spiro"
       id="path-effect980"
       is_visible="true" />
    <inkscape:path-effect
       effect="spiro"
       id="path-effect976"
       is_visible="true" />
    <inkscape:path-effect
       effect="spiro"
       id="path-effect972"
       is_visible="true" />
    <inkscape:path-effect
       effect="spiro"
       id="path-effect968"
       is_visible="true" />
    <inkscape:path-effect
       effect="spiro"
       id="path-effect1013"
       is_visible="true" />
    <inkscape:path-effect
       effect="spiro"
       id="path-effect1009"
       is_visible="true" />
    <inkscape:path-effect
       effect="spiro"
       id="path-effect1005"
       is_visible="true" />
    <inkscape:path-effect
       effect="spiro"
       id="path-effect1001"
       is_visible="true" />
    <inkscape:path-effect
       effect="spiro"
       id="path-effect997"
       is_visible="true" />
    <inkscape:path-effect
       effect="spiro"
       id="path-effect993"
       is_visible="true" />
    <inkscape:path-effect
       effect="spiro"
       id="path-effect989"
       is_visible="true" />
    <inkscape:path-effect
       effect="spiro"
       id="path-effect985"
       is_visible="true" />
    <inkscape:path-effect
       effect="spiro"
       id="path-effect981"
       is_visible="true" />
    <inkscape:path-effect
       effect="spiro"
       id="path-effect977"
       is_visible="true" />
    <inkscape:path-effect
       effect="spiro"
       id="path-effect973"
       is_visible="true" />
    <inkscape:path-effect
       effect="spiro"
       id="path-effect969"
       is_visible="true" />
    <inkscape:path-effect
       effect="spiro"
       id="path-effect965"
       is_visible="true" />
    <inkscape:path-effect
       effect="spiro"
       id="path-effect961"
       is_visible="true" />
    <inkscape:path-effect
       effect="spiro"
       id="path-effect957"
       is_visible="true" />
    <inkscape:path-effect
       effect="spiro"
       id="path-effect953"
       is_visible="true" />
    <inkscape:path-effect
       effect="spiro"
       id="path-effect949"
       is_visible="true" />
    <inkscape:path-effect
       effect="spiro"
       id="path-effect945"
       is_visible="true" />
    <inkscape:path-effect
       effect="spiro"
       id="path-effect941"
       is_visible="true" />
    <inkscape:path-effect
       effect="spiro"
       id="path-effect937"
       is_visible="true" />
    <inkscape:path-effect
       effect="spiro"
       id="path-effect933"
       is_visible="true" />
    <inkscape:path-effect
       effect="spiro"
       id="path-effect929"
       is_visible="true" />
    <inkscape:path-effect
       effect="spiro"
       id="path-effect925"
       is_visible="true" />
    <inkscape:path-effect
       effect="spiro"
       id="path-effect921"
       is_visible="true" />
    <inkscape:path-effect
       effect="spiro"
       id="path-effect917"
       is_visible="true" />
    <inkscape:path-effect
       effect="spiro"
       id="path-effect913"
       is_visible="true" />
    <inkscape:path-effect
       effect="spiro"
       id="path-effect909"
       is_visible="true" />
    <inkscape:path-effect
       effect="spiro"
       id="path-effect905"
       is_visible="true" />
    <inkscape:path-effect
       effect="spiro"
       id="path-effect901"
       is_visible="true" />
    <inkscape:path-effect
       effect="spiro"
       id="path-effect897"
       is_visible="true" />
    <inkscape:path-effect
       effect="spiro"
       id="path-effect893"
       is_visible="true" />
    <inkscape:path-effect
       effect="spiro"
       id="path-effect889"
       is_visible="true" />
    <inkscape:path-effect
       effect="spiro"
       id="path-effect885"
       is_visible="true" />
    <inkscape:path-effect
       effect="spiro"
       id="path-effect881"
       is_visible="true" />
    <inkscape:path-effect
       effect="spiro"
       id="path-effect877"
       is_visible="true" />
    <inkscape:path-effect
       effect="spiro"
       id="path-effect873"
       is_visible="true" />
    <inkscape:path-effect
       effect="spiro"
       id="path-effect869"
       is_visible="true" />
    <inkscape:path-effect
       effect="spiro"
       id="path-effect865"
       is_visible="true" />
    <inkscape:path-effect
       effect="spiro"
       id="path-effect861"
       is_visible="true" />
    <inkscape:path-effect
       effect="spiro"
       id="path-effect857"
       is_visible="true" />
    <inkscape:path-effect
       effect="spiro"
       id="path-effect853"
       is_visible="true" />
    <inkscape:path-effect
       effect="spiro"
       id="path-effect849"
       is_visible="true" />
    <inkscape:path-effect
       effect="spiro"
       id="path-effect845"
       is_visible="true" />
    <inkscape:path-effect
       effect="spiro"
       id="path-effect841"
       is_visible="true" />
    <inkscape:path-effect
       effect="spiro"
       id="path-effect837"
       is_visible="true" />
    <inkscape:path-effect
       effect="spiro"
       id="path-effect833"
       is_visible="true" />
    <inkscape:path-effect
       effect="spiro"
       id="path-effect829"
       is_visible="true" />
  </defs>
  <sodipodi:namedview
     id="base"
     pagecolor="#ffffff"
     bordercolor="#666666"
     borderopacity="1.0"
     inkscape:pageopacity="0.0"
     inkscape:pageshadow="2"
     inkscape:zoom="0.35"
     inkscape:cx="-191.07367"
     inkscape:cy="804.1802"
     inkscape:document-units="mm"
     inkscape:current-layer="layer1"
     showgrid="false"
     inkscape:window-width="1920"
     inkscape:window-height="1027"
     inkscape:window-x="-8"
     inkscape:window-y="-8"
     inkscape:window-maximized="1" />
  <metadata
     id="metadata5">
    <rdf:RDF>
      <cc:Work
         rdf:about="">
        <dc:format>image/svg+xml</dc:format>
        <dc:type
           rdf:resource="http://purl.org/dc/dcmitype/StillImage" />
        <dc:title />
      </cc:Work>
    </rdf:RDF>
  </metadata>
  <g
     inkscape:groupmode="layer"
     id="layer2"
     inkscape:label="the-line">
    <path
       style="opacity:1;vector-effect:none;fill:none;fill-opacity:1;fill-rule:evenodd;stroke:#000000;stroke-width:0.26458332px;stroke-linecap:butt;stroke-linejoin:miter;stroke-miterlimit:4;stroke-dasharray:none;stroke-dashoffset:0;stroke-opacity:1"
       d="m 99.785714,61.374257 c 1.638356,0.248959 3.276256,0.500943 4.913686,0.755952 2.8303,0.440783 5.66003,0.890719 8.50447,1.228423 3.13578,0.372293 6.30829,0.607719 9.4494,0.283483 3.40788,-0.351773 6.73389,-1.362505 9.82738,-2.834823 2.51443,-1.19672 4.87443,-2.69284 7.18155,-4.252232 2.12571,-1.436779 4.21698,-2.934078 6.14211,-4.630208 1.20403,-1.060809 2.34098,-2.197754 3.40179,-3.401785"
       id="path926"
       inkscape:connector-curvature="0"
       inkscape:path-effect="#path-effect928"
       inkscape:original-d="m 99.785714,61.374257 c 1.638156,0.25172 3.276056,0.503704 4.913686,0.755952 1.63764,0.252248 5.66991,0.818684 8.50447,1.228423 2.83455,0.409739 6.29986,0.188722 9.4494,0.283483 3.14954,0.09476 6.55185,-1.890146 9.82738,-2.834823 3.27553,-0.944676 4.78797,-2.835084 7.18155,-4.252232 2.39358,-1.417146 4.09501,-3.087068 6.14211,-4.630208 2.04711,-1.543138 2.26812,-2.268123 3.40179,-3.401785" />
    <path
       style="opacity:1;vector-effect:none;fill:none;fill-opacity:1;fill-rule:evenodd;stroke:#000000;stroke-width:0.26458332px;stroke-linecap:butt;stroke-linejoin:miter;stroke-miterlimit:4;stroke-dasharray:none;stroke-dashoffset:0;stroke-opacity:1"
       d="m 149.2061,48.523067 c 0.52721,-0.275125 1.08213,-0.497096 1.65364,-0.661459 0.49194,-0.141479 1.00005,-0.240681 1.51191,-0.236236 0.97476,0.0085 1.90504,0.389249 2.78757,0.803201 1.57933,0.740785 3.09946,1.608538 4.53572,2.598584 1.81485,1.251014 3.49471,2.696936 5.00818,4.299479 1.35219,1.431774 2.57358,2.991129 3.59078,4.677458 0.64614,1.071176 1.21219,2.199901 1.55915,3.401785 0.23534,0.815218 0.36542,1.699996 0.0945,2.504091 -0.27913,0.828474 -0.94357,1.461588 -1.6064,2.031624 -1.31158,1.127969 -2.70999,2.150078 -4.11049,3.165549 -1.47461,1.06921 -2.96666,2.14026 -4.63021,2.882069 -2.28094,1.017114 -4.80057,1.378513 -7.1343,2.267858 -2.02173,0.77045 -3.87424,1.925499 -5.85863,2.787573 -1.71923,0.746881 -3.52667,1.269216 -5.33891,1.748139 -3.22378,0.851952 -6.48417,1.573712 -9.78014,2.078871 -2.84655,0.436278 -5.75833,0.70957 -8.59895,0.236233 -2.68141,-0.446807 -5.21343,-1.545832 -7.60677,-2.83482 -3.37072,-1.815374 -6.56344,-4.059636 -9.02419,-6.992559 -1.73188,-2.064202 -3.0693,-4.429863 -4.25223,-6.850819 -0.80825,-1.654147 -1.54927,-3.341144 -2.220606,-5.055431"
       id="path930"
       inkscape:connector-curvature="0"
       inkscape:path-effect="#path-effect932"
       inkscape:original-d="m 149.2061,48.523067 c 0.55148,-0.22075 1.10269,-0.441238 1.65364,-0.661459 0.55095,-0.22022 1.0082,-0.157755 1.51191,-0.236236 0.5037,-0.07848 1.85865,0.535202 2.78757,0.803201 0.92893,0.267997 3.02408,1.732127 4.53572,2.598584 1.51164,0.866461 3.33905,2.866057 5.00818,4.299479 1.66913,1.433426 2.39412,3.118041 3.59078,4.677458 1.19666,1.559415 1.0397,2.26759 1.55915,3.401785 0.51945,1.134192 0.0633,1.669129 0.0945,2.504091 0.0312,0.834964 -1.07067,1.35415 -1.6064,2.031624 -0.53573,0.677471 -2.74006,2.110102 -4.11049,3.165549 -1.37043,1.055449 -3.08654,1.921116 -4.63021,2.882069 -1.54366,0.960954 -4.75593,1.511639 -7.1343,2.267858 -2.37836,0.756216 -3.90549,1.858118 -5.85863,2.787573 -1.95314,0.929457 -3.55901,1.165161 -5.33891,1.748139 -1.7799,0.582978 -6.51983,1.385649 -9.78014,2.078871 -3.26031,0.693219 -5.73237,0.157223 -8.59895,0.236233 -2.86659,0.07901 -5.07092,-1.890143 -7.60677,-2.83482 -2.53586,-0.944676 -6.01586,-4.661971 -9.02419,-6.992559 -3.00832,-2.33059 -2.83455,-4.567478 -4.25223,-6.850819 -1.41767,-2.283341 -1.48014,-3.370553 -2.220606,-5.055431" />
    <path
       style="opacity:1;vector-effect:none;fill:none;fill-opacity:1;fill-rule:evenodd;stroke:#000000;stroke-width:0.26458332px;stroke-linecap:butt;stroke-linejoin:miter;stroke-miterlimit:4;stroke-dasharray:none;stroke-dashoffset:0;stroke-opacity:1"
       d="m 109.23512,97.801712 c 3.5114,0.109639 7.02721,0.07811 10.53608,-0.09449 2.04673,-0.100677 4.09295,-0.249374 6.14211,-0.236236 1.29307,0.0083 2.63366,0.07277 3.82701,-0.425223 1.03426,-0.431607 1.85244,-1.243221 2.69308,-1.984375 1.36548,-1.203888 2.85941,-2.268408 4.1105,-3.590774 0.79844,-0.843929 1.48903,-1.783764 2.26785,-2.645833 1.14107,-1.263043 2.49233,-2.368426 4.06325,-3.023809 1.0445,-0.435763 2.17554,-0.665791 3.30729,-0.661459 1.52409,0.0058 3.01096,0.429237 4.48847,0.803199 1.58387,0.400882 3.20632,0.757945 4.6302,1.559152 1.56276,0.879359 2.78999,2.239469 3.96875,3.590774 0.94943,1.088405 1.88808,2.188472 2.74033,3.354539 0.98939,1.353708 1.86017,2.794101 2.59859,4.299479 0.35291,0.719468 0.68009,1.470094 0.75595,2.267854 0.0789,0.82995 -0.12406,1.67578 -0.51972,2.4096 -0.5166,0.95811 -1.33674,1.71324 -2.17336,2.4096 -1.49982,1.24838 -3.10602,2.37298 -4.8192,3.30729 -1.89489,1.03341 -3.90835,1.82824 -5.90587,2.64583 -2.50112,1.02371 -4.99571,2.09054 -7.60678,2.78757 -2.27115,0.60629 -4.60845,0.92666 -6.94531,1.18118 -2.29282,0.24973 -4.59314,0.43752 -6.89806,0.51972 -2.09119,0.0746 -4.21266,0.0588 -6.23661,-0.47247 -2.15487,-0.56566 -4.11602,-1.69352 -6.00037,-2.88207 -2.27241,-1.43332 -4.51676,-3.01065 -6.14211,-5.14993 -1.40173,-1.84496 -2.28154,-4.02726 -3.49628,-6.00037 -0.35053,-0.56938 -0.72912,-1.12148 -1.13393,-1.65364"
       id="path934"
       inkscape:connector-curvature="0"
       inkscape:path-effect="#path-effect936"
       inkscape:original-d="m 109.23512,97.801712 c 3.51229,-0.03176 7.02432,-0.06326 10.53608,-0.09449 3.51177,-0.03123 4.09501,-0.157756 6.14211,-0.236236 2.04711,-0.07848 2.55161,-0.283747 3.82701,-0.425223 1.27541,-0.141478 1.79566,-1.323181 2.69308,-1.984375 0.89743,-0.661193 2.7406,-2.394114 4.1105,-3.590774 1.3699,-1.19666 1.51217,-1.764154 2.26785,-2.645833 0.75569,-0.881682 2.7091,-2.016138 4.06325,-3.023809 1.35415,-1.007674 2.20512,-0.441238 3.30729,-0.661459 1.10216,-0.220223 2.99257,0.5352 4.48847,0.803199 1.49589,0.267996 3.08707,1.039169 4.6302,1.559152 1.54314,0.519981 2.6461,2.393585 3.96875,3.590774 1.32266,1.197187 1.82715,2.236095 2.74033,3.354539 0.91318,1.118444 1.73266,2.866054 2.59859,4.299479 0.86593,1.433424 0.50423,1.511634 0.75595,2.267854 0.25172,0.75622 -0.34621,1.60613 -0.51972,2.4096 -0.1735,0.80346 -1.44864,1.60613 -2.17336,2.4096 -0.72472,0.80346 -3.21253,2.20459 -4.8192,3.30729 -1.60666,1.10269 -3.93698,1.76362 -5.90587,2.64583 -1.96889,0.88221 -5.07092,1.85812 -7.60678,2.78757 -2.53585,0.92946 -4.62994,0.78719 -6.94531,1.18118 -2.31537,0.39399 -4.59844,0.34621 -6.89806,0.51972 -2.29962,0.1735 -4.15748,-0.31525 -6.23661,-0.47247 -2.07913,-0.15723 -3.99998,-1.92165 -6.00037,-2.88207 -2.00039,-0.96043 -4.09448,-3.43355 -6.14211,-5.14993 -2.04764,-1.71638 -2.33059,-4.00051 -3.49628,-6.00037 -1.1657,-1.999856 -0.75569,-1.10269 -1.13393,-1.65364" />
    <path
       style="opacity:1;vector-effect:none;fill:none;fill-opacity:1;fill-rule:evenodd;stroke:#000000;stroke-width:0.26458332px;stroke-linecap:butt;stroke-linejoin:miter;stroke-miterlimit:4;stroke-dasharray:none;stroke-dashoffset:0;stroke-opacity:1"
       d="m 107.48698,100.11682 c -0.24419,-0.289635 -0.35103,-0.690298 -0.28348,-1.063063 0.0399,-0.220237 0.1368,-0.427249 0.25985,-0.614211 0.21414,-0.325354 0.52287,-0.602828 0.8977,-0.708705 0.28734,-0.08116 0.60356,-0.05553 0.87407,0.07087"
       id="path938"
       inkscape:connector-curvature="0"
       inkscape:path-effect="#path-effect940"
       inkscape:original-d="m 107.48698,100.11682 c -0.0942,-0.338872 -0.18873,-0.708974 -0.28348,-1.063063 -0.0948,-0.354089 0.1735,-0.409739 0.25985,-0.614211 0.0864,-0.204473 0.59873,-0.472734 0.8977,-0.708705 0.29896,-0.235972 0.58297,0.04698 0.87407,0.07087" />
    <path
       style="opacity:1;vector-effect:none;fill:none;fill-opacity:1;fill-rule:evenodd;stroke:#000000;stroke-width:0.26458332px;stroke-linecap:butt;stroke-linejoin:miter;stroke-miterlimit:4;stroke-dasharray:none;stroke-dashoffset:0;stroke-opacity:1"
       d="m 65.31399,127.87591 c 2.874734,0.60485 5.759552,1.16176 8.652852,1.67044 5.005972,0.88011 10.052803,1.61715 15.134134,1.73725 3.980593,0.0941 7.960049,-0.19098 11.926904,-0.53454 5.81151,-0.50332 11.61145,-1.13255 17.40593,-1.80407 8.19004,-0.94913 16.37043,-1.98286 24.53568,-3.1258 4.60186,-0.64415 9.20527,-1.32365 13.84338,-1.60639 4.82768,-0.2943 9.6713,-0.15737 14.50484,-0.33073 1.6397,-0.0588 3.27811,-0.15333 4.91369,-0.28348"
       id="path942"
       inkscape:connector-curvature="0"
       inkscape:path-effect="#path-effect944"
       inkscape:original-d="m 65.31399,127.87591 c 2.884549,0.55655 5.768833,1.11336 8.652852,1.67044 2.884019,0.55707 10.089687,1.1579 15.134134,1.73725 5.044448,0.57935 7.951534,-0.35662 11.926904,-0.53454 3.97537,-0.17791 11.60422,-1.20298 17.40593,-1.80407 5.80171,-0.60109 16.35738,-2.08413 24.53568,-3.1258 8.1783,-1.04166 9.22918,-1.07119 13.84338,-1.60639 4.61419,-0.5352 9.67016,-0.22075 14.50484,-0.33073 4.83468,-0.10998 3.27605,-0.18925 4.91369,-0.28348" />
    <path
       style="opacity:1;vector-effect:none;fill:none;fill-opacity:1;fill-rule:evenodd;stroke:#000000;stroke-width:0.26458332px;stroke-linecap:butt;stroke-linejoin:miter;stroke-miterlimit:4;stroke-dasharray:none;stroke-dashoffset:0;stroke-opacity:1"
       d="m 176.2314,123.59859 c 1.25497,-1.05664 2.60011,-2.00615 4.01599,-2.83483 1.41567,-0.82856 2.90972,-1.53919 4.48847,-1.98437 1.51642,-0.4276 3.11229,-0.60593 4.67745,-0.42522 2.33005,0.26902 4.49865,1.31444 6.52009,2.50409 2.11303,1.24356 4.12591,2.66467 5.95313,4.29948 1.76599,1.58003 3.3554,3.35769 4.7247,5.29166 1.38401,1.95476 2.53904,4.06125 3.63802,6.18936 0.53283,1.0318 1.05782,2.0822 1.32292,3.2128 0.29142,1.24289 0.25435,2.56617 -0.14174,3.77977 -0.3329,1.01998 -0.9119,1.95031 -1.62385,2.753 -1.33711,1.50753 -3.12639,2.56162 -5.01131,3.27405 -2.09209,0.79073 -4.3676,1.18593 -6.58151,0.86863 -2.07907,-0.29798 -4.01281,-1.20226 -5.98015,-1.93771 -3.65484,-1.36629 -7.50803,-2.16957 -11.39237,-2.53906 -3.13224,-0.29794 -6.28494,-0.31636 -9.42125,-0.56795 -3.59693,-0.28854 -7.16331,-0.88301 -10.7576,-1.20271 -2.76507,-0.24595 -5.54749,-0.32884 -8.31876,-0.16704 -3.57241,0.20858 -7.10697,0.82193 -10.65737,1.26953 -3.5105,0.44257 -7.03924,0.72333 -10.55715,1.10249 -4.24727,0.45777 -8.47836,1.05894 -12.72807,1.49349 -1.99734,0.20424 -4.02732,0.37807 -5.90588,1.08668 -1.41929,0.53537 -2.71812,1.36458 -4.15773,1.84264 -2.10694,0.69966 -4.38935,0.60921 -6.56734,1.03943 -1.5459,0.30536 -3.0263,0.87047 -4.535715,1.32292 -1.764908,0.52904 -3.590937,0.90682 -5.433408,0.89769 -2.289552,-0.0113 -4.568908,-0.63079 -6.567336,-1.74814 -1.85413,-1.03667 -3.447736,-2.47788 -4.960938,-3.96875 -1.95287,-1.92405 -3.800873,-3.95153 -5.622396,-6.00037 -1.885407,-2.12069 -3.744073,-4.26602 -5.527901,-6.47284 -1.639326,-2.02805 -3.216489,-4.10925 -4.960938,-6.04762 -0.103654,-0.11518 -0.208844,-0.23116 -0.284041,-0.36664 -0.09906,-0.17847 -0.141895,-0.38629 -0.130215,-0.59008 0.01168,-0.20379 0.0769,-0.40324 0.180325,-0.57922 0.09518,-0.16194 0.223356,-0.30535 0.378197,-0.41169 0.154841,-0.10634 0.336577,-0.17491 0.523837,-0.18967 0.165055,-0.013 0.333253,0.016 0.484426,0.0835"
       id="path946"
       inkscape:connector-curvature="0"
       inkscape:path-effect="#path-effect948"
       inkscape:original-d="m 176.2314,123.59859 c 1.33893,-0.94521 2.67759,-1.89015 4.01599,-2.83483 1.3384,-0.94467 2.99258,-1.32318 4.48847,-1.98437 1.49589,-0.66119 3.11857,-0.28375 4.67745,-0.42522 1.55889,-0.14148 4.347,1.66913 6.52009,2.50409 2.1731,0.83496 3.96902,2.86605 5.95313,4.29948 1.98411,1.43342 3.15006,3.52751 4.7247,5.29166 1.57464,1.76416 2.42561,4.12598 3.63802,6.18936 1.21241,2.06338 0.88221,2.1416 1.32292,3.2128 0.44071,1.0712 -0.0942,2.51958 -0.14174,3.77977 -0.0475,1.26019 -1.0823,1.83507 -1.62385,2.753 -0.54155,0.91793 -3.34061,2.18244 -5.01131,3.27405 -1.67069,1.09162 -4.38741,0.57882 -6.58151,0.86863 -2.1941,0.2898 -3.9865,-1.29207 -5.98015,-1.93771 -1.99365,-0.64563 -7.59465,-1.69297 -11.39237,-2.53906 -3.79772,-0.84609 -6.28057,-0.37889 -9.42125,-0.56795 -3.14068,-0.18905 -7.17147,-0.80207 -10.7576,-1.20271 -3.58613,-0.40064 -5.54557,-0.11163 -8.31876,-0.16704 -2.77319,-0.0554 -7.10465,0.84609 -10.65737,1.26953 -3.55272,0.42344 -7.03784,0.73472 -10.55715,1.10249 -3.51931,0.36776 -8.48511,0.99539 -12.72807,1.49349 -4.24295,0.4981 -3.93699,0.72419 -5.90588,1.08668 -1.96889,0.36249 -2.77156,1.22816 -4.15773,1.84264 -1.38618,0.61447 -4.37796,0.69269 -6.56734,1.03943 -2.189378,0.34674 -3.023546,0.88168 -4.535715,1.32292 -1.51217,0.44124 -3.622008,0.5982 -5.433408,0.89769 -1.811401,0.2995 -4.37796,-1.16569 -6.567336,-1.74814 -2.189377,-0.58245 -3.307028,-2.6461 -4.960938,-3.96875 -1.65391,-1.32265 -3.747999,-4.00051 -5.622396,-6.00037 -1.874396,-1.99986 -3.685003,-4.31549 -5.527901,-6.47284 -1.842899,-2.15735 -3.307028,-4.03201 -4.960938,-6.04762 -1.65391,-2.01561 -0.189096,-0.24469 -0.284041,-0.36664 -0.09495,-0.12194 0.03367,-0.7798 0.05011,-1.1693 0.01644,-0.3895 0.601621,-0.40117 0.902034,-0.60136 0.300414,-0.20019 0.323215,0.0554 0.484426,0.0835" />
  </g>
  <g
     inkscape:groupmode="layer"
     id="layer1"
     inkscape:label="color">
    <g
       style="display:inline"
       transform="translate(-0.24,0.37546937)"
       id="g879">
      <g
         id="g868-3"
         transform="translate(-4.3213816e-6,127.87936)">
        <g
           id="g867-6"
           transform="translate(-5.2916669,-23.813257)">
          <circle
             r="5.4393101"
             cy="115.89004"
             cx="181.70808"
             id="path827-1-81"
             style="opacity:1;vector-effect:none;fill:none;fill-opacity:1;fill-rule:evenodd;stroke:#000000;stroke-width:0.25079238;stroke-linecap:butt;stroke-linejoin:miter;stroke-miterlimit:4;stroke-dasharray:none;stroke-dashoffset:0;stroke-opacity:1" />
          <circle
             r="9.7710209"
             cy="116.0905"
             cx="181.50229"
             id="path829-5-0"
             style="opacity:1;vector-effect:none;fill:none;fill-opacity:1;fill-rule:evenodd;stroke:#000000;stroke-width:0.27362648;stroke-linecap:butt;stroke-linejoin:miter;stroke-miterlimit:4;stroke-dasharray:none;stroke-dashoffset:0;stroke-opacity:1" />
          <circle
             r="17.722456"
             cy="115.49453"
             cx="181.56371"
             id="path831-9-7"
             style="opacity:1;vector-effect:none;fill:none;fill-opacity:1;fill-rule:evenodd;stroke:#000000;stroke-width:0.27329892;stroke-linecap:butt;stroke-linejoin:miter;stroke-miterlimit:4;stroke-dasharray:none;stroke-dashoffset:0;stroke-opacity:1" />
          <circle
             r="22.006632"
             cy="115.75645"
             cx="181.4193"
             id="path833-3-6"
             style="opacity:1;vector-effect:none;fill:none;fill-opacity:1;fill-rule:evenodd;stroke:#000000;stroke-width:0.25756967;stroke-linecap:butt;stroke-linejoin:miter;stroke-miterlimit:4;stroke-dasharray:none;stroke-dashoffset:0;stroke-opacity:1" />
          <circle
             r="34.418961"
             cy="115.66119"
             cx="181.66968"
             id="path835-5-7"
             style="opacity:1;vector-effect:none;fill:none;fill-opacity:1;fill-rule:evenodd;stroke:#000000;stroke-width:0.31421968;stroke-linecap:butt;stroke-linejoin:miter;stroke-miterlimit:4;stroke-dasharray:none;stroke-dashoffset:0;stroke-opacity:1" />
        </g>
        <g
           transform="translate(-74.853603,-23.812766)"
           id="g867-9-6">
          <circle
             r="5.4393101"
             cy="115.89004"
             cx="181.70808"
             id="path827-1-8-6"
             style="opacity:1;vector-effect:none;fill:none;fill-opacity:1;fill-rule:evenodd;stroke:#000000;stroke-width:0.25079238;stroke-linecap:butt;stroke-linejoin:miter;stroke-miterlimit:4;stroke-dasharray:none;stroke-dashoffset:0;stroke-opacity:1" />
          <circle
             r="9.7710209"
             cy="116.0905"
             cx="181.50229"
             id="path829-5-8-9"
             style="opacity:1;vector-effect:none;fill:none;fill-opacity:1;fill-rule:evenodd;stroke:#000000;stroke-width:0.27362648;stroke-linecap:butt;stroke-linejoin:miter;stroke-miterlimit:4;stroke-dasharray:none;stroke-dashoffset:0;stroke-opacity:1" />
          <circle
             r="17.722456"
             cy="115.49453"
             cx="181.56371"
             id="path831-9-1-1"
             style="opacity:1;vector-effect:none;fill:none;fill-opacity:1;fill-rule:evenodd;stroke:#000000;stroke-width:0.27329892;stroke-linecap:butt;stroke-linejoin:miter;stroke-miterlimit:4;stroke-dasharray:none;stroke-dashoffset:0;stroke-opacity:1" />
          <circle
             r="22.006632"
             cy="115.75645"
             cx="181.4193"
             id="path833-3-1-4"
             style="opacity:1;vector-effect:none;fill:none;fill-opacity:1;fill-rule:evenodd;stroke:#000000;stroke-width:0.25756967;stroke-linecap:butt;stroke-linejoin:miter;stroke-miterlimit:4;stroke-dasharray:none;stroke-dashoffset:0;stroke-opacity:1" />
          <circle
             r="34.418961"
             cy="115.66119"
             cx="181.66968"
             id="path835-5-1-7"
             style="opacity:1;vector-effect:none;fill:none;fill-opacity:1;fill-rule:evenodd;stroke:#000000;stroke-width:0.31421968;stroke-linecap:butt;stroke-linejoin:miter;stroke-miterlimit:4;stroke-dasharray:none;stroke-dashoffset:0;stroke-opacity:1" />
        </g>
      </g>
      <g
         id="g868-3-6"
         transform="translate(-4.3213816e-6,197.20004)">
        <g
           id="g867-6-2"
           transform="translate(-5.2916669,-23.813257)">
          <circle
             r="5.4393101"
             cy="115.89004"
             cx="181.70808"
             id="path827-1-81-1"
             style="opacity:1;vector-effect:none;fill:none;fill-opacity:1;fill-rule:evenodd;stroke:#000000;stroke-width:0.25079238;stroke-linecap:butt;stroke-linejoin:miter;stroke-miterlimit:4;stroke-dasharray:none;stroke-dashoffset:0;stroke-opacity:1" />
          <circle
             r="9.7710209"
             cy="116.0905"
             cx="181.50229"
             id="path829-5-0-0"
             style="opacity:1;vector-effect:none;fill:none;fill-opacity:1;fill-rule:evenodd;stroke:#000000;stroke-width:0.27362648;stroke-linecap:butt;stroke-linejoin:miter;stroke-miterlimit:4;stroke-dasharray:none;stroke-dashoffset:0;stroke-opacity:1" />
          <circle
             r="17.722456"
             cy="115.49453"
             cx="181.56371"
             id="path831-9-7-3"
             style="opacity:1;vector-effect:none;fill:none;fill-opacity:1;fill-rule:evenodd;stroke:#000000;stroke-width:0.27329892;stroke-linecap:butt;stroke-linejoin:miter;stroke-miterlimit:4;stroke-dasharray:none;stroke-dashoffset:0;stroke-opacity:1" />
          <circle
             r="22.006632"
             cy="115.75645"
             cx="181.4193"
             id="path833-3-6-9"
             style="opacity:1;vector-effect:none;fill:none;fill-opacity:1;fill-rule:evenodd;stroke:#000000;stroke-width:0.25756967;stroke-linecap:butt;stroke-linejoin:miter;stroke-miterlimit:4;stroke-dasharray:none;stroke-dashoffset:0;stroke-opacity:1" />
          <circle
             r="34.418961"
             cy="115.66119"
             cx="181.66968"
             id="path835-5-7-9"
             style="opacity:1;vector-effect:none;fill:none;fill-opacity:1;fill-rule:evenodd;stroke:#000000;stroke-width:0.31421968;stroke-linecap:butt;stroke-linejoin:miter;stroke-miterlimit:4;stroke-dasharray:none;stroke-dashoffset:0;stroke-opacity:1" />
        </g>
        <g
           transform="translate(-74.853603,-23.812766)"
           id="g867-9-6-6">
          <circle
             r="5.4393101"
             cy="115.89004"
             cx="181.70808"
             id="path827-1-8-6-7"
             style="opacity:1;vector-effect:none;fill:none;fill-opacity:1;fill-rule:evenodd;stroke:#000000;stroke-width:0.25079238;stroke-linecap:butt;stroke-linejoin:miter;stroke-miterlimit:4;stroke-dasharray:none;stroke-dashoffset:0;stroke-opacity:1" />
          <circle
             r="9.7710209"
             cy="116.0905"
             cx="181.50229"
             id="path829-5-8-9-1"
             style="opacity:1;vector-effect:none;fill:none;fill-opacity:1;fill-rule:evenodd;stroke:#000000;stroke-width:0.27362648;stroke-linecap:butt;stroke-linejoin:miter;stroke-miterlimit:4;stroke-dasharray:none;stroke-dashoffset:0;stroke-opacity:1" />
          <circle
             r="17.722456"
             cy="115.49453"
             cx="181.56371"
             id="path831-9-1-1-4"
             style="opacity:1;vector-effect:none;fill:none;fill-opacity:1;fill-rule:evenodd;stroke:#000000;stroke-width:0.27329892;stroke-linecap:butt;stroke-linejoin:miter;stroke-miterlimit:4;stroke-dasharray:none;stroke-dashoffset:0;stroke-opacity:1" />
          <circle
             r="22.006632"
             cy="115.75645"
             cx="181.4193"
             id="path833-3-1-4-8"
             style="opacity:1;vector-effect:none;fill:none;fill-opacity:1;fill-rule:evenodd;stroke:#000000;stroke-width:0.25756967;stroke-linecap:butt;stroke-linejoin:miter;stroke-miterlimit:4;stroke-dasharray:none;stroke-dashoffset:0;stroke-opacity:1" />
          <circle
             r="34.418961"
             cy="115.66119"
             cx="181.66968"
             id="path835-5-1-7-7"
             style="opacity:1;vector-effect:none;fill:none;fill-opacity:1;fill-rule:evenodd;stroke:#000000;stroke-width:0.31421968;stroke-linecap:butt;stroke-linejoin:miter;stroke-miterlimit:4;stroke-dasharray:none;stroke-dashoffset:0;stroke-opacity:1" />
        </g>
      </g>
    </g>
    <path
       style="opacity:1;vector-effect:none;fill:#f45325;fill-opacity:1;stroke:none;stroke-width:0.40764937;stroke-linecap:butt;stroke-linejoin:miter;stroke-miterlimit:4;stroke-dasharray:none;stroke-dashoffset:0;stroke-opacity:1"
       d="m 102.81386,254.10897 c -11.772336,-1.44293 -21.747445,-8.48947 -26.951603,-19.03892 -3.858411,-7.82147 -4.502272,-17.32312 -1.742427,-25.71353 0.751467,-2.28459 2.691831,-6.22857 4.097708,-8.32898 4.129421,-6.16945 10.414963,-10.94233 17.529559,-13.31093 4.175073,-1.38997 5.609483,-1.6051 10.752033,-1.61256 5.16129,-0.007 6.79543,0.23263 10.91412,1.60364 15.99847,5.32546 25.69092,21.56412 22.82297,38.23744 -2.39427,13.91949 -13.16794,24.92391 -27.14546,27.72688 -1.61534,0.32393 -2.86591,0.42361 -5.83568,0.46516 -2.07887,0.0291 -4.07742,0.0164 -4.44122,-0.0282 z m 7.39303,-12.06532 c 4.4615,-0.78247 8.46917,-2.89463 11.81243,-6.22551 5.05243,-5.03373 7.34928,-12.13847 6.20508,-19.19389 -2.36236,-14.56687 -18.34347,-22.85785 -31.552653,-16.36947 -6.705217,3.29362 -11.18678,9.39171 -12.292447,16.7264 -1.634757,10.84457 5.155893,21.42848 15.71306,24.49037 0.92514,0.26832 2.10729,0.55937 2.62701,0.64678 1.58242,0.26615 5.78313,0.22424 7.48752,-0.0747 z"
       id="path903"
       inkscape:connector-curvature="0" />
    <path
       style="opacity:1;vector-effect:none;fill:#f45325;fill-opacity:1;stroke:none;stroke-width:0.40764937;stroke-linecap:butt;stroke-linejoin:miter;stroke-miterlimit:4;stroke-dasharray:none;stroke-dashoffset:0;stroke-opacity:1"
       d="m 102.81386,237.04186 c -6.38398,-1.34836 -11.386967,-6.09884 -13.269356,-12.59963 -0.369898,-1.27744 -0.432046,-1.92703 -0.432046,-4.51588 0,-2.58319 0.06296,-3.24412 0.432086,-4.53571 1.727618,-6.04506 6.532311,-10.81245 12.513366,-12.41623 1.36035,-0.36477 2.05507,-0.42875 4.53571,-0.41767 2.61416,0.0117 3.10801,0.0675 4.59021,0.51889 2.98337,0.90853 5.22148,2.20315 7.38436,4.27142 2.31362,2.21241 4.0234,5.10023 4.87423,8.23257 0.59039,2.17354 0.59039,6.51992 0,8.69345 -0.86626,3.18917 -2.57147,6.04337 -4.97402,8.32554 -2.46569,2.34217 -5.49695,3.90324 -8.82034,4.54242 -1.86846,0.35936 -4.86945,0.31581 -6.8342,-0.0992 z m 6.45294,-6.99778 c 3.63379,-1.12278 6.1683,-3.96031 6.9128,-7.73931 1.36533,-6.93025 -5.29385,-13.2244 -12.11235,-11.44841 -1.93153,0.5031 -3.15401,1.20805 -4.612461,2.65981 -2.465191,2.45388 -3.46213,5.55523 -2.825122,8.7886 0.736357,3.73763 3.105495,6.43284 6.751163,7.68031 1.63687,0.56011 4.18158,0.58562 5.88597,0.059 z"
       id="path905"
       inkscape:connector-curvature="0" />
    <path
       style="opacity:1;vector-effect:none;fill:#f45325;fill-opacity:1;stroke:none;stroke-width:0.40764937;stroke-linecap:butt;stroke-linejoin:miter;stroke-miterlimit:4;stroke-dasharray:none;stroke-dashoffset:0;stroke-opacity:1"
       d="m 104.42026,225.05034 c -2.63839,-1.24944 -3.752,-4.38359 -2.48076,-6.98191 2.30226,-4.70565 9.16943,-3.51125 9.86277,1.71543 0.51389,3.87388 -3.80948,6.95825 -7.38201,5.26648 z"
       id="path907"
       inkscape:connector-curvature="0" />
    <path
       style="opacity:1;vector-effect:none;fill:#81bd06;fill-opacity:1;stroke:none;stroke-width:0.40764937;stroke-linecap:butt;stroke-linejoin:miter;stroke-miterlimit:4;stroke-dasharray:none;stroke-dashoffset:0;stroke-opacity:1"
       d="m 171.75088,254.02751 c -11.49317,-1.5838 -21.28765,-8.644 -26.33353,-18.98211 -5.30046,-10.85971 -4.43285,-23.77793 2.272,-33.82887 5.09603,-7.63922 12.58446,-12.67269 21.83731,-14.67831 1.76146,-0.38181 2.50449,-0.43013 6.61458,-0.43013 5.24763,0 6.6314,0.20521 10.84653,1.60852 11.36978,3.78525 19.85764,13.22053 22.50285,25.01466 2.40251,10.71204 -0.56181,21.95057 -7.9793,30.25163 -2.88082,3.22398 -6.2117,5.72251 -10.34552,7.76029 -2.81849,1.38938 -5.57941,2.33765 -8.52742,2.92882 -2.32654,0.46655 -8.59607,0.67126 -10.8875,0.3555 z m 8.01214,-11.98377 c 9.19043,-1.60267 16.51279,-9.02234 18.009,-18.24833 1.847,-11.38906 -5.28243,-22.25984 -16.47173,-25.11569 -9.86028,-2.51665 -20.40585,2.21547 -25.0346,11.23377 -1.88266,3.66803 -2.51028,6.28355 -2.49335,10.39083 0.0124,3.0035 0.23469,4.40968 1.10884,7.01375 2.11431,6.29842 7.27431,11.55333 13.51155,13.76009 3.39434,1.20094 7.85059,1.57937 11.37029,0.96558 z"
       id="path909"
       inkscape:connector-curvature="0" />
    <path
       style="opacity:1;vector-effect:none;fill:#05a5ef;fill-opacity:1;stroke:none;stroke-width:0.40764937;stroke-linecap:butt;stroke-linejoin:miter;stroke-miterlimit:4;stroke-dasharray:none;stroke-dashoffset:0;stroke-opacity:1"
       d="m 102.05791,323.31317 c -7.708671,-1.11591 -14.426378,-4.47847 -19.829852,-9.9259 -10.616518,-10.7029 -12.865939,-27.26108 -5.511483,-40.57052 3.333637,-6.03289 8.554887,-10.97744 14.852494,-14.06533 12.363451,-6.06215 27.144671,-4.10595 37.515431,4.96489 10.92833,9.55854 14.60813,24.98282 9.17982,38.47834 -4.37799,10.8843 -14.21908,18.85786 -25.81207,20.91381 -2.44806,0.43413 -8.04756,0.5444 -10.39434,0.20471 z m 9.63839,-12.25334 c 7.54557,-1.98186 13.40303,-7.47593 15.76007,-14.78229 2.17142,-6.73098 0.92018,-14.28398 -3.30186,-19.93135 -2.65015,-3.54484 -6.22995,-6.22589 -10.21441,-7.64998 -2.84128,-1.01553 -4.44092,-1.29202 -7.53546,-1.30248 -6.19915,-0.0209 -11.332575,2.09144 -15.711323,6.4654 -10.272517,10.26128 -8.176416,27.19903 4.299453,34.74222 2.176174,1.31578 4.709819,2.25034 7.55538,2.78691 2.32972,0.43932 6.84188,0.27734 9.14815,-0.32843 z"
       id="path913"
       inkscape:connector-curvature="0" />
    <path
       style="opacity:1;vector-effect:none;fill:#ffba07;fill-opacity:1;stroke:none;stroke-width:0.40764937;stroke-linecap:butt;stroke-linejoin:miter;stroke-miterlimit:4;stroke-dasharray:none;stroke-dashoffset:0;stroke-opacity:1"
       d="M 171.60553,323.31396 C 157.28604,321.26 145.91994,310.84409 142.8083,296.92413 c -3.83402,-17.15146 5.98563,-34.49991 22.61023,-39.94574 14.65033,-4.79908 30.57658,0.6846 39.13628,13.47528 7.35133,10.98504 7.66119,25.41699 0.78803,36.70319 -5.1081,8.38785 -13.62173,14.20651 -23.34297,15.95379 -2.41991,0.43495 -8.01622,0.54441 -10.39434,0.20331 z m 9.69395,-12.2664 c 8.61924,-2.25317 15.07813,-9.29667 16.48629,-17.97855 1.90794,-11.76319 -5.73958,-22.78553 -17.58128,-25.33988 -2.10503,-0.45408 -6.45334,-0.45956 -8.56042,-0.0109 -9.79939,2.08706 -16.76119,9.74101 -17.83088,19.60367 -0.78752,7.26096 2.35425,14.79907 8.08934,19.40888 2.83957,2.28243 6.54817,3.9797 10.17547,4.65688 2.3768,0.44373 6.85454,0.27852 9.22148,-0.3402 z"
       id="path915"
       inkscape:connector-curvature="0" />
    <path
       style="opacity:1;vector-effect:none;fill:#81bd06;fill-opacity:1;stroke:none;stroke-width:0.40764937;stroke-linecap:butt;stroke-linejoin:miter;stroke-miterlimit:4;stroke-dasharray:none;stroke-dashoffset:0;stroke-opacity:1"
       d="m 173.96788,225.05034 c -3.50724,-1.66088 -4.04019,-6.50674 -0.97076,-8.82661 2.21875,-1.67694 4.88057,-1.48365 6.86254,0.49832 1.59386,1.59386 1.97619,3.72918 1.03899,5.8027 -1.14587,2.53519 -4.40362,3.72232 -6.93077,2.52559 z"
       id="path917"
       inkscape:connector-curvature="0" />
    <path
       style="opacity:1;vector-effect:none;fill:#81bd06;fill-opacity:1;stroke:none;stroke-width:0.40764937;stroke-linecap:butt;stroke-linejoin:miter;stroke-miterlimit:4;stroke-dasharray:none;stroke-dashoffset:0;stroke-opacity:1"
       d="m 172.36148,237.03747 c -6.30731,-1.34944 -11.46985,-6.21773 -13.2353,-12.48091 -0.60719,-2.15409 -0.70894,-5.80423 -0.22658,-8.12839 0.7122,-3.43165 2.30336,-6.37637 4.78798,-8.86099 2.28741,-2.28741 4.8975,-3.75547 8.35522,-4.69945 1.85333,-0.50597 6.39042,-0.44947 8.31584,0.10356 3.21305,0.92288 5.53565,2.23028 7.75365,4.36458 2.2956,2.20898 3.81413,4.71363 4.77791,7.88069 0.4597,1.51061 0.51442,1.99067 0.52601,4.6153 0.0138,3.13178 -0.20772,4.32731 -1.30019,7.0159 -1.06008,2.60886 -3.74906,5.86503 -6.23266,7.54729 -3.9171,2.65326 -8.9104,3.62904 -13.52188,2.64242 z m 6.14211,-6.87982 c 4.13086,-1.10622 7.08092,-4.68965 7.39873,-8.98724 0.3188,-4.31097 -2.51084,-8.58861 -6.64277,-10.04202 -1.43422,-0.50448 -3.8152,-0.67505 -5.25277,-0.37628 -5.00439,1.04003 -8.61069,6.05715 -7.91087,11.00567 0.56703,4.00961 3.137,7.04812 7.02152,8.30166 1.2688,0.40944 4.03559,0.45989 5.38616,0.0982 z"
       id="path919"
       inkscape:connector-curvature="0" />
    <path
       style="opacity:1;vector-effect:none;fill:#ffba07;fill-opacity:1;stroke:none;stroke-width:0.40764937;stroke-linecap:butt;stroke-linejoin:miter;stroke-miterlimit:4;stroke-dasharray:none;stroke-dashoffset:0;stroke-opacity:1"
       d="m 172.993,306.49966 c -3.63003,-0.69326 -6.40421,-2.13331 -9.11059,-4.72919 -2.3472,-2.25139 -3.92841,-4.92553 -4.80509,-8.12638 -0.60766,-2.21869 -0.59791,-6.72158 0.0192,-8.87498 1.74084,-6.0743 6.06832,-10.49601 12.07494,-12.33794 1.50936,-0.46284 1.94961,-0.51086 4.78075,-0.52144 3.6352,-0.0135 4.96568,0.27323 7.84351,1.69087 4.66192,2.29651 7.94593,6.41072 9.27605,11.62114 0.52931,2.0734 0.48858,6.31991 -0.0807,8.40996 -0.85411,3.13598 -2.56267,6.02107 -4.87534,8.23259 -3.25753,3.11502 -6.95317,4.6627 -11.5021,4.81688 -1.44911,0.0491 -2.75626,-0.0164 -3.62071,-0.18151 z m 5.50274,-7.01521 c 2.44245,-0.63619 4.87533,-2.49098 6.11936,-4.66532 0.71384,-1.24767 1.35352,-3.59519 1.35352,-4.96718 0,-1.372 -0.63968,-3.71952 -1.35352,-4.96719 -1.24403,-2.17433 -3.67691,-4.02912 -6.11936,-4.6653 -5.67372,-1.47782 -11.51738,2.40894 -12.3842,8.23702 -0.70787,4.75938 2.4331,9.63068 7.0641,10.9556 1.46646,0.41958 3.86201,0.45215 5.3201,0.0724 z"
       id="path921"
       inkscape:connector-curvature="0" />
    <path
       style="opacity:1;vector-effect:none;fill:#000000;fill-opacity:0;stroke:none;stroke-width:0.40764937;stroke-linecap:butt;stroke-linejoin:miter;stroke-miterlimit:4;stroke-dasharray:none;stroke-dashoffset:0;stroke-opacity:1"
       d="m 174.32419,294.56595 c -1.96159,-0.72454 -3.30925,-2.70986 -3.30925,-4.87508 0,-2.92278 1.93031,-4.99692 4.82315,-5.18256 1.11468,-0.0715 1.53285,-0.0119 2.33553,0.33346 1.8533,0.79727 3.25929,2.87703 3.25929,4.82118 0,1.7561 -1.30017,3.84525 -2.90509,4.66799 -1.01265,0.51912 -3.11601,0.6367 -4.20363,0.23501 z"
       id="path923"
       inkscape:connector-curvature="0" />
    <path
       style="opacity:1;vector-effect:none;fill:#ffba07;fill-opacity:1;stroke:none;stroke-width:0.40764937;stroke-linecap:butt;stroke-linejoin:miter;stroke-miterlimit:4;stroke-dasharray:none;stroke-dashoffset:0;stroke-opacity:1"
       d="m 174.32419,294.56595 c -1.96159,-0.72454 -3.30925,-2.70986 -3.30925,-4.87508 0,-2.92278 1.93031,-4.99692 4.82315,-5.18256 1.11468,-0.0715 1.53285,-0.0119 2.33553,0.33346 1.8533,0.79727 3.25929,2.87703 3.25929,4.82118 0,1.7561 -1.30017,3.84525 -2.90509,4.66799 -1.01265,0.51912 -3.11601,0.6367 -4.20363,0.23501 z"
       id="path925"
       inkscape:connector-curvature="0" />
    <path
       style="opacity:1;vector-effect:none;fill:#05a5ef;fill-opacity:1;stroke:none;stroke-width:0.40764937;stroke-linecap:butt;stroke-linejoin:miter;stroke-miterlimit:4;stroke-dasharray:none;stroke-dashoffset:0;stroke-opacity:1"
       d="m 103.4489,306.50024 c -5.739235,-1.0964 -10.582007,-4.8487 -12.923993,-10.01384 -1.164312,-2.56783 -1.413844,-3.86728 -1.401027,-7.29591 0.01058,-2.83115 0.0586,-3.27139 0.521441,-4.78075 1.810313,-5.90358 6.074981,-10.16826 11.978559,-11.97857 1.50936,-0.46284 1.94961,-0.51086 4.78076,-0.52144 2.69845,-0.01 3.31648,0.0458 4.59023,0.415 8.07546,2.34066 13.3622,9.62674 12.92339,17.81069 -0.34815,6.49319 -4.07258,12.09347 -9.88717,14.86696 -0.95064,0.45345 -2.3964,0.99939 -3.21279,1.21317 -1.91856,0.50245 -5.50441,0.64098 -7.3694,0.28469 z m 5.46846,-7.02439 c 4.8658,-1.26085 8.14209,-6.18787 7.34087,-11.03948 -0.82916,-5.02071 -4.86681,-8.50629 -9.85359,-8.50629 -4.95781,0 -9.16161,3.66643 -9.859211,8.59895 -0.677026,4.78705 2.435065,9.55135 7.114661,10.89184 1.44651,0.41436 3.77639,0.43873 5.25727,0.055 z"
       id="path927"
       inkscape:connector-curvature="0" />
    <path
       style="opacity:1;vector-effect:none;fill:#05a5ef;fill-opacity:1;stroke:none;stroke-width:0.40764937;stroke-linecap:butt;stroke-linejoin:miter;stroke-miterlimit:4;stroke-dasharray:none;stroke-dashoffset:0;stroke-opacity:1"
       d="m 104.77657,294.56595 c -1.93134,-0.71335 -3.3586,-2.79125 -3.3539,-4.88283 0.006,-2.86139 2.01008,-4.99142 4.8678,-5.17481 1.11884,-0.0718 1.53204,-0.0122 2.34794,0.33881 1.818,0.78208 3.24688,2.90141 3.24688,4.81583 0,1.7561 -1.30017,3.84525 -2.90508,4.66799 -1.01266,0.51912 -3.11602,0.6367 -4.20364,0.23501 z"
       id="path929"
       inkscape:connector-curvature="0" />
    <path
       style="opacity:1;vector-effect:none;fill:#093b9e;fill-opacity:1;stroke:none;stroke-width:6.16288805;stroke-linecap:butt;stroke-linejoin:miter;stroke-miterlimit:4;stroke-dasharray:none;stroke-dashoffset:0;stroke-opacity:1"
       d="m 439.45712,303.28423 c -9.7652,-5.10151 -23.40363,-14.92421 -30.30763,-21.8282 -12.01413,-12.01413 -30.02135,-42.32473 -26.96214,-45.38394 0.80409,-0.80409 17.13648,0.67226 36.2942,3.28076 39.83452,5.42384 59.11594,3.27771 84.34955,-9.38861 17.11592,-8.59154 46.37181,-29.00976 54.38094,-37.95346 9.73256,-10.86823 17.80967,-12.31808 31.55486,-5.66415 26.86621,13.00571 55.28068,46.53344 51.66059,60.95704 -2.36058,9.40528 -30.75997,28.39514 -56.10096,37.51311 -69.44592,24.9874 -69.40274,24.97584 -98.54306,26.37303 -27.89467,1.33746 -28.99198,1.15021 -46.32635,-7.90558 z"
       id="path922"
       inkscape:connector-curvature="0"
       transform="scale(0.26458333)" />
    <path
       style="opacity:1;vector-effect:none;fill:#093b9e;fill-opacity:1;stroke:none;stroke-width:6.16288805;stroke-linecap:butt;stroke-linejoin:miter;stroke-miterlimit:4;stroke-dasharray:none;stroke-dashoffset:0;stroke-opacity:1"
       d="m 457.21204,430.62496 c -7.85714,-4.2141 -18.58815,-11.73586 -23.84669,-16.71502 -8.73773,-8.2735 -26.06239,-34.64347 -26.1265,-39.7673 -0.0147,-1.17857 7.48996,-2.14286 16.67712,-2.14286 9.18716,0 28.57884,-0.8429 43.09263,-1.87312 l 26.38869,-1.87312 22.11242,-20.80178 c 12.16183,-11.44097 25.69024,-21.69975 30.06314,-22.79728 14.06106,-3.5291 38.75148,4.45759 50.69111,16.39723 11.85115,11.85115 23.71115,29.08972 26.47385,38.47989 6.45041,21.92434 -62.0703,54.35742 -120.97795,57.2628 -28.80302,1.42059 -30.95089,1.12313 -44.54782,-6.16944 z"
       id="path924"
       inkscape:connector-curvature="0"
       transform="scale(0.26458333)" />
    <path
       style="opacity:1;vector-effect:none;fill:#093b9e;fill-opacity:1;stroke:none;stroke-width:6.16288805;stroke-linecap:butt;stroke-linejoin:miter;stroke-miterlimit:4;stroke-dasharray:none;stroke-dashoffset:0;stroke-opacity:1"
       d="m 324.3549,574.94611 c -15.83818,-8.50915 -84.60086,-83.52774 -81.36354,-88.76585 0.63719,-1.03099 13.74037,0.73209 29.11817,3.91796 52.88147,10.95562 136.71189,6.69807 276.23631,-14.02939 15.55217,-2.3104 48.33789,-4.96124 72.85714,-5.89077 40.34486,-1.52947 45.5306,-2.32242 54.58049,-8.34591 24.17791,-16.09249 40.57623,-16.76877 64.4538,-2.65813 21.10226,12.47055 39.16248,31.68973 50.05434,53.26638 9.96783,19.74619 10.41186,27.59482 2.155,38.09173 -13.36757,16.99412 -35.80474,19.83759 -68.89168,8.73066 -21.05,-7.06625 -58.53872,-11.59578 -122.05718,-14.74741 -36.33308,-1.80276 -167.97288,12.6446 -182.18666,19.99482 -4.75313,2.45795 -14.24131,5.28183 -21.08484,6.27529 -6.84353,0.99347 -18.78328,3.60167 -26.53278,5.79601 -19.03583,5.39016 -35.30818,4.828 -47.33857,-1.63539 z"
       id="path928"
       inkscape:connector-curvature="0"
       transform="scale(0.26458333)" />
  </g>
</svg>
